nohup: ignoring input
  0%|          | 0/8551 [00:00<?, ?it/s]  8%|▊         | 652/8551 [00:00<00:01, 6514.83it/s] 15%|█▌        | 1322/8551 [00:00<00:01, 6568.28it/s] 22%|██▏       | 1919/8551 [00:00<00:01, 6375.62it/s] 31%|███       | 2649/8551 [00:00<00:00, 6625.53it/s] 40%|████      | 3438/8551 [00:00<00:00, 6954.67it/s] 49%|████▊     | 4156/8551 [00:00<00:00, 7019.05it/s] 57%|█████▋    | 4887/8551 [00:00<00:00, 7101.69it/s] 65%|██████▌   | 5584/8551 [00:00<00:00, 7059.96it/s] 74%|███████▍  | 6328/8551 [00:00<00:00, 7167.96it/s] 82%|████████▏ | 7021/8551 [00:01<00:00, 7063.84it/s] 90%|█████████ | 7733/8551 [00:01<00:00, 7080.15it/s] 99%|█████████▉| 8493/8551 [00:01<00:00, 7226.30it/s]100%|██████████| 8551/8551 [00:01<00:00, 7065.29it/s]
  0%|          | 0/527 [00:00<?, ?it/s]100%|██████████| 527/527 [00:00<00:00, 7066.65it/s]
Some weights of the model checkpoint at bert-base-uncased were not used when initializing BertForSequenceClassification: ['cls.predictions.bias', 'cls.predictions.transform.dense.weight', 'cls.predictions.transform.dense.bias', 'cls.predictions.decoder.weight', 'cls.seq_relationship.weight', 'cls.seq_relationship.bias', 'cls.predictions.transform.LayerNorm.weight', 'cls.predictions.transform.LayerNorm.bias']
- This IS expected if you are initializing BertForSequenceClassification from the checkpoint of a model trained on another task or with another architecture (e.g. initializing a BertForSequenceClassification model from a BertForPretraining model).
- This IS NOT expected if you are initializing BertForSequenceClassification from the checkpoint of a model that you expect to be exactly identical (initializing a BertForSequenceClassification model from a BertForSequenceClassification model).
Some weights of BertForSequenceClassification were not initialized from the model checkpoint at bert-base-uncased and are newly initialized: ['classifier.weight', 'classifier.bias']
You should probably TRAIN this model on a down-stream task to be able to use it for predictions and inference.
  0%|          | 0/8551 [00:00<?, ?it/s]  7%|▋         | 621/8551 [00:00<00:01, 6203.10it/s] 15%|█▍        | 1266/8551 [00:00<00:01, 6274.77it/s] 21%|██▏       | 1826/8551 [00:00<00:01, 6053.72it/s] 29%|██▉       | 2498/8551 [00:00<00:00, 6238.93it/s] 38%|███▊      | 3245/8551 [00:00<00:00, 6562.57it/s] 46%|████▋     | 3958/8551 [00:00<00:00, 6722.55it/s] 54%|█████▍    | 4650/8551 [00:00<00:00, 6778.58it/s] 62%|██████▏   | 5308/8551 [00:00<00:00, 6717.67it/s] 70%|███████   | 6000/8551 [00:00<00:00, 6777.09it/s] 78%|███████▊  | 6675/8551 [00:01<00:00, 6768.26it/s] 86%|████████▌ | 7336/8551 [00:01<00:00, 6645.32it/s] 95%|█████████▍| 8081/8551 [00:01<00:00, 6866.29it/s]100%|██████████| 8551/8551 [00:01<00:00, 6740.40it/s]
  0%|          | 0/527 [00:00<?, ?it/s]100%|██████████| 527/527 [00:00<00:00, 6742.12it/s]
Some weights of the model checkpoint at bert-base-uncased were not used when initializing BertForSequenceClassification: ['cls.predictions.bias', 'cls.predictions.transform.dense.weight', 'cls.predictions.transform.dense.bias', 'cls.predictions.decoder.weight', 'cls.seq_relationship.weight', 'cls.seq_relationship.bias', 'cls.predictions.transform.LayerNorm.weight', 'cls.predictions.transform.LayerNorm.bias']
- This IS expected if you are initializing BertForSequenceClassification from the checkpoint of a model trained on another task or with another architecture (e.g. initializing a BertForSequenceClassification model from a BertForPretraining model).
- This IS NOT expected if you are initializing BertForSequenceClassification from the checkpoint of a model that you expect to be exactly identical (initializing a BertForSequenceClassification model from a BertForSequenceClassification model).
Some weights of BertForSequenceClassification were not initialized from the model checkpoint at bert-base-uncased and are newly initialized: ['classifier.weight', 'classifier.bias']
You should probably TRAIN this model on a down-stream task to be able to use it for predictions and inference.
  0%|          | 0/8551 [00:00<?, ?it/s]  7%|▋         | 609/8551 [00:00<00:01, 6085.10it/s] 15%|█▍        | 1252/8551 [00:00<00:01, 6183.20it/s] 21%|██        | 1809/8551 [00:00<00:01, 5983.18it/s] 29%|██▉       | 2469/8551 [00:00<00:00, 6153.84it/s] 38%|███▊      | 3213/8551 [00:00<00:00, 6489.45it/s] 46%|████▌     | 3915/8551 [00:00<00:00, 6637.72it/s] 54%|█████▍    | 4599/8551 [00:00<00:00, 6696.86it/s] 61%|██████▏   | 5251/8551 [00:00<00:00, 6640.96it/s] 69%|██████▉   | 5926/8551 [00:00<00:00, 6671.52it/s] 77%|███████▋  | 6608/8551 [00:01<00:00, 6711.73it/s] 85%|████████▍ | 7264/8551 [00:01<00:00, 6602.15it/s] 94%|█████████▎| 8001/8551 [00:01<00:00, 6813.74it/s]100%|██████████| 8551/8551 [00:01<00:00, 6676.20it/s]
  0%|          | 0/527 [00:00<?, ?it/s]100%|██████████| 527/527 [00:00<00:00, 6697.16it/s]
Some weights of the model checkpoint at bert-base-uncased were not used when initializing BertForSequenceClassification: ['cls.predictions.bias', 'cls.predictions.transform.dense.weight', 'cls.predictions.transform.dense.bias', 'cls.predictions.decoder.weight', 'cls.seq_relationship.weight', 'cls.seq_relationship.bias', 'cls.predictions.transform.LayerNorm.weight', 'cls.predictions.transform.LayerNorm.bias']
- This IS expected if you are initializing BertForSequenceClassification from the checkpoint of a model trained on another task or with another architecture (e.g. initializing a BertForSequenceClassification model from a BertForPretraining model).
- This IS NOT expected if you are initializing BertForSequenceClassification from the checkpoint of a model that you expect to be exactly identical (initializing a BertForSequenceClassification model from a BertForSequenceClassification model).
Some weights of BertForSequenceClassification were not initialized from the model checkpoint at bert-base-uncased and are newly initialized: ['classifier.weight', 'classifier.bias']
You should probably TRAIN this model on a down-stream task to be able to use it for predictions and inference.
  0%|          | 0/8551 [00:00<?, ?it/s]  7%|▋         | 618/8551 [00:00<00:01, 6177.40it/s] 15%|█▍        | 1267/8551 [00:00<00:01, 6267.25it/s] 21%|██▏       | 1835/8551 [00:00<00:01, 6077.50it/s] 29%|██▉       | 2516/8551 [00:00<00:00, 6278.89it/s] 38%|███▊      | 3267/8551 [00:00<00:00, 6603.40it/s] 46%|████▋     | 3969/8551 [00:00<00:00, 6722.77it/s] 54%|█████▍    | 4658/8551 [00:00<00:00, 6771.27it/s] 62%|██████▏   | 5318/8551 [00:00<00:00, 6716.49it/s] 70%|███████   | 6011/8551 [00:00<00:00, 6776.81it/s] 78%|███████▊  | 6683/8551 [00:01<00:00, 6759.48it/s] 86%|████████▌ | 7343/8551 [00:01<00:00, 6649.58it/s] 94%|█████████▍| 8078/8551 [00:01<00:00, 6844.51it/s]100%|██████████| 8551/8551 [00:01<00:00, 6736.90it/s]
  0%|          | 0/527 [00:00<?, ?it/s]100%|██████████| 527/527 [00:00<00:00, 6628.64it/s]
Some weights of the model checkpoint at bert-base-uncased were not used when initializing BertForSequenceClassification: ['cls.predictions.bias', 'cls.predictions.transform.dense.weight', 'cls.predictions.transform.dense.bias', 'cls.predictions.decoder.weight', 'cls.seq_relationship.weight', 'cls.seq_relationship.bias', 'cls.predictions.transform.LayerNorm.weight', 'cls.predictions.transform.LayerNorm.bias']
- This IS expected if you are initializing BertForSequenceClassification from the checkpoint of a model trained on another task or with another architecture (e.g. initializing a BertForSequenceClassification model from a BertForPretraining model).
- This IS NOT expected if you are initializing BertForSequenceClassification from the checkpoint of a model that you expect to be exactly identical (initializing a BertForSequenceClassification model from a BertForSequenceClassification model).
Some weights of BertForSequenceClassification were not initialized from the model checkpoint at bert-base-uncased and are newly initialized: ['classifier.weight', 'classifier.bias']
You should probably TRAIN this model on a down-stream task to be able to use it for predictions and inference.
  0%|          | 0/8551 [00:00<?, ?it/s]  7%|▋         | 619/8551 [00:00<00:01, 6184.87it/s] 15%|█▍        | 1268/8551 [00:00<00:01, 6272.08it/s] 21%|██▏       | 1834/8551 [00:00<00:01, 6074.63it/s] 29%|██▉       | 2513/8551 [00:00<00:00, 6270.74it/s] 38%|███▊      | 3256/8551 [00:00<00:00, 6577.38it/s] 46%|████▋     | 3957/8551 [00:00<00:00, 6700.44it/s] 54%|█████▍    | 4652/8551 [00:00<00:00, 6770.89it/s] 62%|██████▏   | 5306/8551 [00:00<00:00, 6698.17it/s] 70%|███████   | 5991/8551 [00:00<00:00, 6741.08it/s] 78%|███████▊  | 6660/8551 [00:01<00:00, 6725.16it/s] 86%|████████▌ | 7317/8551 [00:01<00:00, 6604.97it/s] 94%|█████████▍| 8059/8551 [00:01<00:00, 6827.93it/s]100%|██████████| 8551/8551 [00:01<00:00, 6715.88it/s]
  0%|          | 0/527 [00:00<?, ?it/s]100%|██████████| 527/527 [00:00<00:00, 6840.90it/s]
Some weights of the model checkpoint at bert-base-uncased were not used when initializing BertForSequenceClassification: ['cls.predictions.bias', 'cls.predictions.transform.dense.weight', 'cls.predictions.transform.dense.bias', 'cls.predictions.decoder.weight', 'cls.seq_relationship.weight', 'cls.seq_relationship.bias', 'cls.predictions.transform.LayerNorm.weight', 'cls.predictions.transform.LayerNorm.bias']
- This IS expected if you are initializing BertForSequenceClassification from the checkpoint of a model trained on another task or with another architecture (e.g. initializing a BertForSequenceClassification model from a BertForPretraining model).
- This IS NOT expected if you are initializing BertForSequenceClassification from the checkpoint of a model that you expect to be exactly identical (initializing a BertForSequenceClassification model from a BertForSequenceClassification model).
Some weights of BertForSequenceClassification were not initialized from the model checkpoint at bert-base-uncased and are newly initialized: ['classifier.weight', 'classifier.bias']
You should probably TRAIN this model on a down-stream task to be able to use it for predictions and inference.
