Train Multi-Optimizer
--- START Arg parse ---
path : /home/super/datasets/AGnews
dataset : agnews
test_file : /media/mint/Barracuda/Datasets/cifar10/
gpu : 0
seed : 1
seq_max_len : 64
batch_size : 100
lr : 0.0002
momentum : 0.95
adam_w : 0.4
sgd_w : 0.6
max_epoch : 10
--- END Arg parse ---
Currently using GPU: 0
Learning rate optimizer 0.0002  Batch-size 100
torch.Size([120000, 64]) torch.Size([120000, 64]) torch.Size([120000])
torch.Size([7600, 64]) torch.Size([7600, 64]) torch.Size([7600])
creating model...
AdamSGDWeighted (
Parameter Group 0
    adam_w: 0.4
    amsgrad: False
    betas: (0.9, 0.999)
    dampening: 0
    eps: 1e-08
    lr: 0.0002
    momentum: 0.95
    nesterov: False
    sgd_w: 0.6
    weight_decay: 0
)
==> Start Epoch 1/10
Batch 10	 Loss 0.8131794929504395 (1.1329872369766236)
Batch 20	 Loss 0.3769570589065552 (0.8693656027317047)
Batch 30	 Loss 0.3333742022514343 (0.7211772064367931)
Batch 40	 Loss 0.4331757426261902 (0.626839641854167)
Batch 50	 Loss 0.5353183746337891 (0.5767610695958137)
Batch 60	 Loss 0.3530590534210205 (0.5384220076104005)
Batch 70	 Loss 0.23208871483802795 (0.5016730144619942)
Batch 80	 Loss 0.26487821340560913 (0.47743497528135775)
Batch 90	 Loss 0.5112514495849609 (0.46256942053635913)
Batch 100	 Loss 0.4139519929885864 (0.4524343477189541)
Batch 110	 Loss 0.21967428922653198 (0.44312650574879214)
Batch 120	 Loss 0.2069913148880005 (0.42928625730176767)
Batch 130	 Loss 0.22308535873889923 (0.41775496475971663)
Batch 140	 Loss 0.4124671220779419 (0.4082383537931102)
Batch 150	 Loss 0.30154404044151306 (0.39930963804324465)
Batch 160	 Loss 0.27740001678466797 (0.3891254114918411)
Batch 170	 Loss 0.20475244522094727 (0.3813760262201814)
Batch 180	 Loss 0.38232362270355225 (0.3752251302202543)
Batch 190	 Loss 0.2129843384027481 (0.369627299747969)
Batch 200	 Loss 0.32882872223854065 (0.3664481449127197)
Batch 210	 Loss 0.2535460293292999 (0.3628398312699227)
Batch 220	 Loss 0.22538107633590698 (0.3582834900102832)
Batch 230	 Loss 0.3147105872631073 (0.3556748601405517)
Batch 240	 Loss 0.1627546101808548 (0.3517173134411375)
Batch 250	 Loss 0.3186921179294586 (0.34868255370855333)
Batch 260	 Loss 0.4176137447357178 (0.3452479395155723)
Batch 270	 Loss 0.3033231496810913 (0.3418086068497764)
Batch 280	 Loss 0.12909628450870514 (0.33753315742526735)
Batch 290	 Loss 0.24397321045398712 (0.3343286430527424)
Batch 300	 Loss 0.2827574908733368 (0.33167140364646913)
Batch 310	 Loss 0.16254937648773193 (0.32940993347475606)
Batch 320	 Loss 0.2931956946849823 (0.3276064359582961)
Batch 330	 Loss 0.2049064189195633 (0.3246072428244533)
Batch 340	 Loss 0.29681113362312317 (0.3224514723262366)
Batch 350	 Loss 0.3250041902065277 (0.3196040514111519)
Batch 360	 Loss 0.18775464594364166 (0.31686065536406305)
Batch 370	 Loss 0.3073899745941162 (0.3147462759871741)
Batch 380	 Loss 0.1010715588927269 (0.3121519192465042)
Batch 390	 Loss 0.3569949269294739 (0.31161951928948745)
Batch 400	 Loss 0.2356540858745575 (0.30998149650171397)
Batch 410	 Loss 0.37329474091529846 (0.30895388491633463)
Batch 420	 Loss 0.27869027853012085 (0.30703522099980285)
Batch 430	 Loss 0.2670021057128906 (0.3056210141022538)
Batch 440	 Loss 0.31344330310821533 (0.30449410407719285)
Batch 450	 Loss 0.17568349838256836 (0.3025984613597393)
Batch 460	 Loss 0.1942579448223114 (0.3013505717172571)
Batch 470	 Loss 0.2797069549560547 (0.30024607110213725)
Batch 480	 Loss 0.18611036241054535 (0.29899360835552213)
Batch 490	 Loss 0.2136487066745758 (0.29739192292398337)
Batch 500	 Loss 0.2688271701335907 (0.29642200899124144)
Batch 510	 Loss 0.2860366702079773 (0.29505791608609405)
Batch 520	 Loss 0.17276717722415924 (0.29317491289514763)
Batch 530	 Loss 0.18375138938426971 (0.2916736715666528)
Batch 540	 Loss 0.2574755549430847 (0.2904634834439666)
Batch 550	 Loss 0.28793495893478394 (0.28959885727275503)
Batch 560	 Loss 0.13496240973472595 (0.28775908247168575)
Batch 570	 Loss 0.413228839635849 (0.2871130503060525)
Batch 580	 Loss 0.39573025703430176 (0.28624396912496664)
Batch 590	 Loss 0.22654081881046295 (0.2850639063170401)
Batch 600	 Loss 0.14943969249725342 (0.28424215825895466)
Batch 610	 Loss 0.2569233775138855 (0.28247024328982245)
Batch 620	 Loss 0.3346464931964874 (0.2815420368986745)
Batch 630	 Loss 0.202481210231781 (0.28043032896424097)
Batch 640	 Loss 0.1652681678533554 (0.2790886004338972)
Batch 650	 Loss 0.24413751065731049 (0.27850418302875296)
Batch 660	 Loss 0.303842693567276 (0.27760759715103744)
Batch 670	 Loss 0.25854596495628357 (0.2765257849066115)
Batch 680	 Loss 0.22196681797504425 (0.27570720253621833)
Batch 690	 Loss 0.17664696276187897 (0.274880656686382)
Batch 700	 Loss 0.23707431554794312 (0.2737425825212683)
Batch 710	 Loss 0.21230466663837433 (0.27235186236425185)
Batch 720	 Loss 0.20304541289806366 (0.27160730682727363)
Batch 730	 Loss 0.18636518716812134 (0.2709030997161179)
Batch 740	 Loss 0.14256992936134338 (0.2697057109225441)
Batch 750	 Loss 0.2506003677845001 (0.2687751274605592)
Batch 760	 Loss 0.09942124038934708 (0.2684372789961727)
Batch 770	 Loss 0.1754589080810547 (0.26783440174994533)
Batch 780	 Loss 0.18374915421009064 (0.26697732682029407)
Batch 790	 Loss 0.22367720305919647 (0.2665721770423123)
Batch 800	 Loss 0.1750127673149109 (0.2661302658077329)
Batch 810	 Loss 0.1263534128665924 (0.2653860040192987)
Batch 820	 Loss 0.23161004483699799 (0.2648218049963073)
Batch 830	 Loss 0.15041199326515198 (0.264005343292851)
Batch 840	 Loss 0.14866043627262115 (0.2634920767375401)
Batch 850	 Loss 0.23177938163280487 (0.26275690154994236)
Batch 860	 Loss 0.18325704336166382 (0.2619387562018494)
Batch 870	 Loss 0.12850505113601685 (0.26106027472635795)
Batch 880	 Loss 0.22245609760284424 (0.26027974452484737)
Batch 890	 Loss 0.1941324770450592 (0.25969258230388836)
Batch 900	 Loss 0.13788974285125732 (0.2591855194999112)
Batch 910	 Loss 0.19418123364448547 (0.2589761851416839)
Batch 920	 Loss 0.2233954221010208 (0.2586594771755778)
Batch 930	 Loss 0.14913499355316162 (0.2581595991728126)
Batch 940	 Loss 0.2105773538351059 (0.25794776001192155)
Batch 950	 Loss 0.08556337654590607 (0.2577111957261437)
Batch 960	 Loss 0.21239832043647766 (0.2570326099249845)
Batch 970	 Loss 0.19177305698394775 (0.25653855235306255)
Batch 980	 Loss 0.15858222544193268 (0.2560997911101701)
Batch 990	 Loss 0.3211585283279419 (0.25547774745659396)
Batch 1000	 Loss 0.3478228747844696 (0.2550015036761761)
Batch 1010	 Loss 0.20957839488983154 (0.2543753233876559)
Batch 1020	 Loss 0.16120992600917816 (0.2542259070364868)
Batch 1030	 Loss 0.18502144515514374 (0.25388120081528875)
Batch 1040	 Loss 0.11869721114635468 (0.253593301300246)
Batch 1050	 Loss 0.17547322809696198 (0.2528936594156992)
Batch 1060	 Loss 0.16851095855236053 (0.2520978757022124)
Batch 1070	 Loss 0.4007335901260376 (0.25205676346042444)
Batch 1080	 Loss 0.27467408776283264 (0.2517645304539689)
Batch 1090	 Loss 0.1368766576051712 (0.25132313291414066)
Batch 1100	 Loss 0.11057927459478378 (0.25064838572659276)
Batch 1110	 Loss 0.22792010009288788 (0.2502969925937889)
Batch 1120	 Loss 0.1815522015094757 (0.2498690345790237)
Batch 1130	 Loss 0.16048665344715118 (0.24939454248653048)
Batch 1140	 Loss 0.16957513988018036 (0.24933012018078252)
Batch 1150	 Loss 0.14020441472530365 (0.24895167536061744)
Batch 1160	 Loss 0.26131731271743774 (0.24886328735998992)
Batch 1170	 Loss 0.17255885899066925 (0.24828551999396747)
Batch 1180	 Loss 0.13471035659313202 (0.24787210476726798)
Batch 1190	 Loss 0.1212603747844696 (0.24728591362593555)
Batch 1200	 Loss 0.2519223988056183 (0.2468234379030764)
Finished. Total elapsed time (h:m:s): 0:15:00
Test Epoch 1/10
    Test Loss: 0.1939515732228756, Accuracy(multiclass): 0.9325
==> Start Epoch 2/10
Batch 10	 Loss 0.1519128680229187 (0.1614094629883766)
Batch 20	 Loss 0.19859205186367035 (0.17744712214916944)
Batch 30	 Loss 0.14720720052719116 (0.16205053192873795)
Batch 40	 Loss 0.13535749912261963 (0.15141462003812195)
Batch 50	 Loss 0.08842754364013672 (0.14714043419808148)
Batch 60	 Loss 0.12362892180681229 (0.1461281401726107)
Batch 70	 Loss 0.18478865921497345 (0.14569003882684878)
Batch 80	 Loss 0.15210562944412231 (0.1464768028119579)
Batch 90	 Loss 0.08108987659215927 (0.14616842317498394)
Batch 100	 Loss 0.08784746378660202 (0.1426370663009584)
Batch 110	 Loss 0.19203956425189972 (0.14469461358067665)
Batch 120	 Loss 0.15830835700035095 (0.14420502743062874)
Batch 130	 Loss 0.15439188480377197 (0.14539254802064253)
Batch 140	 Loss 0.2091507762670517 (0.14589483414643578)
Batch 150	 Loss 0.0982791930437088 (0.1441160854821404)
Batch 160	 Loss 0.16324560344219208 (0.1448518647928722)
Batch 170	 Loss 0.11745540797710419 (0.14352002383812384)
Batch 180	 Loss 0.17345421016216278 (0.14262420863120093)
Batch 190	 Loss 0.2838248312473297 (0.143613909861367)
Batch 200	 Loss 0.11635574698448181 (0.14371103041805328)
Batch 210	 Loss 0.2373119741678238 (0.14482535958467496)
Batch 220	 Loss 0.06140238791704178 (0.1439244074323638)
Batch 230	 Loss 0.05760277435183525 (0.14242028167228335)
Batch 240	 Loss 0.18186305463314056 (0.14238420865343263)
Batch 250	 Loss 0.05378901585936546 (0.1426872727200389)
Batch 260	 Loss 0.10412832349538803 (0.14238006911742)
Batch 270	 Loss 0.10317640006542206 (0.14183102729557842)
Batch 280	 Loss 0.23594748973846436 (0.14250895309794162)
Batch 290	 Loss 0.16765129566192627 (0.14263224833612811)
Batch 300	 Loss 0.12083826214075089 (0.14231083505476513)
Batch 310	 Loss 0.10081291198730469 (0.14221978031940039)
Batch 320	 Loss 0.40397125482559204 (0.1421003694587853)
Batch 330	 Loss 0.2769038677215576 (0.14267234666216555)
Batch 340	 Loss 0.1038493737578392 (0.1432052009848549)
Batch 350	 Loss 0.1314559280872345 (0.14358989661825555)
Batch 360	 Loss 0.09528952836990356 (0.14354817454910113)
Batch 370	 Loss 0.09865342825651169 (0.14271064168597394)
Batch 380	 Loss 0.3306000232696533 (0.14322154829278588)
Batch 390	 Loss 0.14572171866893768 (0.1432334036542437)
Batch 400	 Loss 0.15859316289424896 (0.14304583704564722)
Batch 410	 Loss 0.06684236228466034 (0.1431220538232748)
Batch 420	 Loss 0.1814405471086502 (0.14309506091244872)
Batch 430	 Loss 0.15566983819007874 (0.14351441090450037)
Batch 440	 Loss 0.11422014236450195 (0.14450290707278657)
Batch 450	 Loss 0.2536601126194 (0.14492676650070482)
Batch 460	 Loss 0.1433022916316986 (0.14457490001602666)
Batch 470	 Loss 0.11549492180347443 (0.14455751888850268)
Batch 480	 Loss 0.03337537497282028 (0.14425904345310603)
Batch 490	 Loss 0.269662082195282 (0.1448201234509446)
Batch 500	 Loss 0.22448568046092987 (0.14472469816729427)
Batch 510	 Loss 0.1073758602142334 (0.14411914045100702)
Batch 520	 Loss 0.12996120750904083 (0.14412123813437155)
Batch 530	 Loss 0.0735853835940361 (0.14384178296082986)
Batch 540	 Loss 0.034282244741916656 (0.1442943430505693)
Batch 550	 Loss 0.07856892794370651 (0.1437752470340241)
Batch 560	 Loss 0.1302289366722107 (0.14437939683973258)
Batch 570	 Loss 0.07071849703788757 (0.1441092113098293)
Batch 580	 Loss 0.14317092299461365 (0.14390539980075998)
Batch 590	 Loss 0.12915416061878204 (0.14398533462909824)
Batch 600	 Loss 0.1353326439857483 (0.14421119151326517)
Batch 610	 Loss 0.10832998156547546 (0.1441654252743379)
Batch 620	 Loss 0.16584353148937225 (0.14448428623558532)
Batch 630	 Loss 0.25260376930236816 (0.14445341006217022)
Batch 640	 Loss 0.1389133483171463 (0.14429587769845967)
Batch 650	 Loss 0.20703241229057312 (0.14479937913612678)
Batch 660	 Loss 0.302923321723938 (0.1450763260353018)
Batch 670	 Loss 0.106383316218853 (0.14530150694911603)
Batch 680	 Loss 0.06827014684677124 (0.14462256024262923)
Batch 690	 Loss 0.13726401329040527 (0.14487460370351007)
Batch 700	 Loss 0.06615057587623596 (0.14456788852012584)
Batch 710	 Loss 0.21019113063812256 (0.14460648620684802)
Batch 720	 Loss 0.05949226766824722 (0.14443491224665195)
Batch 730	 Loss 0.14098325371742249 (0.14460683634683286)
Batch 740	 Loss 0.13107731938362122 (0.14523772896594694)
Batch 750	 Loss 0.16307498514652252 (0.1449584866936008)
Batch 760	 Loss 0.15019312500953674 (0.14507813970068176)
Batch 770	 Loss 0.16503417491912842 (0.14500019816173748)
Batch 780	 Loss 0.20970186591148376 (0.14513985421747352)
Batch 790	 Loss 0.19304420053958893 (0.14531695293616267)
Batch 800	 Loss 0.13342393934726715 (0.14534069581655784)
Batch 810	 Loss 0.08259346336126328 (0.14507075944386513)
Batch 820	 Loss 0.18776124715805054 (0.1455358255086694)
Batch 830	 Loss 0.11748384684324265 (0.1452464752146099)
Batch 840	 Loss 0.20765353739261627 (0.1457605270336249)
Batch 850	 Loss 0.15311607718467712 (0.14553207132088788)
Batch 860	 Loss 0.1871185153722763 (0.14535061062291957)
Batch 870	 Loss 0.18806707859039307 (0.1452663934329289)
Batch 880	 Loss 0.14095628261566162 (0.14494347116190262)
Batch 890	 Loss 0.2575640380382538 (0.14518364824647648)
Batch 900	 Loss 0.10977958887815475 (0.14514963493372005)
Batch 910	 Loss 0.12148314714431763 (0.14505173246079422)
Batch 920	 Loss 0.13349208235740662 (0.14544943527156567)
Batch 930	 Loss 0.078728586435318 (0.14569348643824298)
Batch 940	 Loss 0.11221187561750412 (0.1455310058383707)
Batch 950	 Loss 0.0752461701631546 (0.14529513672582414)
Batch 960	 Loss 0.11223925650119781 (0.145064376789378)
Batch 970	 Loss 0.1893947422504425 (0.1452866115962568)
Batch 980	 Loss 0.07045234739780426 (0.14514479750235165)
Batch 990	 Loss 0.11653971672058105 (0.14496510943792987)
Batch 1000	 Loss 0.036377452313899994 (0.14508182741515338)
Batch 1010	 Loss 0.12225019186735153 (0.14489364649289022)
Batch 1020	 Loss 0.08649985492229462 (0.14499197248917292)
Batch 1030	 Loss 0.11145918071269989 (0.14479776454673518)
Batch 1040	 Loss 0.13049772381782532 (0.144830547622405)
Batch 1050	 Loss 0.11165022850036621 (0.14472129016227667)
Batch 1060	 Loss 0.11099748313426971 (0.14480556134169675)
Batch 1070	 Loss 0.15464621782302856 (0.14449368699445067)
Batch 1080	 Loss 0.15738968551158905 (0.14425867094865275)
Batch 1090	 Loss 0.12224981188774109 (0.14443472718666178)
Batch 1100	 Loss 0.2778620421886444 (0.14467089046978138)
Batch 1110	 Loss 0.1634983867406845 (0.14477252775115204)
Batch 1120	 Loss 0.14120815694332123 (0.14459942287399566)
Batch 1130	 Loss 0.1485714316368103 (0.1445559896677073)
Batch 1140	 Loss 0.21490852534770966 (0.14475517519504616)
Batch 1150	 Loss 0.14775218069553375 (0.14479197028376486)
Batch 1160	 Loss 0.11837338656187057 (0.14488609220415097)
Batch 1170	 Loss 0.1756998598575592 (0.14487440007078087)
Batch 1180	 Loss 0.050888679921627045 (0.14486877092839046)
Batch 1190	 Loss 0.07792165875434875 (0.1450414270835639)
Batch 1200	 Loss 0.12002429366111755 (0.14508986834902315)
Finished. Total elapsed time (h:m:s): 0:30:18
Test Epoch 2/10
    Test Loss: 0.18833512391306853, Accuracy(multiclass): 0.9385526315789474
==> Start Epoch 3/10
Batch 10	 Loss 0.09310202300548553 (0.08729699440300465)
Batch 20	 Loss 0.06190323457121849 (0.08747375048696995)
Batch 30	 Loss 0.07337184995412827 (0.07699182679255803)
Batch 40	 Loss 0.11113247275352478 (0.08043733267113566)
Batch 50	 Loss 0.10151533782482147 (0.07919524166733026)
Batch 60	 Loss 0.018164901062846184 (0.08179105940895776)
Batch 70	 Loss 0.14805498719215393 (0.0826671574663903)
Batch 80	 Loss 0.0443284846842289 (0.08412154557881876)
Batch 90	 Loss 0.08868034183979034 (0.08524409765377641)
Batch 100	 Loss 0.06281325221061707 (0.0847799399215728)
Batch 110	 Loss 0.1114286482334137 (0.08531553012911569)
Batch 120	 Loss 0.0469992496073246 (0.08354306845770527)
Batch 130	 Loss 0.04296978935599327 (0.08565703416243195)
Batch 140	 Loss 0.06677661836147308 (0.08743272951271917)
Batch 150	 Loss 0.06927958130836487 (0.08856140040482084)
Batch 160	 Loss 0.07415246218442917 (0.09074835393694229)
Batch 170	 Loss 0.07123313099145889 (0.09103011702023009)
Batch 180	 Loss 0.027457911521196365 (0.08963179745090505)
Batch 190	 Loss 0.03075799159705639 (0.0905652699060738)
Batch 200	 Loss 0.09423002600669861 (0.09107534689363092)
Batch 210	 Loss 0.03335343301296234 (0.09075191385955328)
Batch 220	 Loss 0.20539261400699615 (0.09071963495913554)
Batch 230	 Loss 0.11399555206298828 (0.09076698929800288)
Batch 240	 Loss 0.19243133068084717 (0.09023834987310693)
Batch 250	 Loss 0.14697159826755524 (0.09075055840238928)
Batch 260	 Loss 0.1578134000301361 (0.09194856480552027)
Batch 270	 Loss 0.1835942417383194 (0.09259920055046678)
Batch 280	 Loss 0.07494866847991943 (0.0934960061052282)
Batch 290	 Loss 0.11787193268537521 (0.09346919144857033)
Batch 300	 Loss 0.0682750791311264 (0.09287355177414915)
Batch 310	 Loss 0.2343425154685974 (0.09303207253556578)
Batch 320	 Loss 0.158085435628891 (0.09415146922401618)
Batch 330	 Loss 0.1068292036652565 (0.09413430078632452)
Batch 340	 Loss 0.2118958830833435 (0.0943834865000099)
Batch 350	 Loss 0.06978844851255417 (0.09448628503030965)
Batch 360	 Loss 0.1758626401424408 (0.09476357949638946)
Batch 370	 Loss 0.07709545642137527 (0.09502108486469936)
Batch 380	 Loss 0.1343875378370285 (0.09466398013020424)
Batch 390	 Loss 0.1148238480091095 (0.09484099548739883)
Batch 400	 Loss 0.09026720374822617 (0.09486386887496337)
Batch 410	 Loss 0.0840468779206276 (0.09534054297908413)
Batch 420	 Loss 0.10807562619447708 (0.09483928734747073)
Batch 430	 Loss 0.08844323456287384 (0.09506806020170104)
Batch 440	 Loss 0.10077564418315887 (0.09544022255788812)
Batch 450	 Loss 0.05255061015486717 (0.09528689707111981)
Batch 460	 Loss 0.10120774060487747 (0.09494386063281285)
Batch 470	 Loss 0.05378774553537369 (0.09490405634798585)
Batch 480	 Loss 0.05563242733478546 (0.09474796970801738)
Batch 490	 Loss 0.16312870383262634 (0.09511364377388845)
Batch 500	 Loss 0.11217686533927917 (0.09549212045036257)
Batch 510	 Loss 0.11890698224306107 (0.09589519437365965)
Batch 520	 Loss 0.06124217063188553 (0.09559656702017841)
Batch 530	 Loss 0.06905010342597961 (0.0954937532526564)
Batch 540	 Loss 0.13489700853824615 (0.09559094126129317)
Batch 550	 Loss 0.09290368854999542 (0.09550383927977898)
Batch 560	 Loss 0.026354102417826653 (0.0949436435093438)
Batch 570	 Loss 0.08861695230007172 (0.09477650184805195)
Batch 580	 Loss 0.13673263788223267 (0.09490565807751283)
Batch 590	 Loss 0.025911716744303703 (0.094738578646428)
Batch 600	 Loss 0.07701060175895691 (0.09463523325044662)
Batch 610	 Loss 0.047982119023799896 (0.09529710243929361)
Batch 620	 Loss 0.09757104516029358 (0.09500607299438167)
Batch 630	 Loss 0.12941239774227142 (0.09474949743155213)
Batch 640	 Loss 0.06546523422002792 (0.09491568496014224)
Batch 650	 Loss 0.031132783740758896 (0.09490215100491275)
Batch 660	 Loss 0.04007228836417198 (0.09490604047437734)
Batch 670	 Loss 0.042896561324596405 (0.0947866062744896)
Batch 680	 Loss 0.04103271663188934 (0.0943955963545972)
Batch 690	 Loss 0.13977175951004028 (0.09504861379906103)
Batch 700	 Loss 0.11954907327890396 (0.09501107908386205)
Batch 710	 Loss 0.13963235914707184 (0.09517188219248619)
Batch 720	 Loss 0.11205963045358658 (0.09530325518119045)
Batch 730	 Loss 0.08571531623601913 (0.0951991297164294)
Batch 740	 Loss 0.11783328652381897 (0.0950986740066091)
Batch 750	 Loss 0.018638228997588158 (0.09510752375796437)
Batch 760	 Loss 0.04883401840925217 (0.09503988685257929)
Batch 770	 Loss 0.05303342267870903 (0.09548751491109853)
Batch 780	 Loss 0.19655726850032806 (0.09547497871666191)
Batch 790	 Loss 0.10189291089773178 (0.09528668083698501)
Batch 800	 Loss 0.11117860674858093 (0.09519691109773704)
Batch 810	 Loss 0.10006935894489288 (0.09508977255864459)
Batch 820	 Loss 0.19710397720336914 (0.09518337055654606)
Batch 830	 Loss 0.016108756884932518 (0.09476685233032668)
Batch 840	 Loss 0.04073511064052582 (0.09486067233318907)
Batch 850	 Loss 0.17073343694210052 (0.09500644274603795)
Batch 860	 Loss 0.11508443206548691 (0.09517702053214401)
Batch 870	 Loss 0.09744446724653244 (0.0954850001207114)
Batch 880	 Loss 0.04236333817243576 (0.0954320827297951)
Batch 890	 Loss 0.04018866643309593 (0.09535726552536146)
Batch 900	 Loss 0.09527529031038284 (0.09542834412410027)
Batch 910	 Loss 0.08760615438222885 (0.0954656161296253)
Batch 920	 Loss 0.05811149254441261 (0.09536805493534421)
Batch 930	 Loss 0.07150813192129135 (0.0954234634526074)
Batch 940	 Loss 0.19695763289928436 (0.09563654733801934)
Batch 950	 Loss 0.08453532308340073 (0.09544877849225152)
Batch 960	 Loss 0.03150266036391258 (0.09520050290060074)
Batch 970	 Loss 0.08259360492229462 (0.0951747743038403)
Batch 980	 Loss 0.0852656289935112 (0.09526698316295384)
Batch 990	 Loss 0.05716247111558914 (0.09530470274068942)
Batch 1000	 Loss 0.06638837605714798 (0.09556362727563829)
Batch 1010	 Loss 0.13145489990711212 (0.09539930305840208)
Batch 1020	 Loss 0.03659829497337341 (0.09528726189141619)
Batch 1030	 Loss 0.06914994865655899 (0.09544920820688593)
Batch 1040	 Loss 0.11018051207065582 (0.09540103127947078)
Batch 1050	 Loss 0.09923997521400452 (0.09541009423544719)
Batch 1060	 Loss 0.08468134701251984 (0.09551956192063132)
Batch 1070	 Loss 0.1684504896402359 (0.095641982488369)
Batch 1080	 Loss 0.12326812744140625 (0.09584258768483307)
Batch 1090	 Loss 0.13763388991355896 (0.0958009491777133)
Batch 1100	 Loss 0.06405264139175415 (0.09582204589027572)
Batch 1110	 Loss 0.05390477553009987 (0.09593321906805441)
Batch 1120	 Loss 0.14522472023963928 (0.09607181612186001)
Batch 1130	 Loss 0.05928734317421913 (0.09611057527116046)
Batch 1140	 Loss 0.0522536002099514 (0.09622457560821714)
Batch 1150	 Loss 0.08299244940280914 (0.09617151793335443)
Batch 1160	 Loss 0.06929877400398254 (0.09621133739851287)
Batch 1170	 Loss 0.19707807898521423 (0.09631952559416238)
Batch 1180	 Loss 0.06460049748420715 (0.096301478520825)
Batch 1190	 Loss 0.13325351476669312 (0.09615967938551256)
Batch 1200	 Loss 0.11677655577659607 (0.0960297026555054)
Finished. Total elapsed time (h:m:s): 0:45:39
Test Epoch 3/10
    Test Loss: 0.223077621997187, Accuracy(multiclass): 0.9363157894736842
==> Start Epoch 4/10
Batch 10	 Loss 0.056917399168014526 (0.047448694333434106)
Batch 20	 Loss 0.07119090855121613 (0.06059883637353778)
Batch 30	 Loss 0.08408604562282562 (0.056055964529514314)
Batch 40	 Loss 0.018373487517237663 (0.051587748969905076)
Batch 50	 Loss 0.05547716096043587 (0.050559446047991514)
Batch 60	 Loss 0.15814459323883057 (0.05311247936139504)
Batch 70	 Loss 0.08913577347993851 (0.052530497498810294)
Batch 80	 Loss 0.031378816813230515 (0.05185580778634176)
Batch 90	 Loss 0.02727922610938549 (0.052883972982979484)
Batch 100	 Loss 0.010382900014519691 (0.05438641506247222)
Batch 110	 Loss 0.04028503969311714 (0.05441401344300671)
Batch 120	 Loss 0.09307196736335754 (0.05572123047119627)
Batch 130	 Loss 0.06930290907621384 (0.05535251481745106)
Batch 140	 Loss 0.08313192427158356 (0.05478873189671763)
Batch 150	 Loss 0.01712982915341854 (0.05510457224523028)
Batch 160	 Loss 0.06041039153933525 (0.05531816968577914)
Batch 170	 Loss 0.05242770537734032 (0.055836414496469144)
Batch 180	 Loss 0.17256245017051697 (0.05629610382537875)
Batch 190	 Loss 0.08249271661043167 (0.05558351649363574)
Batch 200	 Loss 0.036493416875600815 (0.055008683521300554)
Batch 210	 Loss 0.009082317352294922 (0.054286412238365125)
Batch 220	 Loss 0.04005730152130127 (0.053830484588715165)
Batch 230	 Loss 0.0048608118668198586 (0.0539950925897321)
Batch 240	 Loss 0.18074722588062286 (0.054849782489084946)
Batch 250	 Loss 0.1613166183233261 (0.05518067344464362)
Batch 260	 Loss 0.025117456912994385 (0.055871843261859164)
Batch 270	 Loss 0.0350806899368763 (0.055793588541241154)
Batch 280	 Loss 0.020272402092814445 (0.05539165387828169)
Batch 290	 Loss 0.05237169563770294 (0.05587634747237738)
Batch 300	 Loss 0.18398283421993256 (0.056145985627857345)
Batch 310	 Loss 0.07036940008401871 (0.056646345085614634)
Batch 320	 Loss 0.03739626705646515 (0.05609370938473148)
Batch 330	 Loss 0.018195275217294693 (0.05609843331022245)
Batch 340	 Loss 0.013449701480567455 (0.056049719699384534)
Batch 350	 Loss 0.07195956259965897 (0.05546496043247836)
Batch 360	 Loss 0.13908880949020386 (0.055878668281042744)
Batch 370	 Loss 0.03537001088261604 (0.056191461905837056)
Batch 380	 Loss 0.033466886729002 (0.05610811956422894)
Batch 390	 Loss 0.0049709053710103035 (0.05625188656581136)
Batch 400	 Loss 0.01806090772151947 (0.05638598970370367)
Batch 410	 Loss 0.09204600006341934 (0.05707782134640871)
Batch 420	 Loss 0.014804046601057053 (0.05733803690499848)
Batch 430	 Loss 0.05055263638496399 (0.05726552904951711)
Batch 440	 Loss 0.13822589814662933 (0.05753187586087734)
Batch 450	 Loss 0.0064255003817379475 (0.05739439403741724)
Batch 460	 Loss 0.12944775819778442 (0.05733232019448896)
Batch 470	 Loss 0.037590544670820236 (0.05725015459106641)
Batch 480	 Loss 0.04604747146368027 (0.057186182524310424)
Batch 490	 Loss 0.033259596675634384 (0.05734613821366612)
Batch 500	 Loss 0.06561879068613052 (0.057365906894207)
Batch 510	 Loss 0.07650623470544815 (0.05743557629632015)
Batch 520	 Loss 0.03248978406190872 (0.05736319486123438)
Batch 530	 Loss 0.0978492721915245 (0.057749165830044254)
Batch 540	 Loss 0.038826633244752884 (0.05746931406600332)
Batch 550	 Loss 0.0726618692278862 (0.05706112104552713)
Batch 560	 Loss 0.0831671804189682 (0.05730754051723384)
Batch 570	 Loss 0.03325728327035904 (0.057713904262830816)
Batch 580	 Loss 0.030859043821692467 (0.0576820520571722)
Batch 590	 Loss 0.082832470536232 (0.05779749229708213)
Batch 600	 Loss 0.03761056810617447 (0.05784880885388702)
Batch 610	 Loss 0.04770347476005554 (0.057933639363981174)
Batch 620	 Loss 0.05454469844698906 (0.05783050391492584)
Batch 630	 Loss 0.05253735929727554 (0.05771699079593259)
Batch 640	 Loss 0.03005034476518631 (0.05769519292662153)
Batch 650	 Loss 0.03638369217514992 (0.05785629321892674)
Batch 660	 Loss 0.008759886957705021 (0.057788729614041974)
Batch 670	 Loss 0.025799447670578957 (0.05810942826097581)
Batch 680	 Loss 0.07925071567296982 (0.05812787885284599)
Batch 690	 Loss 0.09660644829273224 (0.058005199310086346)
Batch 700	 Loss 0.0676879808306694 (0.058055782846308183)
Batch 710	 Loss 0.013097754679620266 (0.05822928491323977)
Batch 720	 Loss 0.057462867349386215 (0.05841859978390858)
Batch 730	 Loss 0.05930974334478378 (0.05852041052246135)
Batch 740	 Loss 0.10573478043079376 (0.058861615004118635)
Batch 750	 Loss 0.06348259747028351 (0.05902694279824694)
Batch 760	 Loss 0.11807635426521301 (0.059294180884516164)
Batch 770	 Loss 0.07250405848026276 (0.05917787248171963)
Batch 780	 Loss 0.012870484963059425 (0.059353053000254126)
Batch 790	 Loss 0.10858995467424393 (0.0593895512703759)
Batch 800	 Loss 0.05861959978938103 (0.05917246970173437)
Batch 810	 Loss 0.134362131357193 (0.059461942424905705)
Batch 820	 Loss 0.10828354209661484 (0.059824579958122494)
Batch 830	 Loss 0.1700325906276703 (0.059878991276631696)
Batch 840	 Loss 0.19290931522846222 (0.06021804639437635)
Batch 850	 Loss 0.07011489570140839 (0.060266112784362016)
Batch 860	 Loss 0.071991927921772 (0.0603818112946397)
Batch 870	 Loss 0.013195483945310116 (0.06033918826155707)
Batch 880	 Loss 0.07612543553113937 (0.06017594338151288)
Batch 890	 Loss 0.04317589849233627 (0.06028729439817704)
Batch 900	 Loss 0.046427011489868164 (0.060405079510787295)
Batch 910	 Loss 0.06396130472421646 (0.0604375162433096)
Batch 920	 Loss 0.03268515318632126 (0.060399668563015596)
Batch 930	 Loss 0.029905308037996292 (0.060379405422336475)
Batch 940	 Loss 0.1217074990272522 (0.06051707942821482)
Batch 950	 Loss 0.03507230430841446 (0.06053677562379131)
Batch 960	 Loss 0.04898088797926903 (0.060501317465968894)
Batch 970	 Loss 0.11021126806735992 (0.060703387121506726)
Batch 980	 Loss 0.06773204356431961 (0.060618402408340905)
Batch 990	 Loss 0.06277281790971756 (0.06055087349565719)
Batch 1000	 Loss 0.05997931584715843 (0.06064157200278714)
Batch 1010	 Loss 0.11292825639247894 (0.06074390780909153)
Batch 1020	 Loss 0.08976487815380096 (0.06088468226759384)
Batch 1030	 Loss 0.17580129206180573 (0.06098505605183976)
Batch 1040	 Loss 0.0879989042878151 (0.06106361546329796)
Batch 1050	 Loss 0.0056007783859968185 (0.06093733618967235)
Batch 1060	 Loss 0.0735447108745575 (0.06109329658990972)
Batch 1070	 Loss 0.07615327090024948 (0.0612429571324942)
Batch 1080	 Loss 0.11587582528591156 (0.0612598242009645)
Batch 1090	 Loss 0.032930828630924225 (0.061153130718173646)
Batch 1100	 Loss 0.025883767753839493 (0.06109735087279908)
Batch 1110	 Loss 0.011374734342098236 (0.061076618884983766)
Batch 1120	 Loss 0.02412739023566246 (0.0610886488513123)
Batch 1130	 Loss 0.11653290688991547 (0.061033479947250634)
Batch 1140	 Loss 0.10761792957782745 (0.0609835107961931)
Batch 1150	 Loss 0.05760016292333603 (0.061084214878551986)
Batch 1160	 Loss 0.03838304430246353 (0.061143770974916245)
Batch 1170	 Loss 0.04464825242757797 (0.06111293342481885)
Batch 1180	 Loss 0.05662311241030693 (0.06111396443517089)
Batch 1190	 Loss 0.03733018413186073 (0.06117851124379878)
Batch 1200	 Loss 0.0815916657447815 (0.06124923796975054)
Finished. Total elapsed time (h:m:s): 1:00:58
Test Epoch 4/10
    Test Loss: 0.257427373974535, Accuracy(multiclass): 0.9361842105263158
==> Start Epoch 5/10
Batch 10	 Loss 0.02594946324825287 (0.03717246623709798)
Batch 20	 Loss 0.007601674180477858 (0.031607982516288755)
Batch 30	 Loss 0.020312920212745667 (0.029559545777738096)
Batch 40	 Loss 0.009676998481154442 (0.028792467381572352)
Batch 50	 Loss 0.09220599383115768 (0.02958581200335175)
Batch 60	 Loss 0.016003644093871117 (0.03050387475717192)
Batch 70	 Loss 0.03887033462524414 (0.03210487529036722)
Batch 80	 Loss 0.006944592110812664 (0.03227346483909059)
Batch 90	 Loss 0.018970049917697906 (0.031765276413514384)
Batch 100	 Loss 0.011188778094947338 (0.032110996313858775)
Batch 110	 Loss 0.0865665152668953 (0.032170090492052786)
Batch 120	 Loss 0.07684025168418884 (0.03207480484076465)
Batch 130	 Loss 0.0360751636326313 (0.03319129434127647)
Batch 140	 Loss 0.09059634059667587 (0.03300422659542944)
Batch 150	 Loss 0.03410348296165466 (0.03361521393060684)
Batch 160	 Loss 0.042892638593912125 (0.035260808109887874)
Batch 170	 Loss 0.04283759742975235 (0.03538425124031218)
Batch 180	 Loss 0.010506557300686836 (0.03558323235095789)
Batch 190	 Loss 0.0017320646438747644 (0.03525047158013637)
Batch 200	 Loss 0.005129714496433735 (0.035114914637524634)
Batch 210	 Loss 0.017470678314566612 (0.036106369784101845)
Batch 220	 Loss 0.04392077401280403 (0.0365343715085394)
Batch 230	 Loss 0.026571111753582954 (0.0367511552070146)
Batch 240	 Loss 0.017173301428556442 (0.03652222963282838)
Batch 250	 Loss 0.009904763661324978 (0.03620470407791436)
Batch 260	 Loss 0.054408568888902664 (0.03640883465727361)
Batch 270	 Loss 0.01271471381187439 (0.03628483902214578)
Batch 280	 Loss 0.009959614835679531 (0.03622498197115159)
Batch 290	 Loss 0.005379164591431618 (0.036630954078382585)
Batch 300	 Loss 0.07347768545150757 (0.03734516658393356)
Batch 310	 Loss 0.025327075272798538 (0.03764246047301699)
Batch 320	 Loss 0.09757480025291443 (0.03830863801449595)
Batch 330	 Loss 0.04292492941021919 (0.03818627688927915)
Batch 340	 Loss 0.0939176082611084 (0.037873962602701365)
Batch 350	 Loss 0.01174742542207241 (0.03784919303808627)
Batch 360	 Loss 0.04299348220229149 (0.03749245436887981)
Batch 370	 Loss 0.030948717147111893 (0.037832802637933274)
Batch 380	 Loss 0.06447150558233261 (0.03833962644291061)
Batch 390	 Loss 0.0068398695439100266 (0.03802432779951069)
Batch 400	 Loss 0.019678812474012375 (0.03816190711921081)
Batch 410	 Loss 0.039504460990428925 (0.03804065271894016)
Batch 420	 Loss 0.08117195963859558 (0.03824378779113648)
Batch 430	 Loss 0.01967516355216503 (0.03815474923873364)
Batch 440	 Loss 0.017700865864753723 (0.03815020182466304)
Batch 450	 Loss 0.004197028465569019 (0.038528437239842284)
Batch 460	 Loss 0.04292803630232811 (0.03874695447030599)
Batch 470	 Loss 0.02428598888218403 (0.03894280258843556)
Batch 480	 Loss 0.06911444664001465 (0.03918160424606564)
Batch 490	 Loss 0.06428823620080948 (0.03898095806623448)
Batch 500	 Loss 0.044911567121744156 (0.0389882620209828)
Batch 510	 Loss 0.030463408678770065 (0.039233495345266135)
Batch 520	 Loss 0.008778683841228485 (0.03949640103741191)
Batch 530	 Loss 0.05214272812008858 (0.039305390350801765)
Batch 540	 Loss 0.006868308410048485 (0.03915800641083883)
Batch 550	 Loss 0.010953299701213837 (0.039124925507401875)
Batch 560	 Loss 0.009685913100838661 (0.038905186713756326)
Batch 570	 Loss 0.11276722699403763 (0.039057947965257134)
Batch 580	 Loss 0.006289794575423002 (0.03877120306193507)
Batch 590	 Loss 0.012195915915071964 (0.038728647708687614)
Batch 600	 Loss 0.04972071200609207 (0.03887374725464421)
Batch 610	 Loss 0.013552749529480934 (0.03911088636015221)
Batch 620	 Loss 0.0356764942407608 (0.039132888468297856)
Batch 630	 Loss 0.01067894697189331 (0.03917855566463596)
Batch 640	 Loss 0.07500610500574112 (0.03921625896655314)
Batch 650	 Loss 0.10301677882671356 (0.03936844849350074)
Batch 660	 Loss 0.04595666378736496 (0.03955947288248519)
Batch 670	 Loss 0.055732108652591705 (0.03982061804862999)
Batch 680	 Loss 0.02788764052093029 (0.03994868982460021)
Batch 690	 Loss 0.008806447498500347 (0.03975704345190763)
Batch 700	 Loss 0.022419841960072517 (0.03959882295158292)
Batch 710	 Loss 0.0057297684252262115 (0.03951464080658387)
Batch 720	 Loss 0.0862550362944603 (0.03948075402941969)
Batch 730	 Loss 0.0035642264410853386 (0.03935972752419543)
Batch 740	 Loss 0.060139287263154984 (0.039195124670938664)
Batch 750	 Loss 0.00745106115937233 (0.039269520845264194)
Batch 760	 Loss 0.017243796959519386 (0.03941155428244536)
Batch 770	 Loss 0.1035497784614563 (0.039409298285563756)
Batch 780	 Loss 0.020415380597114563 (0.039466470223553)
Batch 790	 Loss 0.15470729768276215 (0.03979094999435629)
Batch 800	 Loss 0.06516590714454651 (0.039654001012677326)
Batch 810	 Loss 0.011598960496485233 (0.039643861963931055)
Batch 820	 Loss 0.02642897516489029 (0.039462134782679195)
Batch 830	 Loss 0.033662766218185425 (0.039463894960122654)
Batch 840	 Loss 0.021903228014707565 (0.039492009291314474)
Batch 850	 Loss 0.011406737379729748 (0.039587335392065784)
Batch 860	 Loss 0.03214387223124504 (0.039754931209067444)
Batch 870	 Loss 0.04584759101271629 (0.039917142097249454)
Batch 880	 Loss 0.13790808618068695 (0.039883381129369476)
Batch 890	 Loss 0.10015595704317093 (0.039962983239190966)
Batch 900	 Loss 0.052791424095630646 (0.03991449737714397)
Batch 910	 Loss 0.15074610710144043 (0.040049197233619764)
Batch 920	 Loss 0.07454729825258255 (0.04001558888349277)
Batch 930	 Loss 0.039748284965753555 (0.04012980549996819)
Batch 940	 Loss 0.030591163784265518 (0.039987308319727397)
Batch 950	 Loss 0.003955148626118898 (0.039860097951941974)
Batch 960	 Loss 0.018608057871460915 (0.039807658854745874)
Batch 970	 Loss 0.00947839580476284 (0.040016789163808464)
Batch 980	 Loss 0.07376646995544434 (0.04004343793399594)
Batch 990	 Loss 0.05013693496584892 (0.040026612898377195)
Batch 1000	 Loss 0.009541654027998447 (0.04005336748587433)
Batch 1010	 Loss 0.00411346647888422 (0.03993089064865806)
Batch 1020	 Loss 0.02179468609392643 (0.04003350788820991)
Batch 1030	 Loss 0.04490434750914574 (0.040254060024038425)
Batch 1040	 Loss 0.021061880514025688 (0.04053860666832546)
Batch 1050	 Loss 0.00643507344648242 (0.04045413328257079)
Batch 1060	 Loss 0.03007376939058304 (0.04049041834582996)
Batch 1070	 Loss 0.07522151619195938 (0.040638432951282846)
Batch 1080	 Loss 0.05395333841443062 (0.04058191910552085)
Batch 1090	 Loss 0.018306227400898933 (0.040671864931296486)
Batch 1100	 Loss 0.0704842209815979 (0.04063578678390265)
Batch 1110	 Loss 0.06977871805429459 (0.04066639380070154)
Batch 1120	 Loss 0.06647219508886337 (0.04063710311529576)
Batch 1130	 Loss 0.038701556622982025 (0.04074654406713388)
Batch 1140	 Loss 0.0154913030564785 (0.040812221614402934)
Batch 1150	 Loss 0.006698979064822197 (0.040790233060251924)
Batch 1160	 Loss 0.08967659622430801 (0.04073541879720167)
Batch 1170	 Loss 0.0165384691208601 (0.04073879030765966)
Batch 1180	 Loss 0.017008505761623383 (0.040726118991486884)
Batch 1190	 Loss 0.058567434549331665 (0.040758345664787976)
Batch 1200	 Loss 0.009971129707992077 (0.04063439067424042)
Finished. Total elapsed time (h:m:s): 1:16:18
Test Epoch 5/10
    Test Loss: 0.29368968365566905, Accuracy(multiclass): 0.9325
==> Start Epoch 6/10
Batch 10	 Loss 0.033690694719552994 (0.02120390791678801)
Batch 20	 Loss 0.03819889575242996 (0.019094579119700937)
Batch 30	 Loss 0.014850941486656666 (0.019211444809722405)
Batch 40	 Loss 0.015726948156952858 (0.019004097062861547)
Batch 50	 Loss 0.010087292641401291 (0.019388558925129473)
Batch 60	 Loss 0.0008391006267629564 (0.020420326396318463)
Batch 70	 Loss 0.08324746787548065 (0.02294524624261872)
Batch 80	 Loss 0.04362113028764725 (0.02422556862657075)
Batch 90	 Loss 0.02865097112953663 (0.023889037860984293)
Batch 100	 Loss 0.014541715383529663 (0.02401046231883811)
Batch 110	 Loss 0.013547787442803383 (0.02258025916129224)
Batch 120	 Loss 0.08299390971660614 (0.022956579939394334)
Batch 130	 Loss 0.031813036650419235 (0.02331939497805881)
Batch 140	 Loss 0.029602546244859695 (0.023344035420242496)
Batch 150	 Loss 0.0036419215612113476 (0.02317114810013057)
Batch 160	 Loss 0.005442923866212368 (0.023938144628664303)
Batch 170	 Loss 0.04169611632823944 (0.02413265743645538)
Batch 180	 Loss 0.0025122887454926968 (0.02465386367063426)
Batch 190	 Loss 0.007872220128774643 (0.024948225306855563)
Batch 200	 Loss 0.0015637498581781983 (0.024031948535557603)
Batch 210	 Loss 0.0024472593795508146 (0.02364937970733514)
Batch 220	 Loss 0.004235606640577316 (0.023898417709940323)
Batch 230	 Loss 0.0037284609861671925 (0.024318604530771667)
Batch 240	 Loss 0.014007292687892914 (0.024477847279558772)
Batch 250	 Loss 0.006211099214851856 (0.024883338629384525)
Batch 260	 Loss 0.010763795115053654 (0.024997401727439583)
Batch 270	 Loss 0.01945710927248001 (0.024485874674563226)
Batch 280	 Loss 0.015841908752918243 (0.024812762247269606)
Batch 290	 Loss 0.00828130915760994 (0.024708273154703482)
Batch 300	 Loss 0.0028566208202391863 (0.02483607225867066)
Batch 310	 Loss 0.07363259047269821 (0.025209649428143167)
Batch 320	 Loss 0.0006886891787871718 (0.02484605629078942)
Batch 330	 Loss 0.0026057958602905273 (0.025408701746191857)
Batch 340	 Loss 0.027302807196974754 (0.025076491096457605)
Batch 350	 Loss 0.016060983762145042 (0.02479213031715647)
Batch 360	 Loss 0.01746552251279354 (0.024812921542858628)
Batch 370	 Loss 0.019281314685940742 (0.024971767658496753)
Batch 380	 Loss 0.08027423173189163 (0.025132308096554448)
Batch 390	 Loss 0.17666898667812347 (0.02542194381441312)
Batch 400	 Loss 0.007270474918186665 (0.02502827273310686)
Batch 410	 Loss 0.009894930757582188 (0.024785679862507983)
Batch 420	 Loss 0.0008378877537325025 (0.02497858500525278)
Batch 430	 Loss 0.006187831982970238 (0.024763450163570882)
Batch 440	 Loss 0.008539783768355846 (0.02489669408116077)
Batch 450	 Loss 0.0005886226426810026 (0.024953361649596547)
Batch 460	 Loss 0.0047997054643929005 (0.02487066104779091)
Batch 470	 Loss 0.034684918820858 (0.025287340839945792)
Batch 480	 Loss 0.09876976907253265 (0.02561369901565437)
Batch 490	 Loss 0.038186751306056976 (0.025889521423306753)
Batch 500	 Loss 0.016193626448512077 (0.025779718324018177)
Batch 510	 Loss 0.001998511841520667 (0.025705565886021884)
Batch 520	 Loss 0.0376712828874588 (0.025812937848912462)
Batch 530	 Loss 0.06847693026065826 (0.025783943565823753)
Batch 540	 Loss 0.0035301344469189644 (0.025828364706777157)
Batch 550	 Loss 0.03816965967416763 (0.02580188662295272)
Batch 560	 Loss 0.010651311837136745 (0.025928861860458192)
Batch 570	 Loss 0.07288426160812378 (0.026022113664964167)
Batch 580	 Loss 0.014733249321579933 (0.026150340739595462)
Batch 590	 Loss 0.005746864713728428 (0.026241999613348062)
Batch 600	 Loss 0.0010051379213109612 (0.026291886441904354)
Batch 610	 Loss 0.04567096382379532 (0.026443656213480413)
Batch 620	 Loss 0.001922707655467093 (0.02625281534025318)
Batch 630	 Loss 0.007099397946149111 (0.026185561754021956)
Batch 640	 Loss 0.02433830313384533 (0.026093485273622718)
Batch 650	 Loss 0.0033857335802167654 (0.025859475497183246)
Batch 660	 Loss 0.0027449377812445164 (0.02579542411677363)
Batch 670	 Loss 0.0281179491430521 (0.026052196011418102)
Batch 680	 Loss 0.006321821361780167 (0.025921254337770414)
Batch 690	 Loss 0.08974569290876389 (0.026323439580501408)
Batch 700	 Loss 0.006460438948124647 (0.02624532609841221)
Batch 710	 Loss 0.03742707520723343 (0.026129200470159944)
Batch 720	 Loss 0.011164136230945587 (0.026119467083117343)
Batch 730	 Loss 0.014655696228146553 (0.026223786186055306)
Batch 740	 Loss 0.011639059521257877 (0.026058778985729128)
Batch 750	 Loss 0.0017441367963328958 (0.02627041184339517)
Batch 760	 Loss 0.002627953654155135 (0.02604384897732464)
Batch 770	 Loss 0.029675055295228958 (0.026073515549711823)
Batch 780	 Loss 0.033041778951883316 (0.02610409531666963)
Batch 790	 Loss 0.10273858904838562 (0.02618129081973258)
Batch 800	 Loss 0.002209796803072095 (0.026336783829283377)
Batch 810	 Loss 0.021858323365449905 (0.026307034134299977)
Batch 820	 Loss 0.008766412734985352 (0.02625576156860916)
Batch 830	 Loss 0.027485914528369904 (0.026790845387507263)
Batch 840	 Loss 0.029280349612236023 (0.0267106300608291)
Batch 850	 Loss 0.003386355936527252 (0.026534298067837133)
Batch 860	 Loss 0.04088974371552467 (0.02649215799326559)
Batch 870	 Loss 0.005664672236889601 (0.026505814127165066)
Batch 880	 Loss 0.005361561663448811 (0.026471570515191573)
Batch 890	 Loss 0.07745513319969177 (0.02671347934693187)
Batch 900	 Loss 0.013835404068231583 (0.02661029315453359)
Batch 910	 Loss 0.050037261098623276 (0.026576922075844698)
Batch 920	 Loss 0.13338585197925568 (0.02657913125278909)
Batch 930	 Loss 0.0030447172466665506 (0.02663572696935741)
Batch 940	 Loss 0.09163433313369751 (0.026595198516356215)
Batch 950	 Loss 0.15711678564548492 (0.026773076305184267)
Batch 960	 Loss 0.0430029071867466 (0.026793459482329734)
Batch 970	 Loss 0.0110593531280756 (0.02685844229492863)
Batch 980	 Loss 0.015541846863925457 (0.026816130924598097)
Batch 990	 Loss 0.05125204473733902 (0.026825790533724223)
Batch 1000	 Loss 0.009974385611712933 (0.026787792812188856)
Batch 1010	 Loss 0.005586978979408741 (0.026787665316294465)
Batch 1020	 Loss 0.05616375803947449 (0.026671332079208427)
Batch 1030	 Loss 0.03747104853391647 (0.026889228150197668)
Batch 1040	 Loss 0.03659453243017197 (0.026892505593843034)
Batch 1050	 Loss 0.06031104922294617 (0.026860769864897955)
Batch 1060	 Loss 0.05242045223712921 (0.026868704572854837)
Batch 1070	 Loss 0.11174824833869934 (0.02678280878585228)
Batch 1080	 Loss 0.004794181790202856 (0.026771183523507918)
Batch 1090	 Loss 0.005999592132866383 (0.026633202400856325)
Batch 1100	 Loss 0.0405966080725193 (0.026601216909766662)
Batch 1110	 Loss 0.03754157945513725 (0.026467955699961354)
Batch 1120	 Loss 0.012316567823290825 (0.02650266919369772)
Batch 1130	 Loss 0.03134485334157944 (0.026401797523469647)
Batch 1140	 Loss 0.03872304782271385 (0.026302206382566955)
Batch 1150	 Loss 0.04865928739309311 (0.026213355631764936)
Batch 1160	 Loss 0.014282699674367905 (0.026156055647553675)
Batch 1170	 Loss 0.0326041504740715 (0.02635159903943726)
Batch 1180	 Loss 0.04157519340515137 (0.026292104119414236)
Batch 1190	 Loss 0.005128616467118263 (0.026385840135034637)
Batch 1200	 Loss 0.0022276772651821375 (0.026251277234089987)
Finished. Total elapsed time (h:m:s): 1:31:38
Test Epoch 6/10
    Test Loss: 0.312668133453515, Accuracy(multiclass): 0.9352631578947368
==> Start Epoch 7/10
Batch 10	 Loss 0.008364714682102203 (0.007642750802915543)
Batch 20	 Loss 0.0172415804117918 (0.015567127446411177)
Batch 30	 Loss 0.018858689814805984 (0.015434096117193501)
Batch 40	 Loss 0.00118069292511791 (0.016009714105166495)
Batch 50	 Loss 0.021120354533195496 (0.01487348475609906)
Batch 60	 Loss 0.0007034087902866304 (0.013921214236567418)
Batch 70	 Loss 0.03940179944038391 (0.015551106633418904)
Batch 80	 Loss 0.0004978402866981924 (0.01492426960830926)
Batch 90	 Loss 0.03400658816099167 (0.015568792191334068)
Batch 100	 Loss 0.0012015890097245574 (0.01528894027811475)
Batch 110	 Loss 0.012325102463364601 (0.015056395719081841)
Batch 120	 Loss 0.004496453329920769 (0.014345422899835588)
Batch 130	 Loss 0.0007474058074876666 (0.01481999531836034)
Batch 140	 Loss 0.0006109560490585864 (0.014593564276999262)
Batch 150	 Loss 0.04011569544672966 (0.014589692046865822)
Batch 160	 Loss 0.0040902746841311455 (0.013873617910940083)
Batch 170	 Loss 0.005975192412734032 (0.014298732921494828)
Batch 180	 Loss 0.006901281885802746 (0.014443216666728)
Batch 190	 Loss 0.0003053366090171039 (0.014216466386355214)
Batch 200	 Loss 0.0032157162204384804 (0.014065320346708177)
Batch 210	 Loss 0.05162828415632248 (0.014143736599085277)
Batch 220	 Loss 0.00034334443625994027 (0.014089452632999216)
Batch 230	 Loss 0.00045108876656740904 (0.014748887489195507)
Batch 240	 Loss 0.0143415667116642 (0.01503127450341708)
Batch 250	 Loss 0.0016839045565575361 (0.015051858626771717)
Batch 260	 Loss 0.0020844622049480677 (0.014853773480549885)
Batch 270	 Loss 0.04158066585659981 (0.014624982734245283)
Batch 280	 Loss 0.031007463112473488 (0.015032185715140908)
Batch 290	 Loss 0.017098087817430496 (0.014812908310378934)
Batch 300	 Loss 0.0032431092113256454 (0.014718697703792714)
Batch 310	 Loss 0.001235141884535551 (0.014618351537689206)
Batch 320	 Loss 0.0015470199286937714 (0.014435502310243464)
Batch 330	 Loss 0.00038984642014838755 (0.014719811423900397)
Batch 340	 Loss 0.0007629775791428983 (0.014669001612706137)
Batch 350	 Loss 0.037767279893159866 (0.014859968023624139)
Batch 360	 Loss 0.0016852319240570068 (0.014754448089742153)
Batch 370	 Loss 0.034388259053230286 (0.015124575275380315)
Batch 380	 Loss 0.05286891758441925 (0.01553340549105901)
Batch 390	 Loss 0.059237103909254074 (0.015882276413060774)
Batch 400	 Loss 0.029199695214629173 (0.015725996838154968)
Batch 410	 Loss 0.015655681490898132 (0.015824110158463578)
Batch 420	 Loss 0.00460089510306716 (0.01572903666265553)
Batch 430	 Loss 0.07104292511940002 (0.015867393666155485)
Batch 440	 Loss 0.001480663544498384 (0.01569978477392314)
Batch 450	 Loss 0.00022444133355747908 (0.015515055311294015)
Batch 460	 Loss 0.042091503739356995 (0.015631347536216946)
Batch 470	 Loss 0.0013925796374678612 (0.015417615454142388)
Batch 480	 Loss 0.0038072026800364256 (0.015859050665161096)
Batch 490	 Loss 0.014453927055001259 (0.01577289531477228)
Batch 500	 Loss 0.012885835021734238 (0.015896221833623714)
Batch 510	 Loss 0.00960690900683403 (0.015851548954179083)
Batch 520	 Loss 0.0019651195034384727 (0.015661414170804515)
Batch 530	 Loss 0.02866618148982525 (0.01553989356190937)
Batch 540	 Loss 0.0005172270466573536 (0.01580478097907703)
Batch 550	 Loss 0.0021114484407007694 (0.015791699237385975)
Batch 560	 Loss 0.040576543658971786 (0.016089961223224238)
Batch 570	 Loss 0.0026905694976449013 (0.016145120924946306)
Batch 580	 Loss 0.017922913655638695 (0.01623430891925417)
Batch 590	 Loss 0.02784332074224949 (0.016198200739844175)
Batch 600	 Loss 0.03376154229044914 (0.016400624827632177)
Batch 610	 Loss 0.0005059948307462037 (0.016597599776668786)
Batch 620	 Loss 0.0010128761641681194 (0.016682510864437415)
Batch 630	 Loss 0.0009026954066939652 (0.01674628837224898)
Batch 640	 Loss 0.014300555922091007 (0.016910570683307924)
Batch 650	 Loss 0.024636495858430862 (0.01701139587893312)
Batch 660	 Loss 0.026031045243144035 (0.01696414089901461)
Batch 670	 Loss 0.012989604845643044 (0.01696951308501832)
Batch 680	 Loss 0.01633797027170658 (0.017072016782335327)
Batch 690	 Loss 0.0017331551061943173 (0.016913427198723303)
Batch 700	 Loss 0.07744137942790985 (0.016998630912172043)
Batch 710	 Loss 0.09522883594036102 (0.017141499291038843)
Batch 720	 Loss 0.02043266035616398 (0.017075677434311525)
Batch 730	 Loss 0.017372166737914085 (0.01700963795626431)
Batch 740	 Loss 0.006100316531956196 (0.0169067988238837)
Batch 750	 Loss 0.009749389253556728 (0.01695005909735725)
Batch 760	 Loss 0.011257696896791458 (0.017021041529771633)
Batch 770	 Loss 0.00195419997908175 (0.017112686183978654)
Batch 780	 Loss 0.001620130380615592 (0.016988272065291545)
Batch 790	 Loss 0.004201331175863743 (0.01704605680279201)
Batch 800	 Loss 0.0801822766661644 (0.017243485643430177)
Batch 810	 Loss 0.042293135076761246 (0.017214573102871698)
Batch 820	 Loss 0.012927713803946972 (0.0171824561764391)
Batch 830	 Loss 0.00392521545290947 (0.01722596136136724)
Batch 840	 Loss 0.05037134513258934 (0.017387978638085076)
Batch 850	 Loss 0.0023853881284594536 (0.017292956451710778)
Batch 860	 Loss 0.01652698591351509 (0.01730833901676179)
Batch 870	 Loss 0.004332511220127344 (0.017304957444440366)
Batch 880	 Loss 0.0016318390844389796 (0.01719453039472269)
Batch 890	 Loss 0.00562913017347455 (0.017188598652938616)
Batch 900	 Loss 0.07933168113231659 (0.017275155962189374)
Batch 910	 Loss 0.0011311741545796394 (0.01731489385661457)
Batch 920	 Loss 0.0016385423950850964 (0.017186154285651435)
Batch 930	 Loss 0.03587517514824867 (0.01729904969439714)
Batch 940	 Loss 0.05940109118819237 (0.01745427103870749)
Batch 950	 Loss 0.012540667317807674 (0.017410780467524953)
Batch 960	 Loss 0.0003320732794236392 (0.01733133503720031)
Batch 970	 Loss 0.014570211991667747 (0.01730882643163024)
Batch 980	 Loss 0.0012448470806702971 (0.01733311630305252)
Batch 990	 Loss 0.0025603699032217264 (0.017320325355456478)
Batch 1000	 Loss 0.0026117488741874695 (0.01722066211949277)
Batch 1010	 Loss 0.0009870192734524608 (0.017254839277187118)
Batch 1020	 Loss 0.030676987022161484 (0.017339103677416763)
Batch 1030	 Loss 0.014166041277348995 (0.017274014009046934)
Batch 1040	 Loss 0.0019527504919096828 (0.017270886125040238)
Batch 1050	 Loss 0.013260943815112114 (0.017265479674027855)
Batch 1060	 Loss 0.02264862135052681 (0.017270956302919964)
Batch 1070	 Loss 0.0022344912867993116 (0.017256660730875572)
Batch 1080	 Loss 0.009255968034267426 (0.017179144660096627)
Batch 1090	 Loss 0.0004263845912646502 (0.01723962702171358)
Batch 1100	 Loss 0.03982865437865257 (0.017341838280249662)
Batch 1110	 Loss 0.000958976917900145 (0.017413593747567593)
Batch 1120	 Loss 0.018468445166945457 (0.017373650630608087)
Batch 1130	 Loss 0.01484609954059124 (0.017311008788083282)
Batch 1140	 Loss 0.007905795238912106 (0.01727165582156056)
Batch 1150	 Loss 0.001625896547921002 (0.017229526851581835)
Batch 1160	 Loss 0.04418833181262016 (0.01727143445551237)
Batch 1170	 Loss 0.007185395807027817 (0.017384644936281158)
Batch 1180	 Loss 0.0008876799256540835 (0.017434373477503946)
Batch 1190	 Loss 0.000524607312399894 (0.017484320537688527)
Batch 1200	 Loss 0.0068841916508972645 (0.017434832515245944)
Finished. Total elapsed time (h:m:s): 1:46:56
Test Epoch 7/10
    Test Loss: 0.3888404979860704, Accuracy(multiclass): 0.934078947368421
==> Start Epoch 8/10
Batch 10	 Loss 0.0030984908808022738 (0.008883692638482899)
Batch 20	 Loss 0.0006251108716242015 (0.00857758462370839)
Batch 30	 Loss 0.00425341259688139 (0.00909536105270187)
Batch 40	 Loss 0.0017606215551495552 (0.008397642902855296)
Batch 50	 Loss 0.0042031011544167995 (0.0106759803800378)
Batch 60	 Loss 0.0014886927092447877 (0.011155258498426216)
Batch 70	 Loss 0.0024027591571211815 (0.011445563758856483)
Batch 80	 Loss 0.003720096545293927 (0.01112617661965487)
Batch 90	 Loss 0.024662744253873825 (0.01105780736090512)
Batch 100	 Loss 0.0005349548300728202 (0.010570743034768383)
Batch 110	 Loss 0.0004466593964025378 (0.011111398772283626)
Batch 120	 Loss 0.0005932759959250689 (0.010810003236838384)
Batch 130	 Loss 0.00022803670435678214 (0.010300960494406843)
Batch 140	 Loss 0.02566598914563656 (0.011164489491888422)
Batch 150	 Loss 0.0034788986667990685 (0.011668623595517905)
Batch 160	 Loss 0.00226616021245718 (0.0117125370424219)
Batch 170	 Loss 0.04461262375116348 (0.011532612379575286)
Batch 180	 Loss 0.00033263929071836174 (0.0116654738312516)
Batch 190	 Loss 0.00026636855909600854 (0.011583521134468212)
Batch 200	 Loss 0.0014913902850821614 (0.011537585309051792)
Batch 210	 Loss 0.0012169138062745333 (0.011563683019388312)
Batch 220	 Loss 0.0038532260805368423 (0.011598144884721313)
Batch 230	 Loss 0.031485896557569504 (0.01140429080576565)
Batch 240	 Loss 0.003781355917453766 (0.011193691362192719)
Batch 250	 Loss 0.0008357813931070268 (0.011014087708259467)
Batch 260	 Loss 0.0013343115570023656 (0.010969001909688813)
Batch 270	 Loss 0.003680008929222822 (0.011219796385665648)
Batch 280	 Loss 0.0008903792477212846 (0.011168981019052029)
Batch 290	 Loss 0.004692604765295982 (0.011513253515295219)
Batch 300	 Loss 0.0002690654364414513 (0.011542715359585903)
Batch 310	 Loss 0.0002785750257316977 (0.011243127654973163)
Batch 320	 Loss 0.0002942480787169188 (0.011085343550757899)
Batch 330	 Loss 0.010523209348320961 (0.010950503459995767)
Batch 340	 Loss 0.0018190698465332389 (0.01076834181260304)
Batch 350	 Loss 0.005058911629021168 (0.010815733034438122)
Batch 360	 Loss 0.00017189026402775198 (0.010877745471831683)
Batch 370	 Loss 0.00024152295372914523 (0.010896512688880132)
Batch 380	 Loss 0.03620303422212601 (0.010946913524745278)
Batch 390	 Loss 0.000976919080130756 (0.01099889262039095)
Batch 400	 Loss 0.0012949532829225063 (0.01092283005869831)
Batch 410	 Loss 0.00034088073880411685 (0.01077753786017505)
Batch 420	 Loss 0.00023511091421823949 (0.010536523346360939)
Batch 430	 Loss 0.0017512902850285172 (0.010527845680934301)
Batch 440	 Loss 0.00029060940141789615 (0.010380495383188562)
Batch 450	 Loss 0.01117220614105463 (0.010259313560123298)
Batch 460	 Loss 0.0032861707732081413 (0.010251142095639015)
Batch 470	 Loss 0.0007951483130455017 (0.010090379298979199)
Batch 480	 Loss 0.01399227138608694 (0.010264300972691369)
Batch 490	 Loss 0.00042952015064656734 (0.010493027646039916)
Batch 500	 Loss 0.020023487508296967 (0.010481149496656144)
Batch 510	 Loss 0.0015861168503761292 (0.010396340219264019)
Batch 520	 Loss 0.0007979150395840406 (0.010345302285238106)
Batch 530	 Loss 0.039482612162828445 (0.010422111462328345)
Batch 540	 Loss 0.01046651229262352 (0.010352564988257923)
Batch 550	 Loss 0.07236210256814957 (0.010438290129823145)
Batch 560	 Loss 0.08082731068134308 (0.010623276789322388)
Batch 570	 Loss 0.0011602293234318495 (0.010727563281895862)
Batch 580	 Loss 0.05369557440280914 (0.010687055834242874)
Batch 590	 Loss 0.00023104489082470536 (0.010598049330884212)
Batch 600	 Loss 0.002009681658819318 (0.010557086539968926)
Batch 610	 Loss 0.0003521995968185365 (0.010504857878263689)
Batch 620	 Loss 0.04334399849176407 (0.01057873647688182)
Batch 630	 Loss 0.002328981412574649 (0.010653132544959792)
Batch 640	 Loss 0.0007499147905036807 (0.010650622314187785)
Batch 650	 Loss 0.0010927919065579772 (0.01066120082879654)
Batch 660	 Loss 0.021006233990192413 (0.010614923693929362)
Batch 670	 Loss 0.07861030846834183 (0.010657298334208734)
Batch 680	 Loss 0.0004864017537329346 (0.010533214595210772)
Batch 690	 Loss 0.0029973145574331284 (0.01044306668433516)
Batch 700	 Loss 0.014564122073352337 (0.010537660722454477)
Batch 710	 Loss 0.0004901859792880714 (0.01047345177709284)
Batch 720	 Loss 0.00042013273923657835 (0.010478274873185001)
Batch 730	 Loss 0.000789824640378356 (0.010537233584999403)
Batch 740	 Loss 0.00220291456207633 (0.010539180039032127)
Batch 750	 Loss 0.010095661506056786 (0.010460808488821688)
Batch 760	 Loss 0.0025538504123687744 (0.010496740884264)
Batch 770	 Loss 0.023844070732593536 (0.010532662680152616)
Batch 780	 Loss 0.003915147855877876 (0.010499202686332865)
Batch 790	 Loss 0.0033382754772901535 (0.01064026429473726)
Batch 800	 Loss 0.007555203977972269 (0.010659790758836607)
Batch 810	 Loss 0.01410005334764719 (0.010763434174127106)
Batch 820	 Loss 0.00013934136950410903 (0.010855761793280225)
Batch 830	 Loss 0.019669566303491592 (0.010848839403724815)
Batch 840	 Loss 0.0011553108924999833 (0.010954121042353411)
Batch 850	 Loss 0.0007655006484128535 (0.0109100610032842)
Batch 860	 Loss 0.006502034608274698 (0.010880976913058263)
Batch 870	 Loss 0.018174216151237488 (0.010934491305586604)
Batch 880	 Loss 0.0025003713089972734 (0.010895436289369669)
Batch 890	 Loss 0.01320250891149044 (0.010922163135988188)
Batch 900	 Loss 0.00013455498265102506 (0.010890064263722807)
Batch 910	 Loss 0.005057447124272585 (0.010832566794060467)
Batch 920	 Loss 0.019168276339769363 (0.010793362142525756)
Batch 930	 Loss 0.010200563818216324 (0.010785357792666482)
Batch 940	 Loss 0.08528807014226913 (0.010858630045890522)
Batch 950	 Loss 0.0063077537342906 (0.01091683861771966)
Batch 960	 Loss 0.0007174881757237017 (0.010917757997776788)
Batch 970	 Loss 0.004250179044902325 (0.010927129400259162)
Batch 980	 Loss 0.0006074233097024262 (0.010941417394378174)
Batch 990	 Loss 0.0150864627212286 (0.010914457298320192)
Batch 1000	 Loss 0.002906629117205739 (0.010918440984823974)
Batch 1010	 Loss 0.00041629577754065394 (0.011047397773582627)
Batch 1020	 Loss 0.06166039779782295 (0.011129605608727491)
Batch 1030	 Loss 0.03215358778834343 (0.011143203087569806)
Batch 1040	 Loss 0.011944345198571682 (0.011198335286308765)
Batch 1050	 Loss 0.012909939512610435 (0.011140101684861639)
Batch 1060	 Loss 0.15216058492660522 (0.011352063721086486)
Batch 1070	 Loss 0.010240819305181503 (0.011321755147960133)
Batch 1080	 Loss 0.002490027341991663 (0.01151915029091739)
Batch 1090	 Loss 0.009830793365836143 (0.011507286727743505)
Batch 1100	 Loss 0.016766732558608055 (0.011528338143702554)
Batch 1110	 Loss 0.002782823983579874 (0.011633300221879623)
Batch 1120	 Loss 0.01897173561155796 (0.011582447119274418)
Batch 1130	 Loss 0.00017635452968534082 (0.011537812540291672)
Batch 1140	 Loss 0.00029486726270988584 (0.011698446934787441)
Batch 1150	 Loss 0.01976802572607994 (0.011725047221103601)
Batch 1160	 Loss 0.0009170740377157927 (0.011764974867351)
Batch 1170	 Loss 0.013021289370954037 (0.011921673401907628)
Batch 1180	 Loss 0.04410771280527115 (0.011929427795861926)
Batch 1190	 Loss 0.024618905037641525 (0.011943021207361114)
Batch 1200	 Loss 0.017271051183342934 (0.012007862427611447)
Finished. Total elapsed time (h:m:s): 2:02:14
Test Epoch 8/10
    Test Loss: 0.370755273946806, Accuracy(multiclass): 0.9347368421052632
==> Start Epoch 9/10
Batch 10	 Loss 0.005385486874729395 (0.0048479912482434885)
Batch 20	 Loss 0.002429315820336342 (0.005419781281671021)
Batch 30	 Loss 0.0029787432868033648 (0.0046415580077640095)
Batch 40	 Loss 0.0004826856020372361 (0.005258768319981755)
Batch 50	 Loss 0.0004076639306731522 (0.005329379357863218)
Batch 60	 Loss 0.0001369006058666855 (0.005067585025244625)
Batch 70	 Loss 0.001167829497717321 (0.00732922199469093)
Batch 80	 Loss 0.0059479582123458385 (0.006980250508422614)
Batch 90	 Loss 0.016153644770383835 (0.007336899346167532)
Batch 100	 Loss 0.00024029698397498578 (0.0069362863046990245)
Batch 110	 Loss 0.015509329736232758 (0.007091450735804921)
Batch 120	 Loss 0.006386373657733202 (0.007153672846834524)
Batch 130	 Loss 0.07069732248783112 (0.007571287117025349)
Batch 140	 Loss 0.0008341828943230212 (0.007795175539234021)
Batch 150	 Loss 0.005157842766493559 (0.008547884568882485)
Batch 160	 Loss 0.014394699595868587 (0.008502728802614)
Batch 170	 Loss 0.00018859562987927347 (0.008437502345238018)
Batch 180	 Loss 0.00016937803593464196 (0.008163338611403661)
Batch 190	 Loss 0.002808456076309085 (0.008354030630787173)
Batch 200	 Loss 0.0015518639702349901 (0.008107294643486966)
Batch 210	 Loss 0.0001583098783157766 (0.007819307571653986)
Batch 220	 Loss 0.0023386471439152956 (0.007605495967965743)
Batch 230	 Loss 0.00013073586160317063 (0.007489433681273468)
Batch 240	 Loss 0.017667699605226517 (0.007470035985655462)
Batch 250	 Loss 0.00033973035169765353 (0.007242893214453943)
Batch 260	 Loss 0.0012703851098194718 (0.007482701569153085)
Batch 270	 Loss 0.0003172538126818836 (0.007388239897005001)
Batch 280	 Loss 0.00015891708608251065 (0.007191687968328812)
Batch 290	 Loss 0.0006325851427391171 (0.007575536240745287)
Batch 300	 Loss 0.012403838336467743 (0.007670305991147567)
Batch 310	 Loss 0.0004021681088488549 (0.007806993491577751)
Batch 320	 Loss 0.007695735897868872 (0.007761785968546065)
Batch 330	 Loss 0.0007322270539589226 (0.00758124590147142)
Batch 340	 Loss 0.004105585161596537 (0.007552419467645129)
Batch 350	 Loss 0.0005176336853764951 (0.007601488600921584)
Batch 360	 Loss 0.0010714064119383693 (0.007421309674201539)
Batch 370	 Loss 0.0008303888025693595 (0.0074358658149493925)
Batch 380	 Loss 0.00020033243345096707 (0.007360511908049566)
Batch 390	 Loss 0.011862882412970066 (0.007444121204641236)
Batch 400	 Loss 0.01689756102859974 (0.007417707435943157)
Batch 410	 Loss 0.0010269320337101817 (0.007481481345628088)
Batch 420	 Loss 0.004659393802285194 (0.00738377237636693)
Batch 430	 Loss 0.00024420133559033275 (0.007258582556214817)
Batch 440	 Loss 0.0029429516289383173 (0.007268788358504191)
Batch 450	 Loss 0.0017572848591953516 (0.0072339454558257585)
Batch 460	 Loss 0.012021280825138092 (0.007236632607569134)
Batch 470	 Loss 0.02175115793943405 (0.007463793302660169)
Batch 480	 Loss 0.011776549741625786 (0.007579255178128127)
Batch 490	 Loss 0.000224939503823407 (0.007528138336694647)
Batch 500	 Loss 0.04205213859677315 (0.0075192575209803185)
Batch 510	 Loss 0.0017763955984264612 (0.00743026730552254)
Batch 520	 Loss 0.002709042513743043 (0.007475121821880748)
Batch 530	 Loss 0.00036258131149224937 (0.007437750487807998)
Batch 540	 Loss 0.00021056104742456228 (0.0074608599509600835)
Batch 550	 Loss 0.006984430365264416 (0.0074855067034712355)
Batch 560	 Loss 0.0012634230079129338 (0.007455215746150706)
Batch 570	 Loss 0.0011782370274886489 (0.007608021660812563)
Batch 580	 Loss 0.014716556295752525 (0.007724602153719953)
Batch 590	 Loss 0.0001384164352202788 (0.007648742145089673)
Batch 600	 Loss 0.04525899887084961 (0.007737402755604611)
Batch 610	 Loss 0.000683277496136725 (0.007757895892010295)
Batch 620	 Loss 0.002327101770788431 (0.007826733366751033)
Batch 630	 Loss 0.0043619959615170956 (0.0077399872825481)
Batch 640	 Loss 0.000281221407931298 (0.007729026207152856)
Batch 650	 Loss 0.00046268210280686617 (0.007628611744551633)
Batch 660	 Loss 0.0006618631887249649 (0.007708178870697421)
Batch 670	 Loss 0.001637610956095159 (0.007611208380032296)
Batch 680	 Loss 0.00023609805793967098 (0.007613949902181904)
Batch 690	 Loss 0.013199836947023869 (0.007679061178667167)
Batch 700	 Loss 0.00017101522826123983 (0.007601736505104262)
Batch 710	 Loss 0.00011968253966188058 (0.007572504468633167)
Batch 720	 Loss 0.000776343047618866 (0.007517270898733841)
Batch 730	 Loss 0.00018558929150458425 (0.007545283806722767)
Batch 740	 Loss 0.0767134577035904 (0.007562903685794555)
Batch 750	 Loss 0.006984099745750427 (0.007575953432446113)
Batch 760	 Loss 0.0013715852983295918 (0.007530682239714799)
Batch 770	 Loss 0.00012882627197541296 (0.007537565071484628)
Batch 780	 Loss 0.00021445391757879406 (0.007490077174430227)
Batch 790	 Loss 0.019370904192328453 (0.007452464259183182)
Batch 800	 Loss 0.007232851814478636 (0.007474356909551716)
Batch 810	 Loss 0.0015953981783241034 (0.007438377568456574)
Batch 820	 Loss 0.00023489739396609366 (0.007362775404287343)
Batch 830	 Loss 0.0005210282979533076 (0.00730231606029991)
Batch 840	 Loss 0.015555256977677345 (0.007319031236112918)
Batch 850	 Loss 0.0005035539506934583 (0.0073513317003979705)
Batch 860	 Loss 0.0168753731995821 (0.007307942162769059)
Batch 870	 Loss 0.0002705562801565975 (0.007273797085115635)
Batch 880	 Loss 0.0035520889796316624 (0.007283194622331476)
Batch 890	 Loss 0.01499303337186575 (0.00730654915139567)
Batch 900	 Loss 0.00012233603047206998 (0.007287351256422375)
Batch 910	 Loss 0.001321897841989994 (0.007420928760808777)
Batch 920	 Loss 0.00025861800531856716 (0.0073906437422841045)
Batch 930	 Loss 0.0001295998808927834 (0.007348361349752566)
Batch 940	 Loss 0.0019991060253232718 (0.0073046342845779514)
Batch 950	 Loss 0.009613892063498497 (0.007248013254996438)
Batch 960	 Loss 0.003396438667550683 (0.007271020966216687)
Batch 970	 Loss 0.011645767837762833 (0.00721595226340722)
Batch 980	 Loss 0.01648479327559471 (0.007197461138119771)
Batch 990	 Loss 0.0018719970248639584 (0.007158448136415429)
Batch 1000	 Loss 0.0004164164129178971 (0.007239376386532968)
Batch 1010	 Loss 0.00017870236479211599 (0.0072730033363732575)
Batch 1020	 Loss 0.0002316695754416287 (0.007223212544975504)
Batch 1030	 Loss 0.00033518156851641834 (0.00721538678086131)
Batch 1040	 Loss 0.017573421820998192 (0.007187330465582748)
Batch 1050	 Loss 0.00013276454410515726 (0.0073741329846961886)
Batch 1060	 Loss 0.020996026694774628 (0.007368030633033585)
Batch 1070	 Loss 0.0017516672378405929 (0.007427562721275994)
Batch 1080	 Loss 0.01211682241410017 (0.007405721473831498)
Batch 1090	 Loss 0.0006936711142770946 (0.0073467304553343155)
Batch 1100	 Loss 0.0015242475783452392 (0.007405893122645052)
Batch 1110	 Loss 0.0013888543471693993 (0.007420813619460164)
Batch 1120	 Loss 0.0002414935443084687 (0.007405432362845334)
Batch 1130	 Loss 0.024429311975836754 (0.007450564889818331)
Batch 1140	 Loss 0.06372002512216568 (0.007483516067517676)
Batch 1150	 Loss 0.02492966502904892 (0.00747488072076205)
Batch 1160	 Loss 0.000145975238410756 (0.0074400666636110745)
Batch 1170	 Loss 0.0008715858566574752 (0.007413021159785179)
Batch 1180	 Loss 0.0010466000530868769 (0.007368560183583167)
Batch 1190	 Loss 0.011976826936006546 (0.00734179167769323)
Batch 1200	 Loss 0.02550719492137432 (0.007319101917249403)
Finished. Total elapsed time (h:m:s): 2:17:32
Test Epoch 9/10
    Test Loss: 0.44149917976832703, Accuracy(multiclass): 0.9352631578947368
==> Start Epoch 10/10
Batch 10	 Loss 0.0033333590254187584 (0.00432364679290913)
Batch 20	 Loss 0.0006446135812439024 (0.004359237790049519)
Batch 30	 Loss 0.05766468495130539 (0.010762041220247435)
Batch 40	 Loss 0.026315925642848015 (0.010751113067271945)
Batch 50	 Loss 0.01320626586675644 (0.011064830314717255)
Batch 60	 Loss 0.00018368259770795703 (0.010173521792360892)
Batch 70	 Loss 0.01148772332817316 (0.009291731921465336)
Batch 80	 Loss 0.005571278277784586 (0.008905109370789432)
Batch 90	 Loss 0.005383295472711325 (0.008223609747559143)
Batch 100	 Loss 0.00012791919289156795 (0.007683276480747736)
Batch 110	 Loss 0.0002129723725374788 (0.007397913550944809)
Batch 120	 Loss 0.01772882044315338 (0.007172435450290019)
Batch 130	 Loss 9.461884474148974e-05 (0.006748844813577867)
Batch 140	 Loss 0.004216798115521669 (0.006451531369228698)
Batch 150	 Loss 0.0006944738561287522 (0.006220310202334076)
Batch 160	 Loss 0.0002880853717215359 (0.0059256779658880985)
Batch 170	 Loss 0.03212151676416397 (0.005859190467548187)
Batch 180	 Loss 0.0011314675211906433 (0.005640293206063992)
Batch 190	 Loss 0.0001733302342472598 (0.005373702358146578)
Batch 200	 Loss 0.00018159911269322038 (0.005321692979741784)
Batch 210	 Loss 0.000392890622606501 (0.005543209411449165)
Batch 220	 Loss 0.0001974007609533146 (0.0054482597816703756)
Batch 230	 Loss 0.0073801022954285145 (0.005399941833710055)
Batch 240	 Loss 0.00047005058149807155 (0.005231272436049039)
Batch 250	 Loss 0.00011443361290730536 (0.005142399907839717)
Batch 260	 Loss 7.163864211179316e-05 (0.004955341394396293)
Batch 270	 Loss 0.0002841780078597367 (0.004828770690397101)
Batch 280	 Loss 0.005128740798681974 (0.004746234970895914)
Batch 290	 Loss 0.00010055505845230073 (0.004710216832157538)
Batch 300	 Loss 0.008178291842341423 (0.004667635183529153)
Batch 310	 Loss 0.01079037319868803 (0.004751620747734823)
Batch 320	 Loss 0.0262015238404274 (0.004991204390398707)
Batch 330	 Loss 0.000107878033304587 (0.004925078340051132)
Batch 340	 Loss 0.0006851290818303823 (0.004926577012263485)
Batch 350	 Loss 8.758117473917082e-05 (0.005077751147473464)
Batch 360	 Loss 7.512360025430098e-05 (0.004953149789455185)
Batch 370	 Loss 0.00010560791270108894 (0.004943959748748426)
Batch 380	 Loss 7.598421507282183e-05 (0.0051270781842360615)
Batch 390	 Loss 0.000569367955904454 (0.005044289450019371)
Batch 400	 Loss 9.339509415440261e-05 (0.005012303764924581)
Batch 410	 Loss 0.006828881334513426 (0.004950378281181457)
Batch 420	 Loss 7.77356544858776e-05 (0.00514419679193885)
Batch 430	 Loss 0.0004234989464748651 (0.00515522790937698)
Batch 440	 Loss 7.520979852415621e-05 (0.005087877844611781)
Batch 450	 Loss 8.088337926892564e-05 (0.004985605982381255)
Batch 460	 Loss 0.0001540831581223756 (0.004925517851939809)
Batch 470	 Loss 0.02694891206920147 (0.005098684519876731)
Batch 480	 Loss 0.009468190371990204 (0.005151734576732754)
Batch 490	 Loss 0.004837499000132084 (0.0052287224049998296)
Batch 500	 Loss 0.00040106166852638125 (0.005144275480008218)
Batch 510	 Loss 0.0054065994918346405 (0.005156968310264204)
Batch 520	 Loss 0.0014961737906560302 (0.005372672685469017)
Batch 530	 Loss 8.325646922457963e-05 (0.005275587731259019)
Batch 540	 Loss 0.02630648761987686 (0.005250655880014097)
Batch 550	 Loss 0.003201383864507079 (0.005391973048972432)
Batch 560	 Loss 0.002608266659080982 (0.005342978483141841)
Batch 570	 Loss 8.837201312417164e-05 (0.005310697126888523)
Batch 580	 Loss 0.0005693294806405902 (0.005367294464755606)
Batch 590	 Loss 0.00011305780935799703 (0.005301962448079316)
Batch 600	 Loss 0.00039620036841370165 (0.0053391046234537495)
Batch 610	 Loss 0.021334240213036537 (0.005419080747605385)
Batch 620	 Loss 7.951036241138354e-05 (0.005397103804364545)
Batch 630	 Loss 0.006343391723930836 (0.005410016666451517)
Batch 640	 Loss 0.0002545769966673106 (0.005344221728250886)
Batch 650	 Loss 0.00014476799697149545 (0.005283978178665096)
Batch 660	 Loss 0.0005807116394862533 (0.005241704037358762)
Batch 670	 Loss 0.0031042012851685286 (0.005242965499798371)
Batch 680	 Loss 0.0008544863667339087 (0.0051756435595427105)
Batch 690	 Loss 0.001685973140411079 (0.00510837813716785)
Batch 700	 Loss 0.00010675481462385505 (0.005181534477752783)
Batch 710	 Loss 8.837738278089091e-05 (0.005197606186880927)
Batch 720	 Loss 8.347490074811503e-05 (0.00514011270399553)
Batch 730	 Loss 0.0003275704802945256 (0.0051048048534502325)
Batch 740	 Loss 9.232194133801386e-05 (0.005185131180572884)
Batch 750	 Loss 0.006320014595985413 (0.00523524006853889)
Batch 760	 Loss 0.0004056728503201157 (0.0052204499246822945)
Batch 770	 Loss 0.017729168757796288 (0.005240457063771757)
Batch 780	 Loss 0.0475006103515625 (0.005401586328904765)
Batch 790	 Loss 7.019351323833689e-05 (0.005370599390401747)
Batch 800	 Loss 0.0003528907254803926 (0.0054137966859980225)
Batch 810	 Loss 0.00010310267680324614 (0.005404002552650463)
Batch 820	 Loss 0.00010996395576512441 (0.005391880908667567)
Batch 830	 Loss 0.00011998960690107197 (0.005347198457737644)
Batch 840	 Loss 0.010652631521224976 (0.0053009613879632005)
Batch 850	 Loss 0.00012194852024549618 (0.005258803421122994)
Batch 860	 Loss 0.00018870492931455374 (0.0052113086675469045)
Batch 870	 Loss 0.009416130371391773 (0.005176669938615912)
Batch 880	 Loss 8.285986405098811e-05 (0.0051354444062946475)
Batch 890	 Loss 0.00014276527508627623 (0.005090029813763568)
Batch 900	 Loss 0.000788854609709233 (0.005063287261509686)
Batch 910	 Loss 0.004656806122511625 (0.0051218528680472665)
Batch 920	 Loss 0.008453470654785633 (0.0051124454491044795)
Batch 930	 Loss 8.210909436456859e-05 (0.005064658019851308)
Batch 940	 Loss 0.035145774483680725 (0.005064154900328697)
Batch 950	 Loss 6.428072083508596e-05 (0.005053103891037417)
Batch 960	 Loss 8.491738117299974e-05 (0.005039274764787175)
Batch 970	 Loss 0.0005378358764573932 (0.005003653119068255)
Batch 980	 Loss 0.0001696201361482963 (0.005043018505491592)
Batch 990	 Loss 0.00012863198935519904 (0.005045350581562473)
Batch 1000	 Loss 7.706227916060016e-05 (0.005012294470325287)
Batch 1010	 Loss 0.0034035604912787676 (0.005082672024524649)
Batch 1020	 Loss 0.001736850244924426 (0.005042651500209068)
Batch 1030	 Loss 0.01080956682562828 (0.005056062076583808)
Batch 1040	 Loss 6.99466181686148e-05 (0.005064417439098179)
Batch 1050	 Loss 0.013528803363442421 (0.005043826555366174)
Batch 1060	 Loss 9.331440378446132e-05 (0.00501410639214023)
Batch 1070	 Loss 9.96067828964442e-05 (0.004984028641305587)
Batch 1080	 Loss 0.015203888528048992 (0.00498577613246501)
Batch 1090	 Loss 0.0003007954219356179 (0.004948660870680239)
Batch 1100	 Loss 0.00010672966163838282 (0.004947648932383427)
Batch 1110	 Loss 8.52593220770359e-05 (0.004990604242879157)
Batch 1120	 Loss 0.0016739736311137676 (0.004997634762360446)
Batch 1130	 Loss 0.004086020402610302 (0.004990450444352345)
Batch 1140	 Loss 8.758030162425712e-05 (0.0049552868310951325)
Batch 1150	 Loss 0.0002276440354762599 (0.004944025720235557)
Batch 1160	 Loss 0.00014925295545253903 (0.004928312446877655)
Batch 1170	 Loss 9.97203605948016e-05 (0.004918701020306978)
Batch 1180	 Loss 0.007772369775921106 (0.004964092581292912)
Batch 1190	 Loss 0.0002222682669525966 (0.004947654987568478)
Batch 1200	 Loss 0.00013333529932424426 (0.004932301620459233)
Finished. Total elapsed time (h:m:s): 2:32:49
Test Epoch 10/10
    Test Loss: 0.46371945121178504, Accuracy(multiclass): 0.9355263157894737
