Train Multi-Optimizer
--- START Arg parse ---
path : /home/super/datasets/cola_public/raw
dataset : cola
test_file : /media/mint/Barracuda/Datasets/cifar10/
gpu : 1
seed : 2
seq_max_len : 64
batch_size : 100
lr : 0.0002
momentum : 0.95
adam_w : 0.4
sgd_w : 0.6
max_epoch : 50
original : 0
mas_change : no
adam_end_w : 0.0
--- END Arg parse ---
Currently using GPU: 1
Learning rate optimizer 0.0002  Batch-size 100
torch.Size([8551, 64]) torch.Size([8551, 64]) torch.Size([8551])
torch.Size([527, 64]) torch.Size([527, 64]) torch.Size([527])
creating model...
AdamSGDWeighted (
Parameter Group 0
    adam_w: 0.4
    amsgrad: False
    betas: (0.9, 0.999)
    dampening: 0
    eps: 1e-08
    lr: 0.0002
    momentum: 0.95
    nesterov: False
    sgd_w: 0.6
    weight_decay: 0
)
==> Start Epoch 1/50
Batch 10	 Loss 0.6431329250335693 (0.6543914437294006)
Batch 20	 Loss 0.6210783123970032 (0.6364484906196595)
Batch 30	 Loss 0.4625610411167145 (0.611102573076884)
Batch 40	 Loss 0.539915919303894 (0.5892385594546795)
Batch 50	 Loss 0.3697230815887451 (0.5577528160810471)
Batch 60	 Loss 0.43423035740852356 (0.5419298410415649)
Batch 70	 Loss 0.5077900290489197 (0.5354245620114463)
Batch 80	 Loss 0.48055344820022583 (0.527941120415926)
Finished. Total elapsed time (h:m:s): 0:01:03
Test Epoch 1/50
    Test Loss: 0.3919904162467544, Accuracy(multiclass): 0.8311195445920304
==> Start Epoch 2/50
Batch 10	 Loss 0.3084559142589569 (0.32957915365695956)
Batch 20	 Loss 0.2575632333755493 (0.32699004411697385)
Batch 30	 Loss 0.26163533329963684 (0.3102417454123497)
Batch 40	 Loss 0.34752941131591797 (0.3155649684369564)
Batch 50	 Loss 0.3311983048915863 (0.31355775624513627)
Batch 60	 Loss 0.24104587733745575 (0.3109198349217574)
Batch 70	 Loss 0.217359721660614 (0.30860853365489416)
Batch 80	 Loss 0.34475186467170715 (0.30618001986294985)
Finished. Total elapsed time (h:m:s): 0:02:07
Test Epoch 2/50
    Test Loss: 0.39580613612223847, Accuracy(multiclass): 0.8349146110056926
==> Start Epoch 3/50
Batch 10	 Loss 0.15871982276439667 (0.14107042960822583)
Batch 20	 Loss 0.08861935883760452 (0.13581470269709825)
Batch 30	 Loss 0.16892535984516144 (0.1432395809640487)
Batch 40	 Loss 0.20244282484054565 (0.14908213624730707)
Batch 50	 Loss 0.11542320996522903 (0.15685248874127866)
Batch 60	 Loss 0.259415864944458 (0.1603251598154505)
Batch 70	 Loss 0.28961241245269775 (0.1642228233494929)
Batch 80	 Loss 0.24376311898231506 (0.16769755887798965)
Finished. Total elapsed time (h:m:s): 0:03:11
Test Epoch 3/50
    Test Loss: 0.4724352820096025, Accuracy(multiclass): 0.8462998102466793
==> Start Epoch 4/50
Batch 10	 Loss 0.08652731031179428 (0.07790418453514576)
Batch 20	 Loss 0.1276705414056778 (0.08464491907507181)
Batch 30	 Loss 0.0868518054485321 (0.09378559837738673)
Batch 40	 Loss 0.04788945987820625 (0.09499970106408)
Batch 50	 Loss 0.06224475055932999 (0.09489590682089329)
Batch 60	 Loss 0.18062201142311096 (0.10350848399102688)
Batch 70	 Loss 0.1671053171157837 (0.10543482127998556)
Batch 80	 Loss 0.10789327323436737 (0.10726560675539076)
Finished. Total elapsed time (h:m:s): 0:04:16
Test Epoch 4/50
    Test Loss: 0.5954983842893162, Accuracy(multiclass): 0.8406072106261859
==> Start Epoch 5/50
Batch 10	 Loss 0.07186892628669739 (0.07810277976095677)
Batch 20	 Loss 0.11168970167636871 (0.07709352606907487)
Batch 30	 Loss 0.09454178810119629 (0.07470328466345867)
Batch 40	 Loss 0.047097187489271164 (0.07961164354346692)
Batch 50	 Loss 0.0700220987200737 (0.0824523065239191)
Batch 60	 Loss 0.11728149652481079 (0.09099702838187416)
Batch 70	 Loss 0.04984789341688156 (0.08977694487465279)
Batch 80	 Loss 0.08423008024692535 (0.09192734673852102)
Finished. Total elapsed time (h:m:s): 0:05:20
Test Epoch 5/50
    Test Loss: 0.6479018094191289, Accuracy(multiclass): 0.825426944971537
==> Start Epoch 6/50
Batch 10	 Loss 0.036441415548324585 (0.06306137405335903)
Batch 20	 Loss 0.04429396986961365 (0.055398589465767145)
Batch 30	 Loss 0.04255357384681702 (0.05161848043402036)
Batch 40	 Loss 0.11502084881067276 (0.05666679469868541)
Batch 50	 Loss 0.01399932149797678 (0.06050745719112456)
Batch 60	 Loss 0.040033504366874695 (0.06452347084414214)
Batch 70	 Loss 0.030277611687779427 (0.06518366626197739)
Batch 80	 Loss 0.043669939041137695 (0.06866911597899161)
Finished. Total elapsed time (h:m:s): 0:06:24
Test Epoch 6/50
    Test Loss: 0.7756046598505024, Accuracy(multiclass): 0.8235294117647058
==> Start Epoch 7/50
Batch 10	 Loss 0.09918654710054398 (0.05198990805074573)
Batch 20	 Loss 0.10175443440675735 (0.061921029211953284)
Batch 30	 Loss 0.01932399719953537 (0.05864844070747495)
Batch 40	 Loss 0.09238316863775253 (0.06352849265094847)
Batch 50	 Loss 0.05942389369010925 (0.06310605343431235)
Batch 60	 Loss 0.07828052341938019 (0.06402628386082748)
Batch 70	 Loss 0.033118002116680145 (0.06430968917640192)
Batch 80	 Loss 0.0973576009273529 (0.06537318514892831)
Finished. Total elapsed time (h:m:s): 0:07:28
Test Epoch 7/50
    Test Loss: 0.6095384765395178, Accuracy(multiclass): 0.8500948766603416
==> Start Epoch 8/50
Batch 10	 Loss 0.021058404818177223 (0.031939458241686224)
Batch 20	 Loss 0.059040818363428116 (0.04509742904920131)
Batch 30	 Loss 0.08923807740211487 (0.05049888033730288)
Batch 40	 Loss 0.10092438757419586 (0.05096431627171114)
Batch 50	 Loss 0.13811001181602478 (0.05352075209841132)
Batch 60	 Loss 0.05438214913010597 (0.04938724890040855)
Batch 70	 Loss 0.1545545607805252 (0.050971803736008174)
Batch 80	 Loss 0.0819782167673111 (0.05576432157686213)
Finished. Total elapsed time (h:m:s): 0:08:32
Test Epoch 8/50
    Test Loss: 0.5785447347774904, Accuracy(multiclass): 0.8368121442125237
==> Start Epoch 9/50
Batch 10	 Loss 0.06151534989476204 (0.038717213086783886)
Batch 20	 Loss 0.007231088355183601 (0.039993541315197945)
Batch 30	 Loss 0.14371514320373535 (0.048158859834074974)
Batch 40	 Loss 0.0524117611348629 (0.043908957345411184)
Batch 50	 Loss 0.041347112506628036 (0.04186109294649214)
Batch 60	 Loss 0.011821393854916096 (0.04414233037192995)
Batch 70	 Loss 0.04173562675714493 (0.04537726069600986)
Batch 80	 Loss 0.10392355918884277 (0.04967520889767911)
Finished. Total elapsed time (h:m:s): 0:09:36
Test Epoch 9/50
    Test Loss: 0.6528333378019098, Accuracy(multiclass): 0.8159392789373814
==> Start Epoch 10/50
Batch 10	 Loss 0.01956266351044178 (0.03214494846761227)
Batch 20	 Loss 0.02102155052125454 (0.035573032137472184)
Batch 30	 Loss 0.006764896679669619 (0.03921336729545146)
Batch 40	 Loss 0.027821380645036697 (0.03800862633506767)
Batch 50	 Loss 0.055780984461307526 (0.04299060763325542)
Batch 60	 Loss 0.07818585634231567 (0.04257150082460915)
Batch 70	 Loss 0.03190020099282265 (0.04117321365047246)
Batch 80	 Loss 0.05413956195116043 (0.04217622222786303)
Finished. Total elapsed time (h:m:s): 0:10:41
Test Epoch 10/50
    Test Loss: 0.6658210041287728, Accuracy(multiclass): 0.8311195445920304
==> Start Epoch 11/50
Batch 10	 Loss 0.002036960795521736 (0.02344076761510223)
Batch 20	 Loss 0.06636552512645721 (0.038022438221378255)
Batch 30	 Loss 0.011245877481997013 (0.03868387400871143)
Batch 40	 Loss 0.05324617028236389 (0.0410000710078748)
Batch 50	 Loss 0.02900131791830063 (0.0388838700694032)
Batch 60	 Loss 0.05015373229980469 (0.03878114124721226)
Batch 70	 Loss 0.0020287311635911465 (0.037309422711509145)
Batch 80	 Loss 0.003869215026497841 (0.03915519699366996)
Finished. Total elapsed time (h:m:s): 0:11:45
Test Epoch 11/50
    Test Loss: 1.0575162364590553, Accuracy(multiclass): 0.8273244781783681
==> Start Epoch 12/50
Batch 10	 Loss 0.20999059081077576 (0.04272963865660131)
Batch 20	 Loss 0.10191666334867477 (0.037457472365349534)
Batch 30	 Loss 0.025493955239653587 (0.034740045014768836)
Batch 40	 Loss 0.004464243073016405 (0.03315806441241875)
Batch 50	 Loss 0.03647790476679802 (0.03122753051109612)
Batch 60	 Loss 0.011041475459933281 (0.02936760428128764)
Batch 70	 Loss 0.07662510126829147 (0.036166331973592085)
Batch 80	 Loss 0.015282626263797283 (0.03857972110999981)
Finished. Total elapsed time (h:m:s): 0:12:49
Test Epoch 12/50
    Test Loss: 0.8652126046014239, Accuracy(multiclass): 0.8216318785578748
==> Start Epoch 13/50
Batch 10	 Loss 0.10309427231550217 (0.022504547645803542)
Batch 20	 Loss 0.0016861138865351677 (0.02740812787087634)
Batch 30	 Loss 0.020321635529398918 (0.0370710965556403)
Batch 40	 Loss 0.06530017405748367 (0.03515498033957556)
Batch 50	 Loss 0.0023365411907434464 (0.03222223435528576)
Batch 60	 Loss 0.021185526624321938 (0.0310378196144787)
Batch 70	 Loss 0.0030796870123595 (0.03069222536869347)
Batch 80	 Loss 0.009927512146532536 (0.03003471701522358)
Finished. Total elapsed time (h:m:s): 0:13:53
Test Epoch 13/50
    Test Loss: 0.7346528669009851, Accuracy(multiclass): 0.8462998102466793
==> Start Epoch 14/50
Batch 10	 Loss 0.05758406221866608 (0.03907730903010816)
Batch 20	 Loss 0.05686662718653679 (0.032185960316564885)
Batch 30	 Loss 0.007608394138514996 (0.02854740007314831)
Batch 40	 Loss 0.016268687322735786 (0.028474055498372765)
Batch 50	 Loss 0.030645564198493958 (0.02747787257656455)
Batch 60	 Loss 0.07798890769481659 (0.02536102819140069)
Batch 70	 Loss 0.0017671900568529963 (0.024212368908670862)
Batch 80	 Loss 0.00240415520966053 (0.023452398348308635)
Finished. Total elapsed time (h:m:s): 0:14:57
Test Epoch 14/50
    Test Loss: 0.7981253491407101, Accuracy(multiclass): 0.855787476280835
==> Start Epoch 15/50
Batch 10	 Loss 0.008594077080488205 (0.022417456051334737)
Batch 20	 Loss 0.018610987812280655 (0.027394733880646525)
Batch 30	 Loss 0.0012145009823143482 (0.019523036192792158)
Batch 40	 Loss 0.022425450384616852 (0.017383876563690136)
Batch 50	 Loss 0.05367176607251167 (0.019224710195558145)
Batch 60	 Loss 0.013045672327280045 (0.01783354273356963)
Batch 70	 Loss 0.048439547419548035 (0.017436882305524443)
Batch 80	 Loss 0.09542742371559143 (0.02023970908485353)
Finished. Total elapsed time (h:m:s): 0:16:01
Test Epoch 15/50
    Test Loss: 0.7462892330461933, Accuracy(multiclass): 0.8406072106261859
==> Start Epoch 16/50
Batch 10	 Loss 0.004878360778093338 (0.01973854750394821)
Batch 20	 Loss 0.02951674535870552 (0.013550165377091616)
Batch 30	 Loss 0.007756729610264301 (0.018399727957633633)
Batch 40	 Loss 0.03567604348063469 (0.019538819673471153)
Batch 50	 Loss 0.019079338759183884 (0.020025948171969503)
Batch 60	 Loss 0.0034933260176330805 (0.018996826548633786)
Batch 70	 Loss 0.05203944072127342 (0.018989036832603494)
Batch 80	 Loss 0.04020953178405762 (0.020080240155220964)
Finished. Total elapsed time (h:m:s): 0:17:05
Test Epoch 16/50
    Test Loss: 0.7397591402679965, Accuracy(multiclass): 0.8444022770398482
==> Start Epoch 17/50
Batch 10	 Loss 0.052719827741384506 (0.014273792877793312)
Batch 20	 Loss 0.0031867444049566984 (0.025453491549706088)
Batch 30	 Loss 0.003809558693319559 (0.021304336023361733)
Batch 40	 Loss 0.021098483353853226 (0.01935700586764142)
Batch 50	 Loss 0.13615067303180695 (0.020152380981016904)
Batch 60	 Loss 0.019159123301506042 (0.022077109637515)
Batch 70	 Loss 0.002624539192765951 (0.02046645457989403)
Batch 80	 Loss 0.032226622104644775 (0.021862177035654896)
Finished. Total elapsed time (h:m:s): 0:18:08
Test Epoch 17/50
    Test Loss: 0.8791879211928858, Accuracy(multiclass): 0.8349146110056926
==> Start Epoch 18/50
Batch 10	 Loss 0.0018579750321805477 (0.005830814165528863)
Batch 20	 Loss 0.0007669659680686891 (0.009307797951623797)
Batch 30	 Loss 0.0016217890661209822 (0.010920915584817219)
Batch 40	 Loss 0.005478313192725182 (0.009380354976019589)
Batch 50	 Loss 0.001900908537209034 (0.012281190379871987)
Batch 60	 Loss 0.07871635258197784 (0.014965116070137204)
Batch 70	 Loss 0.025102660059928894 (0.015193417522407668)
Batch 80	 Loss 0.06906133890151978 (0.01620483067272289)
Finished. Total elapsed time (h:m:s): 0:19:12
Test Epoch 18/50
    Test Loss: 0.8741477427604755, Accuracy(multiclass): 0.8273244781783681
==> Start Epoch 19/50
Batch 10	 Loss 0.0020502323750406504 (0.010419528430793435)
Batch 20	 Loss 0.00934926699846983 (0.013401013475959189)
Batch 30	 Loss 0.0007256184471771121 (0.012365338330467542)
Batch 40	 Loss 0.018902383744716644 (0.012571169902366819)
Batch 50	 Loss 0.0004997866926714778 (0.011104850716656074)
Batch 60	 Loss 0.0008285082876682281 (0.01072944062470924)
Batch 70	 Loss 0.0005392885068431497 (0.011471794332360981)
Batch 80	 Loss 0.0015047484776005149 (0.013957161790676765)
Finished. Total elapsed time (h:m:s): 0:20:16
Test Epoch 19/50
    Test Loss: 0.8918006318343885, Accuracy(multiclass): 0.8330170777988615
==> Start Epoch 20/50
Batch 10	 Loss 0.001100490684621036 (0.002755986066767946)
Batch 20	 Loss 0.05364996939897537 (0.010241442202823237)
Batch 30	 Loss 0.009125933982431889 (0.008621418099695195)
Batch 40	 Loss 0.0006543796043843031 (0.007863390096463262)
Batch 50	 Loss 0.009921439923346043 (0.006774745011935011)
Batch 60	 Loss 0.0002690949768293649 (0.006121851444186177)
Batch 70	 Loss 0.015493221580982208 (0.007515102857308063)
Batch 80	 Loss 0.004306615795940161 (0.007627821415735525)
Finished. Total elapsed time (h:m:s): 0:21:20
Test Epoch 20/50
    Test Loss: 1.0425854336604674, Accuracy(multiclass): 0.8311195445920304
==> Start Epoch 21/50
Batch 10	 Loss 0.08370742946863174 (0.011158795206574723)
Batch 20	 Loss 0.0002303445216966793 (0.006801271724543767)
Batch 30	 Loss 0.0005655598361045122 (0.006418850289386076)
Batch 40	 Loss 0.006527810823172331 (0.008771154691567062)
Batch 50	 Loss 0.00039966352051123977 (0.008559716419840697)
Batch 60	 Loss 0.0004394944990053773 (0.008973015456043261)
Batch 70	 Loss 0.007530571892857552 (0.009522679283275335)
Batch 80	 Loss 0.0004548128054011613 (0.009580015633946459)
Finished. Total elapsed time (h:m:s): 0:22:24
Test Epoch 21/50
    Test Loss: 1.0888885886212227, Accuracy(multiclass): 0.8349146110056926
==> Start Epoch 22/50
Batch 10	 Loss 0.00039623110205866396 (0.0032959069329081105)
Batch 20	 Loss 0.007820451632142067 (0.005812045742641203)
Batch 30	 Loss 0.0002397252683294937 (0.007013113495486323)
Batch 40	 Loss 0.000310287723550573 (0.008007173915029853)
Batch 50	 Loss 0.00040264666313305497 (0.008267762910982128)
Batch 60	 Loss 0.007491300813853741 (0.007791345557052409)
Batch 70	 Loss 0.0005514462827704847 (0.007541499825103009)
Batch 80	 Loss 0.0008628903306089342 (0.008249416365106298)
Finished. Total elapsed time (h:m:s): 0:23:27
Test Epoch 22/50
    Test Loss: 0.9657734584989313, Accuracy(multiclass): 0.8273244781783681
==> Start Epoch 23/50
Batch 10	 Loss 0.0002544703020248562 (0.0045841783779906106)
Batch 20	 Loss 0.00023664195032324642 (0.0052473380434094)
Batch 30	 Loss 0.0003592230495996773 (0.007291381149358737)
Batch 40	 Loss 0.000498674635309726 (0.009870220148877706)
Batch 50	 Loss 0.0004472205473575741 (0.008212954638293014)
Batch 60	 Loss 0.00044501907541416585 (0.0074178333171100045)
Batch 70	 Loss 0.00047267499030567706 (0.009031377283723227)
Batch 80	 Loss 0.003505297005176544 (0.008555437145696487)
Finished. Total elapsed time (h:m:s): 0:24:31
Test Epoch 23/50
    Test Loss: 1.15903850383279, Accuracy(multiclass): 0.8292220113851992
==> Start Epoch 24/50
Batch 10	 Loss 0.0002939050900749862 (0.006755203526699916)
Batch 20	 Loss 0.006190782878547907 (0.0042386377790535334)
Batch 30	 Loss 0.019690396264195442 (0.005513612440457412)
Batch 40	 Loss 0.0006864323513582349 (0.004556479959865101)
Batch 50	 Loss 0.0001868546532932669 (0.005562297588330694)
Batch 60	 Loss 0.010005074553191662 (0.006511173839438319)
Batch 70	 Loss 0.009679676964879036 (0.005945940055452021)
Batch 80	 Loss 0.00048274837899953127 (0.006183097702887608)
Finished. Total elapsed time (h:m:s): 0:25:35
Test Epoch 24/50
    Test Loss: 1.0836137742426182, Accuracy(multiclass): 0.8387096774193549
==> Start Epoch 25/50
Batch 10	 Loss 0.00036481014103628695 (0.0019588416020269507)
Batch 20	 Loss 0.00017500121612101793 (0.0010773654539661948)
Batch 30	 Loss 0.00018225326493848115 (0.0010393125456175766)
Batch 40	 Loss 0.009029426611959934 (0.004050579650538566)
Batch 50	 Loss 0.00021526623459067196 (0.004879831586004002)
Batch 60	 Loss 0.0006123949424363673 (0.006046168561564021)
Batch 70	 Loss 0.00047170461039058864 (0.00584873818037782)
Batch 80	 Loss 0.00041037381743080914 (0.005660908513618779)
Finished. Total elapsed time (h:m:s): 0:26:39
Test Epoch 25/50
    Test Loss: 0.9891574418974556, Accuracy(multiclass): 0.8330170777988615
==> Start Epoch 26/50
Batch 10	 Loss 0.0005659168818965554 (0.004250386112835259)
Batch 20	 Loss 0.0011404588585719466 (0.008723828320216852)
Batch 30	 Loss 0.000955191848333925 (0.011714491344173439)
Batch 40	 Loss 0.001015968737192452 (0.009103009461978218)
Batch 50	 Loss 0.00030038109980523586 (0.01034186252974905)
Batch 60	 Loss 0.0018224302912130952 (0.010381501062753765)
Batch 70	 Loss 0.0002474467037245631 (0.009252821972976173)
Batch 80	 Loss 0.00019843455811496824 (0.008383201384640415)
Finished. Total elapsed time (h:m:s): 0:27:43
Test Epoch 26/50
    Test Loss: 1.2306235508403018, Accuracy(multiclass): 0.8292220113851992
==> Start Epoch 27/50
Batch 10	 Loss 0.0026355839800089598 (0.0005178793755476363)
Batch 20	 Loss 0.00017277532606385648 (0.01018611695326399)
Batch 30	 Loss 0.0002910801849793643 (0.011465794892865233)
Batch 40	 Loss 0.012101148255169392 (0.011944548381870845)
Batch 50	 Loss 0.010865849442780018 (0.011505283219157718)
Batch 60	 Loss 0.00023884166148491204 (0.011275006304398023)
Batch 70	 Loss 0.0008572869119234383 (0.010288407115149311)
Batch 80	 Loss 0.00021245714742690325 (0.009030049221018998)
Finished. Total elapsed time (h:m:s): 0:28:46
Test Epoch 27/50
    Test Loss: 1.1334879027372067, Accuracy(multiclass): 0.8292220113851992
==> Start Epoch 28/50
Batch 10	 Loss 0.013863354921340942 (0.005532870499882847)
Batch 20	 Loss 0.00012386841990519315 (0.0033493746304884553)
Batch 30	 Loss 0.00022988507407717407 (0.002510939520774021)
Batch 40	 Loss 0.0001876933383755386 (0.0045256027777213605)
Batch 50	 Loss 0.020023778080940247 (0.004583862630242947)
Batch 60	 Loss 0.009581107646226883 (0.004171661080908962)
Batch 70	 Loss 0.00029829220147803426 (0.00466418478380157)
Batch 80	 Loss 0.0002500529517419636 (0.0049288398889984816)
Finished. Total elapsed time (h:m:s): 0:29:50
Test Epoch 28/50
    Test Loss: 1.1761302113306817, Accuracy(multiclass): 0.8292220113851992
==> Start Epoch 29/50
Batch 10	 Loss 0.006592373829334974 (0.0038799813395598904)
Batch 20	 Loss 0.0001673787337495014 (0.0034466897013771813)
Batch 30	 Loss 0.00014422749518416822 (0.002897818207081097)
Batch 40	 Loss 0.00010742339509306476 (0.0023028056739349267)
Batch 50	 Loss 0.00010934648162219673 (0.002612243721523555)
Batch 60	 Loss 0.00011968242324655876 (0.0026672636575919267)
Batch 70	 Loss 8.962841820903122e-05 (0.002712696881748603)
Batch 80	 Loss 0.00013097934424877167 (0.003721066522939509)
Finished. Total elapsed time (h:m:s): 0:30:54
Test Epoch 29/50
    Test Loss: 1.2175907618180624, Accuracy(multiclass): 0.8273244781783681
==> Start Epoch 30/50
Batch 10	 Loss 0.007668949197977781 (0.002155651696375571)
Batch 20	 Loss 0.006887054070830345 (0.0049078957388701385)
Batch 30	 Loss 0.0001038304835674353 (0.003562993947950114)
Batch 40	 Loss 0.005888798274099827 (0.003127238460183435)
Batch 50	 Loss 0.00010811418906087056 (0.003120183040300617)
Batch 60	 Loss 8.549445192329586e-05 (0.004670588487594311)
Batch 70	 Loss 0.0005004453705623746 (0.004234466156257051)
Batch 80	 Loss 9.748552838573232e-05 (0.003797341398694698)
Finished. Total elapsed time (h:m:s): 0:31:58
Test Epoch 30/50
    Test Loss: 1.3173355366292443, Accuracy(multiclass): 0.8330170777988615
==> Start Epoch 31/50
Batch 10	 Loss 6.983147613937035e-05 (0.0013957347880932502)
Batch 20	 Loss 0.006808784790337086 (0.0025906604756528394)
Batch 30	 Loss 5.605128899333067e-05 (0.0020443587679134603)
Batch 40	 Loss 0.00581577280536294 (0.0029864377898775273)
Batch 50	 Loss 0.00010125811240868643 (0.0027998590219067408)
Batch 60	 Loss 0.0001222089194925502 (0.0044774621526206225)
Batch 70	 Loss 0.00012921915913466364 (0.003956340716104023)
Batch 80	 Loss 0.0001336703571723774 (0.0038149042854456637)
Finished. Total elapsed time (h:m:s): 0:33:02
Test Epoch 31/50
    Test Loss: 1.2847135279617454, Accuracy(multiclass): 0.8387096774193549
==> Start Epoch 32/50
Batch 10	 Loss 0.0001250231289304793 (0.0016718872931960505)
Batch 20	 Loss 0.008154178969562054 (0.008913191535611986)
Batch 30	 Loss 0.015218675136566162 (0.009785049171720553)
Batch 40	 Loss 0.009375370107591152 (0.007846731155404995)
Batch 50	 Loss 0.0003559075412340462 (0.006599315735948039)
Batch 60	 Loss 0.00026148793403990567 (0.006583846006712217)
Batch 70	 Loss 0.00022263331629801542 (0.007462386884539488)
Batch 80	 Loss 0.00871709268540144 (0.006680462346321292)
Finished. Total elapsed time (h:m:s): 0:34:05
Test Epoch 32/50
    Test Loss: 1.0738337151918285, Accuracy(multiclass): 0.8349146110056926
==> Start Epoch 33/50
Batch 10	 Loss 0.012304735369980335 (0.00159352206683252)
Batch 20	 Loss 0.00029505029669962823 (0.0030255599893280307)
Batch 30	 Loss 0.00018251413712278008 (0.002273922902531922)
Batch 40	 Loss 0.008077817969024181 (0.002490537978883367)
Batch 50	 Loss 0.0001502166414866224 (0.0030361155778518877)
Batch 60	 Loss 0.00020749143732246011 (0.004461564926896244)
Batch 70	 Loss 0.007116260472685099 (0.005092800741424851)
Batch 80	 Loss 0.0007565465639345348 (0.005632478560801246)
Finished. Total elapsed time (h:m:s): 0:35:09
Test Epoch 33/50
    Test Loss: 1.0787911401527883, Accuracy(multiclass): 0.8406072106261859
==> Start Epoch 34/50
Batch 10	 Loss 0.0005161549779586494 (0.0019726171100046485)
Batch 20	 Loss 0.00725666806101799 (0.0032840094398125077)
Batch 30	 Loss 0.00031544710509479046 (0.0055300647994348156)
Batch 40	 Loss 0.04067215323448181 (0.0060862302256282415)
Batch 50	 Loss 0.0004365087952464819 (0.00510534698551055)
Batch 60	 Loss 0.0003601794596761465 (0.004723974821293571)
Batch 70	 Loss 0.00026245173648931086 (0.004432959046971519)
Batch 80	 Loss 0.0001966848358279094 (0.00519665556766995)
Finished. Total elapsed time (h:m:s): 0:36:13
Test Epoch 34/50
    Test Loss: 1.184112519874066, Accuracy(multiclass): 0.8368121442125237
==> Start Epoch 35/50
Batch 10	 Loss 0.00043102444033138454 (0.01394993748399429)
Batch 20	 Loss 0.00032930358429439366 (0.009680392321024555)
Batch 30	 Loss 0.0003904809709638357 (0.008047347516791585)
Batch 40	 Loss 0.0076780361123383045 (0.006733005835849326)
Batch 50	 Loss 0.018822023645043373 (0.006339831326040439)
Batch 60	 Loss 0.00019555161998141557 (0.005477598959987518)
Batch 70	 Loss 0.00017987971659749746 (0.0049129719053910646)
Batch 80	 Loss 0.009343086741864681 (0.004875687370440573)
Finished. Total elapsed time (h:m:s): 0:37:16
Test Epoch 35/50
    Test Loss: 1.331379649535076, Accuracy(multiclass): 0.8311195445920304
==> Start Epoch 36/50
Batch 10	 Loss 0.007646193727850914 (0.0015099119846126996)
Batch 20	 Loss 9.750924073159695e-05 (0.0014849811312160454)
Batch 30	 Loss 0.010732409544289112 (0.0020575698249255463)
Batch 40	 Loss 9.438618872081861e-05 (0.0016715992587705841)
Batch 50	 Loss 0.00011747785174520686 (0.0016360431410430464)
Batch 60	 Loss 0.00011064168938901275 (0.0025532179153136287)
Batch 70	 Loss 0.007367829792201519 (0.0025794958587669367)
Batch 80	 Loss 0.007774718571454287 (0.003000754742151912)
Finished. Total elapsed time (h:m:s): 0:38:20
Test Epoch 36/50
    Test Loss: 1.3380754378534132, Accuracy(multiclass): 0.8349146110056926
==> Start Epoch 37/50
Batch 10	 Loss 0.00028172507882118225 (0.005581074263318442)
Batch 20	 Loss 0.00011208363866899163 (0.0028576212549523915)
Batch 30	 Loss 0.0005139288841746747 (0.0026685917412881586)
Batch 40	 Loss 0.08247236907482147 (0.004266557537448534)
Batch 50	 Loss 0.0002061346749542281 (0.0038812162693648133)
Batch 60	 Loss 0.00017179976566694677 (0.003624349698293372)
Batch 70	 Loss 0.00021321477834135294 (0.0032771652979135977)
Batch 80	 Loss 0.00016206724103540182 (0.003064593843282637)
Finished. Total elapsed time (h:m:s): 0:39:24
Test Epoch 37/50
    Test Loss: 1.3468023425487685, Accuracy(multiclass): 0.8311195445920304
==> Start Epoch 38/50
Batch 10	 Loss 0.0001723943860270083 (0.0006083003980165813)
Batch 20	 Loss 0.0002002617547987029 (0.0014230638145818375)
Batch 30	 Loss 0.004787908401340246 (0.0017740449167225356)
Batch 40	 Loss 8.027384319575503e-05 (0.001780382959259441)
Batch 50	 Loss 8.58585917740129e-05 (0.0014450407010735944)
Batch 60	 Loss 0.006818879395723343 (0.001422022042364309)
Batch 70	 Loss 8.906215225579217e-05 (0.001543223874510399)
Batch 80	 Loss 0.00837240181863308 (0.004511149927111546)
Finished. Total elapsed time (h:m:s): 0:40:28
Test Epoch 38/50
    Test Loss: 1.3057466876574666, Accuracy(multiclass): 0.8444022770398482
==> Start Epoch 39/50
Batch 10	 Loss 0.0001714365353109315 (0.0019176175104803407)
Batch 20	 Loss 0.00022190751042217016 (0.006512508411833551)
Batch 30	 Loss 0.0001644379080971703 (0.005737910374591593)
Batch 40	 Loss 0.00016966067778412253 (0.004760132177398191)
Batch 50	 Loss 0.00017437923816032708 (0.004495615772611927)
Batch 60	 Loss 0.000374640483641997 (0.005422470611908163)
Batch 70	 Loss 0.00022514867305289954 (0.005010234822943208)
Batch 80	 Loss 0.00021754976478405297 (0.004612671619543107)
Finished. Total elapsed time (h:m:s): 0:41:32
Test Epoch 39/50
    Test Loss: 1.2823672409980529, Accuracy(multiclass): 0.8311195445920304
==> Start Epoch 40/50
Batch 10	 Loss 0.00016488229448441416 (0.0017439758594264276)
Batch 20	 Loss 0.005868903826922178 (0.0021989015738654418)
Batch 30	 Loss 0.00024494013632647693 (0.00208161804281796)
Batch 40	 Loss 0.00017618043057154864 (0.003818394815789361)
Batch 50	 Loss 0.009216983802616596 (0.0038193416224385148)
Batch 60	 Loss 0.0002227555523859337 (0.0033126209143423085)
Batch 70	 Loss 0.006989864632487297 (0.0031491636264295918)
Batch 80	 Loss 0.007164687383919954 (0.00300424823863068)
Finished. Total elapsed time (h:m:s): 0:42:36
Test Epoch 40/50
    Test Loss: 1.3483655952638196, Accuracy(multiclass): 0.8311195445920304
==> Start Epoch 41/50
Batch 10	 Loss 0.00012656362378038466 (0.00013642219491885043)
Batch 20	 Loss 0.00014802062651142478 (0.0014643925314885564)
Batch 30	 Loss 0.00010730928624980152 (0.0014670591277536004)
Batch 40	 Loss 0.00011025162530131638 (0.0014793598253163508)
Batch 50	 Loss 0.007740932051092386 (0.0017468023132823874)
Batch 60	 Loss 0.0002561366418376565 (0.0016582232292421395)
Batch 70	 Loss 0.07552789151668549 (0.002964737064758083)
Batch 80	 Loss 0.00013368406507652253 (0.0027925691676500717)
Finished. Total elapsed time (h:m:s): 0:43:40
Test Epoch 41/50
    Test Loss: 1.3620357142453854, Accuracy(multiclass): 0.8330170777988615
==> Start Epoch 42/50
Batch 10	 Loss 0.006406079046428204 (0.0034698874660534784)
Batch 20	 Loss 0.00014732652925886214 (0.005474555036926176)
Batch 30	 Loss 0.0002015782374655828 (0.004158138850228473)
Batch 40	 Loss 0.0001648212200962007 (0.003487465358193731)
Batch 50	 Loss 0.00012746841821353883 (0.002961746334913187)
Batch 60	 Loss 0.02060398831963539 (0.002952164703674498)
Batch 70	 Loss 0.007428267505019903 (0.0037866013146413023)
Batch 80	 Loss 0.00030456631793640554 (0.0036578071179064866)
Finished. Total elapsed time (h:m:s): 0:44:43
Test Epoch 42/50
    Test Loss: 1.3144083398569242, Accuracy(multiclass): 0.8349146110056926
==> Start Epoch 43/50
Batch 10	 Loss 0.00016881198098417372 (0.0010193564943620005)
Batch 20	 Loss 0.00019599086954258382 (0.001302206269610906)
Batch 30	 Loss 0.00010728863708209246 (0.002267456841703582)
Batch 40	 Loss 8.200135926017538e-05 (0.0019144465222780127)
Batch 50	 Loss 9.491870150668547e-05 (0.001836061043140944)
Batch 60	 Loss 7.78020839788951e-05 (0.0016891322570396976)
Batch 70	 Loss 0.00802770908921957 (0.0018385530624073)
Batch 80	 Loss 0.00011596169497352093 (0.0025582319331078907)
Finished. Total elapsed time (h:m:s): 0:45:47
Test Epoch 43/50
    Test Loss: 1.321303762226901, Accuracy(multiclass): 0.8368121442125237
==> Start Epoch 44/50
Batch 10	 Loss 0.0014691890683025122 (0.0003809760935837403)
Batch 20	 Loss 0.0001499694917583838 (0.0005704400296963286)
Batch 30	 Loss 0.00021978815493639559 (0.002199004081436821)
Batch 40	 Loss 9.914737165672705e-05 (0.0023659735754335996)
Batch 50	 Loss 9.765868890099227e-05 (0.002334787731961114)
Batch 60	 Loss 0.027755655348300934 (0.002910752972881407)
Batch 70	 Loss 8.294108556583524e-05 (0.0026940588182956813)
Batch 80	 Loss 7.513316813856363e-05 (0.0036652722980306863)
Finished. Total elapsed time (h:m:s): 0:46:51
Test Epoch 44/50
    Test Loss: 1.3276657827438847, Accuracy(multiclass): 0.8406072106261859
==> Start Epoch 45/50
Batch 10	 Loss 6.000099529046565e-05 (0.0024196178492275067)
Batch 20	 Loss 6.235150794964284e-05 (0.003038919077152968)
Batch 30	 Loss 6.565907824551687e-05 (0.002489116341166664)
Batch 40	 Loss 8.552805229555815e-05 (0.0022249593122978693)
Batch 50	 Loss 6.996018055360764e-05 (0.0018779065190028632)
Batch 60	 Loss 5.454418351291679e-05 (0.001831976679689736)
Batch 70	 Loss 4.4891774450661615e-05 (0.002100915246670151)
Batch 80	 Loss 4.958005229127593e-05 (0.0020908725620301994)
Finished. Total elapsed time (h:m:s): 0:47:54
Test Epoch 45/50
    Test Loss: 1.3696243566172852, Accuracy(multiclass): 0.8406072106261859
==> Start Epoch 46/50
Batch 10	 Loss 0.01280246116220951 (0.005846897492665449)
Batch 20	 Loss 5.077404057374224e-05 (0.003925571116997162)
Batch 30	 Loss 6.939877494005486e-05 (0.0028622813330002827)
Batch 40	 Loss 0.007774614728987217 (0.0024056754175944663)
Batch 50	 Loss 0.0073477900587022305 (0.0022703995156189193)
Batch 60	 Loss 0.006573131307959557 (0.0022045813827692956)
Batch 70	 Loss 0.00017220471636392176 (0.0020044724582216336)
Batch 80	 Loss 4.8261877964250743e-05 (0.0017603932837573666)
Finished. Total elapsed time (h:m:s): 0:48:58
Test Epoch 46/50
    Test Loss: 1.3905698547327088, Accuracy(multiclass): 0.8406072106261859
==> Start Epoch 47/50
Batch 10	 Loss 4.4380467443261296e-05 (0.002597933392462437)
Batch 20	 Loss 0.00722640473395586 (0.002146690601148293)
Batch 30	 Loss 4.534990875981748e-05 (0.0016484746810116727)
Batch 40	 Loss 4.570837700157426e-05 (0.0021687352956178073)
Batch 50	 Loss 4.674511365010403e-05 (0.0018713575113361003)
Batch 60	 Loss 4.8014146159403026e-05 (0.0018183702994671572)
Batch 70	 Loss 4.4278418499743566e-05 (0.0020070626303744835)
Batch 80	 Loss 4.755861664307304e-05 (0.0017618093831970327)
Finished. Total elapsed time (h:m:s): 0:50:02
Test Epoch 47/50
    Test Loss: 1.4126600703433072, Accuracy(multiclass): 0.8406072106261859
==> Start Epoch 48/50
Batch 10	 Loss 4.54093751613982e-05 (0.0019877845548762706)
Batch 20	 Loss 4.673646253650077e-05 (0.0014150746510495082)
Batch 30	 Loss 7.339695730479434e-05 (0.0017446666833469257)
Batch 40	 Loss 3.722177279996686e-05 (0.0019876890391969937)
Batch 50	 Loss 8.495244401274249e-05 (0.0017590944492985726)
Batch 60	 Loss 4.435483060660772e-05 (0.0015896062694082502)
Batch 70	 Loss 0.007984833791851997 (0.0017834722027535983)
Batch 80	 Loss 6.799697439419106e-05 (0.0019364090036560811)
Finished. Total elapsed time (h:m:s): 0:51:05
Test Epoch 48/50
    Test Loss: 1.4261032066942392, Accuracy(multiclass): 0.8406072106261859
==> Start Epoch 49/50
Batch 10	 Loss 0.0062043131329119205 (0.003420361687312834)
Batch 20	 Loss 3.9924034354044124e-05 (0.0024406258202361642)
Batch 30	 Loss 4.065222674398683e-05 (0.0020807903940294635)
Batch 40	 Loss 3.7267032894305885e-05 (0.0017276860565743845)
Batch 50	 Loss 0.00604152912274003 (0.0016974203556674183)
Batch 60	 Loss 4.027099203085527e-05 (0.001876352196480487)
Batch 70	 Loss 3.4078562748618424e-05 (0.0018629175651117943)
Batch 80	 Loss 3.212240699212998e-05 (0.002590129786381112)
Finished. Total elapsed time (h:m:s): 0:52:09
Test Epoch 49/50
    Test Loss: 1.4231699691551687, Accuracy(multiclass): 0.8406072106261859
==> Start Epoch 50/50
Batch 10	 Loss 4.178373274044134e-05 (0.003597903468835284)
Batch 20	 Loss 3.3910353522514924e-05 (0.003470703034872713)
Batch 30	 Loss 3.564724465832114e-05 (0.0023268164854622834)
Batch 40	 Loss 4.2399904486956075e-05 (0.0022310651590487394)
Batch 50	 Loss 0.005965528078377247 (0.0020509063579083886)
Batch 60	 Loss 3.46017986885272e-05 (0.0017490465837909142)
Batch 70	 Loss 4.225315569783561e-05 (0.0018171892341342754)
Batch 80	 Loss 3.3776930649764836e-05 (0.0018374213091647106)
Finished. Total elapsed time (h:m:s): 0:53:13
Test Epoch 50/50
    Test Loss: 1.4212932055091496, Accuracy(multiclass): 0.8406072106261859
