Train Multi-Optimizer
--- START Arg parse ---
path : /media/mint/Barracuda/Datasets/cola_public/raw/
dataset : cola
test_file : /media/mint/Barracuda/Datasets/cifar10/
gpu : 0
seed : 1
seq_max_len : 64
batch_size : 100
lr : 2e-05
momentum : 0.95
adam_w : 0.5
sgd_w : 0.5
max_epoch : 50
--- END Arg parse ---
Currently using GPU: 0
Learning rate optimizer 2e-05  Batch-size 100
  0%|          | 0/8551 [00:00<?, ?it/s]  6%|▌         | 509/8551 [00:00<00:01, 5084.48it/s] 12%|█▏        | 1058/8551 [00:00<00:01, 5198.16it/s] 18%|█▊        | 1546/8551 [00:00<00:01, 5097.96it/s] 24%|██▎       | 2030/8551 [00:00<00:01, 5015.50it/s] 31%|███       | 2613/8551 [00:00<00:01, 5232.01it/s] 38%|███▊      | 3210/8551 [00:00<00:00, 5431.87it/s] 44%|████▍     | 3774/8551 [00:00<00:00, 5490.79it/s] 51%|█████     | 4331/8551 [00:00<00:00, 5512.90it/s] 57%|█████▋    | 4896/8551 [00:00<00:00, 5552.34it/s] 64%|██████▎   | 5434/8551 [00:01<00:00, 5499.16it/s] 70%|██████▉   | 5985/8551 [00:01<00:00, 5501.41it/s] 77%|███████▋  | 6554/8551 [00:01<00:00, 5555.34it/s] 83%|████████▎ | 7104/8551 [00:01<00:00, 5464.37it/s] 89%|████████▉ | 7647/8551 [00:01<00:00, 5064.49it/s] 96%|█████████▋| 8237/8551 [00:01<00:00, 5288.10it/s]100%|██████████| 8551/8551 [00:01<00:00, 5394.43it/s]
  0%|          | 0/527 [00:00<?, ?it/s]100%|██████████| 527/527 [00:00<00:00, 5462.56it/s]
creating model...
Some weights of the model checkpoint at bert-base-uncased were not used when initializing BertForSequenceClassification: ['cls.predictions.bias', 'cls.predictions.transform.dense.weight', 'cls.predictions.transform.dense.bias', 'cls.predictions.decoder.weight', 'cls.seq_relationship.weight', 'cls.seq_relationship.bias', 'cls.predictions.transform.LayerNorm.weight', 'cls.predictions.transform.LayerNorm.bias']
- This IS expected if you are initializing BertForSequenceClassification from the checkpoint of a model trained on another task or with another architecture (e.g. initializing a BertForSequenceClassification model from a BertForPretraining model).
- This IS NOT expected if you are initializing BertForSequenceClassification from the checkpoint of a model that you expect to be exactly identical (initializing a BertForSequenceClassification model from a BertForSequenceClassification model).
Some weights of BertForSequenceClassification were not initialized from the model checkpoint at bert-base-uncased and are newly initialized: ['classifier.weight', 'classifier.bias']
You should probably TRAIN this model on a down-stream task to be able to use it for predictions and inference.
AdamSGDWeighted (
Parameter Group 0
    adam_w: 0.5
    amsgrad: False
    betas: (0.9, 0.999)
    dampening: 0
    eps: 1e-08
    lr: 2e-05
    momentum: 0.95
    nesterov: False
    sgd_w: 0.5
    weight_decay: 0
)
==> Start Epoch 1/50
Batch 10	 Loss 0.6142227053642273 (0.6348361372947693)
Batch 20	 Loss 0.579052746295929 (0.6107703924179078)
Batch 30	 Loss 0.5550452470779419 (0.6017271280288696)
Batch 40	 Loss 0.5452026724815369 (0.5916980817914009)
Batch 50	 Loss 0.5012111067771912 (0.5823381447792053)
Batch 60	 Loss 0.4812745749950409 (0.5687656655907631)
Batch 70	 Loss 0.45694229006767273 (0.5545144647359848)
Batch 80	 Loss 0.438362717628479 (0.5474920745939016)
Finished. Total elapsed time (h:m:s): 0:00:59
Test Epoch 1/50
    Test Loss: 0.5077380682191541, Accuracy(multiclass): 0.7760910815939279
==> Start Epoch 2/50
Batch 10	 Loss 0.39340099692344666 (0.4478359967470169)
Batch 20	 Loss 0.3867919445037842 (0.4423336997628212)
Batch 30	 Loss 0.43386614322662354 (0.4283906211455663)
Batch 40	 Loss 0.33618658781051636 (0.42461610659956933)
Batch 50	 Loss 0.4513086974620819 (0.42455132365226744)
Batch 60	 Loss 0.3377666175365448 (0.4187053342660268)
Batch 70	 Loss 0.42917460203170776 (0.4207663072007043)
Batch 80	 Loss 0.3669419586658478 (0.41374532543122766)
Finished. Total elapsed time (h:m:s): 0:01:58
Test Epoch 2/50
    Test Loss: 0.4529265963827636, Accuracy(multiclass): 0.8083491461100569
==> Start Epoch 3/50
Batch 10	 Loss 0.2920515537261963 (0.3361880034208298)
Batch 20	 Loss 0.37953585386276245 (0.3141772121191025)
Batch 30	 Loss 0.28487297892570496 (0.31262660870949427)
Batch 40	 Loss 0.2565179169178009 (0.3124472264200449)
Batch 50	 Loss 0.23427072167396545 (0.3096305748820305)
Batch 60	 Loss 0.3719031810760498 (0.3179689558843772)
Batch 70	 Loss 0.2663601040840149 (0.3182077407836914)
Batch 80	 Loss 0.35052943229675293 (0.32212887294590475)
Finished. Total elapsed time (h:m:s): 0:02:58
Test Epoch 3/50
    Test Loss: 0.4522184598095277, Accuracy(multiclass): 0.8121442125237192
==> Start Epoch 4/50
Batch 10	 Loss 0.25216829776763916 (0.2519829347729683)
Batch 20	 Loss 0.30136793851852417 (0.2558348514139652)
Batch 30	 Loss 0.3265169560909271 (0.25136162688334784)
Batch 40	 Loss 0.34973692893981934 (0.2552134025841951)
Batch 50	 Loss 0.22599609196186066 (0.25507461339235304)
Batch 60	 Loss 0.253345251083374 (0.25838039045532546)
Batch 70	 Loss 0.31165242195129395 (0.2623229463185583)
Batch 80	 Loss 0.35653746128082275 (0.2642852758988738)
Finished. Total elapsed time (h:m:s): 0:03:57
Test Epoch 4/50
    Test Loss: 0.42044948185643843, Accuracy(multiclass): 0.8387096774193549
==> Start Epoch 5/50
Batch 10	 Loss 0.2865547239780426 (0.21450534760951995)
Batch 20	 Loss 0.14550799131393433 (0.20884766504168512)
Batch 30	 Loss 0.24515444040298462 (0.2107528415819009)
Batch 40	 Loss 0.29032424092292786 (0.2156373795121908)
Batch 50	 Loss 0.18945372104644775 (0.21429668456315995)
Batch 60	 Loss 0.21117712557315826 (0.21735964169104893)
Batch 70	 Loss 0.2715568542480469 (0.21689833977392742)
Batch 80	 Loss 0.2372504621744156 (0.2144766954705119)
Finished. Total elapsed time (h:m:s): 0:04:57
Test Epoch 5/50
    Test Loss: 0.45100865768979126, Accuracy(multiclass): 0.8387096774193549
==> Start Epoch 6/50
Batch 10	 Loss 0.1984090805053711 (0.16426564306020736)
Batch 20	 Loss 0.2928091287612915 (0.18705712631344795)
Batch 30	 Loss 0.1229252815246582 (0.1775014042854309)
Batch 40	 Loss 0.14464978873729706 (0.175670818798244)
Batch 50	 Loss 0.15176114439964294 (0.17229022413492204)
Batch 60	 Loss 0.1984660029411316 (0.1703309261550506)
Batch 70	 Loss 0.26657548546791077 (0.16782699897885323)
Batch 80	 Loss 0.15656208992004395 (0.1669086049310863)
Finished. Total elapsed time (h:m:s): 0:05:56
Test Epoch 6/50
    Test Loss: 0.4692030099469751, Accuracy(multiclass): 0.8444022770398482
==> Start Epoch 7/50
Batch 10	 Loss 0.13731977343559265 (0.1411039263010025)
Batch 20	 Loss 0.25383681058883667 (0.15528436191380024)
Batch 30	 Loss 0.1558336764574051 (0.15518672565619152)
Batch 40	 Loss 0.205060675740242 (0.1558941438794136)
Batch 50	 Loss 0.06561319530010223 (0.1537843483686447)
Batch 60	 Loss 0.1515943855047226 (0.1517950899899006)
Batch 70	 Loss 0.1995139867067337 (0.14918060616723128)
Batch 80	 Loss 0.08425839245319366 (0.1477949287276715)
Finished. Total elapsed time (h:m:s): 0:06:56
Test Epoch 7/50
    Test Loss: 0.4458567361564745, Accuracy(multiclass): 0.8538899430740038
==> Start Epoch 8/50
Batch 10	 Loss 0.13151520490646362 (0.12468234710395336)
Batch 20	 Loss 0.07364939898252487 (0.12388736177235841)
Batch 30	 Loss 0.13490352034568787 (0.12009230641027292)
Batch 40	 Loss 0.13052038848400116 (0.11693095467053354)
Batch 50	 Loss 0.13456550240516663 (0.11939679365605116)
Batch 60	 Loss 0.145350381731987 (0.12024739182864626)
Batch 70	 Loss 0.07312652468681335 (0.12199446503072978)
Batch 80	 Loss 0.20912767946720123 (0.12379526842851192)
Finished. Total elapsed time (h:m:s): 0:07:56
Test Epoch 8/50
    Test Loss: 0.477957026668925, Accuracy(multiclass): 0.855787476280835
==> Start Epoch 9/50
Batch 10	 Loss 0.1046934425830841 (0.11056397594511509)
Batch 20	 Loss 0.11659165471792221 (0.10620142221450805)
Batch 30	 Loss 0.10973849147558212 (0.10383267054955164)
Batch 40	 Loss 0.16142410039901733 (0.10734938764944672)
Batch 50	 Loss 0.09457915276288986 (0.10384348772466183)
Batch 60	 Loss 0.21480333805084229 (0.10665959299852451)
Batch 70	 Loss 0.10335288941860199 (0.10813218530799662)
Batch 80	 Loss 0.06476428359746933 (0.10973293813876808)
Finished. Total elapsed time (h:m:s): 0:08:55
Test Epoch 9/50
    Test Loss: 0.5413645148503486, Accuracy(multiclass): 0.8349146110056926
==> Start Epoch 10/50
Batch 10	 Loss 0.0889296755194664 (0.09514044653624296)
Batch 20	 Loss 0.1491718292236328 (0.09801737433299422)
Batch 30	 Loss 0.12043309211730957 (0.09759797006845475)
Batch 40	 Loss 0.1172017827630043 (0.09748263182118536)
Batch 50	 Loss 0.06336279958486557 (0.09687261216342449)
Batch 60	 Loss 0.032008036971092224 (0.09565669304380814)
Batch 70	 Loss 0.044025782495737076 (0.0962733408170087)
Batch 80	 Loss 0.05079817771911621 (0.09809604119509459)
Finished. Total elapsed time (h:m:s): 0:09:55
Test Epoch 10/50
    Test Loss: 0.5680442168545226, Accuracy(multiclass): 0.8481973434535104
==> Start Epoch 11/50
Batch 10	 Loss 0.06118018552660942 (0.08999732807278633)
Batch 20	 Loss 0.10098248720169067 (0.08192592216655611)
Batch 30	 Loss 0.06091252714395523 (0.0767621809616685)
Batch 40	 Loss 0.14236904680728912 (0.07978910715319217)
Batch 50	 Loss 0.09392236918210983 (0.07954676602035761)
Batch 60	 Loss 0.14670203626155853 (0.08261047443374991)
Batch 70	 Loss 0.13572441041469574 (0.08368321787565947)
Batch 80	 Loss 0.10153575986623764 (0.08078160334844142)
Finished. Total elapsed time (h:m:s): 0:10:54
Test Epoch 11/50
    Test Loss: 0.5597052157377609, Accuracy(multiclass): 0.8500948766603416
==> Start Epoch 12/50
Batch 10	 Loss 0.07062938064336777 (0.07397437486797571)
Batch 20	 Loss 0.01752481982111931 (0.07710634665563702)
Batch 30	 Loss 0.04514297470450401 (0.0770385190534095)
Batch 40	 Loss 0.158620223402977 (0.0731555555248633)
Batch 50	 Loss 0.07455334067344666 (0.07401029286906123)
Batch 60	 Loss 0.020504353567957878 (0.07310245426682134)
Batch 70	 Loss 0.0641985684633255 (0.0715162425035877)
Batch 80	 Loss 0.187321275472641 (0.07424672305351124)
Finished. Total elapsed time (h:m:s): 0:11:54
Test Epoch 12/50
    Test Loss: 0.5713078619406843, Accuracy(multiclass): 0.8462998102466793
==> Start Epoch 13/50
Batch 10	 Loss 0.017881901934742928 (0.03956637177616358)
Batch 20	 Loss 0.08468494564294815 (0.054033887665718795)
Batch 30	 Loss 0.06501699239015579 (0.053037624713033436)
Batch 40	 Loss 0.07062024623155594 (0.05266172306146473)
Batch 50	 Loss 0.10656028985977173 (0.05825187129899859)
Batch 60	 Loss 0.10949567705392838 (0.06036384312125544)
Batch 70	 Loss 0.05391582101583481 (0.05881233680993318)
Batch 80	 Loss 0.03978961333632469 (0.057146262074820695)
Finished. Total elapsed time (h:m:s): 0:12:54
Test Epoch 13/50
    Test Loss: 0.6163968434822401, Accuracy(multiclass): 0.8481973434535104
==> Start Epoch 14/50
Batch 10	 Loss 0.057678788900375366 (0.05473423786461353)
Batch 20	 Loss 0.0074867368675768375 (0.045126187684945765)
Batch 30	 Loss 0.09597503393888474 (0.047792349367712934)
Batch 40	 Loss 0.037155069410800934 (0.04880501421866938)
Batch 50	 Loss 0.018360894173383713 (0.05519600209780037)
Batch 60	 Loss 0.06866814941167831 (0.05747174220935752)
Batch 70	 Loss 0.03397442772984505 (0.05707809848577849)
Batch 80	 Loss 0.06336146593093872 (0.05774385186959989)
Finished. Total elapsed time (h:m:s): 0:13:53
Test Epoch 14/50
    Test Loss: 0.6812908053398132, Accuracy(multiclass): 0.8444022770398482
==> Start Epoch 15/50
Batch 10	 Loss 0.027357526123523712 (0.05499479807913303)
Batch 20	 Loss 0.03111143410205841 (0.045545636070892216)
Batch 30	 Loss 0.04117153584957123 (0.04696709429845214)
Batch 40	 Loss 0.13100671768188477 (0.04655945469858125)
Batch 50	 Loss 0.015150154940783978 (0.045098008355125785)
Batch 60	 Loss 0.03395216166973114 (0.04334301016448686)
Batch 70	 Loss 0.04488399624824524 (0.04317004813014397)
Batch 80	 Loss 0.10282628983259201 (0.04461962254135869)
Finished. Total elapsed time (h:m:s): 0:14:53
Test Epoch 15/50
    Test Loss: 0.702389286410424, Accuracy(multiclass): 0.8500948766603416
==> Start Epoch 16/50
Batch 10	 Loss 0.08919796347618103 (0.04330751458182931)
Batch 20	 Loss 0.03342626616358757 (0.039897408639080825)
Batch 30	 Loss 0.004665462765842676 (0.04132567308843136)
Batch 40	 Loss 0.003769039176404476 (0.0421636110288091)
Batch 50	 Loss 0.048742517828941345 (0.0405671760533005)
Batch 60	 Loss 0.021342573687434196 (0.03857069924318542)
Batch 70	 Loss 0.05311538651585579 (0.04146593379056347)
Batch 80	 Loss 0.1369141936302185 (0.04573635318083689)
Finished. Total elapsed time (h:m:s): 0:15:53
Test Epoch 16/50
    Test Loss: 0.7165775822733566, Accuracy(multiclass): 0.8481973434535104
==> Start Epoch 17/50
Batch 10	 Loss 0.0284513421356678 (0.03887368617579341)
Batch 20	 Loss 0.06547905504703522 (0.03669753004796803)
Batch 30	 Loss 0.05688155069947243 (0.03959834361448884)
Batch 40	 Loss 0.008381429128348827 (0.03810950067127124)
Batch 50	 Loss 0.008034390397369862 (0.03757591656409204)
Batch 60	 Loss 0.11055460572242737 (0.040029403481942914)
Batch 70	 Loss 0.03569897636771202 (0.03857962260288852)
Batch 80	 Loss 0.06509771198034286 (0.04009288582019508)
Finished. Total elapsed time (h:m:s): 0:16:52
Test Epoch 17/50
    Test Loss: 0.7841993813496613, Accuracy(multiclass): 0.8462998102466793
==> Start Epoch 18/50
Batch 10	 Loss 0.022421514615416527 (0.026390817994251848)
Batch 20	 Loss 0.05262308940291405 (0.03366661092732102)
Batch 30	 Loss 0.06041279435157776 (0.03294878470090528)
Batch 40	 Loss 0.07254330813884735 (0.03755516129313037)
Batch 50	 Loss 0.06571516394615173 (0.04061103357933462)
Batch 60	 Loss 0.016630038619041443 (0.036911211411158246)
Batch 70	 Loss 0.012264273129403591 (0.03810868626460433)
Batch 80	 Loss 0.0062287338078022 (0.03879405253683217)
Finished. Total elapsed time (h:m:s): 0:17:52
Test Epoch 18/50
    Test Loss: 0.7299851906367452, Accuracy(multiclass): 0.8406072106261859
==> Start Epoch 19/50
Batch 10	 Loss 0.028020907193422318 (0.03680354887619615)
Batch 20	 Loss 0.0612783208489418 (0.030380026344209908)
Batch 30	 Loss 0.08976545929908752 (0.02827888554893434)
Batch 40	 Loss 0.0027978229336440563 (0.02604001960135065)
Batch 50	 Loss 0.014934472739696503 (0.027810699325054884)
Batch 60	 Loss 0.046573881059885025 (0.029887186471993725)
Batch 70	 Loss 0.008446970954537392 (0.028602338302880524)
Batch 80	 Loss 0.10098933428525925 (0.02814547480084002)
Finished. Total elapsed time (h:m:s): 0:18:52
Test Epoch 19/50
    Test Loss: 0.7843661611401379, Accuracy(multiclass): 0.8500948766603416
==> Start Epoch 20/50
Batch 10	 Loss 0.03680991008877754 (0.03175885905511677)
Batch 20	 Loss 0.05387837067246437 (0.035247064637951554)
Batch 30	 Loss 0.061739496886730194 (0.03428662805818021)
Batch 40	 Loss 0.008879111148416996 (0.031991881545400246)
Batch 50	 Loss 0.0436398983001709 (0.03468414428178221)
Batch 60	 Loss 0.0795854851603508 (0.03291152541060001)
Batch 70	 Loss 0.05315404012799263 (0.03488418416984911)
Batch 80	 Loss 0.08513272553682327 (0.03878552658425179)
Finished. Total elapsed time (h:m:s): 0:19:52
Test Epoch 20/50
    Test Loss: 0.7979465746789096, Accuracy(multiclass): 0.8481973434535104
==> Start Epoch 21/50
Batch 10	 Loss 0.01019490510225296 (0.016587204462848604)
Batch 20	 Loss 0.00779947591945529 (0.02288827267475426)
Batch 30	 Loss 0.037454456090927124 (0.023296181089244784)
Batch 40	 Loss 0.04001489654183388 (0.02422842787927948)
Batch 50	 Loss 0.006430040579289198 (0.0279750090604648)
Batch 60	 Loss 0.005327269434928894 (0.026826894411351533)
Batch 70	 Loss 0.002695496892556548 (0.027042476743060564)
Batch 80	 Loss 0.0021021103020757437 (0.029080434888601302)
Finished. Total elapsed time (h:m:s): 0:20:51
Test Epoch 21/50
    Test Loss: 0.8047410143394398, Accuracy(multiclass): 0.8500948766603416
==> Start Epoch 22/50
Batch 10	 Loss 0.0035032788291573524 (0.016717753233388068)
Batch 20	 Loss 0.04140773415565491 (0.02786667231703177)
Batch 30	 Loss 0.012949088588356972 (0.0265579313156195)
Batch 40	 Loss 0.018771495670080185 (0.026585098993382416)
Batch 50	 Loss 0.03267413005232811 (0.026803576031234115)
Batch 60	 Loss 0.014266754500567913 (0.02976687377667986)
Batch 70	 Loss 0.012671852484345436 (0.03003794509817713)
Batch 80	 Loss 0.002375426236540079 (0.02857402017543791)
Finished. Total elapsed time (h:m:s): 0:21:51
Test Epoch 22/50
    Test Loss: 0.7940104308571716, Accuracy(multiclass): 0.8462998102466793
==> Start Epoch 23/50
Batch 10	 Loss 0.001961910631507635 (0.024295187648385765)
Batch 20	 Loss 0.003340690163895488 (0.023304887337144465)
Batch 30	 Loss 0.009456319734454155 (0.026343735485958555)
Batch 40	 Loss 0.02837478369474411 (0.025463981734355913)
Batch 50	 Loss 0.03825880587100983 (0.02896509415935725)
Batch 60	 Loss 0.002189609920606017 (0.02768267875071615)
Batch 70	 Loss 0.013317047618329525 (0.027599292996871683)
Batch 80	 Loss 0.02343977987766266 (0.027174679914605804)
Finished. Total elapsed time (h:m:s): 0:22:51
Test Epoch 23/50
    Test Loss: 0.8463547143809483, Accuracy(multiclass): 0.8387096774193549
==> Start Epoch 24/50
Batch 10	 Loss 0.060517702251672745 (0.02210909966379404)
Batch 20	 Loss 0.027148695662617683 (0.019513390981592237)
Batch 30	 Loss 0.00147474673576653 (0.0167659082217142)
Batch 40	 Loss 0.05244609713554382 (0.01980784556362778)
Batch 50	 Loss 0.0034367633052170277 (0.01927747545996681)
Batch 60	 Loss 0.15432696044445038 (0.021972180802064638)
Batch 70	 Loss 0.0025226471479982138 (0.02338782083076824)
Batch 80	 Loss 0.008189772255718708 (0.024689447619311976)
Finished. Total elapsed time (h:m:s): 0:23:50
Test Epoch 24/50
    Test Loss: 0.793191068312701, Accuracy(multiclass): 0.855787476280835
==> Start Epoch 25/50
Batch 10	 Loss 0.002265205839648843 (0.020706733234692364)
Batch 20	 Loss 0.0065671722404658794 (0.021264402999076993)
Batch 30	 Loss 0.019020026549696922 (0.021044700829467425)
Batch 40	 Loss 0.054179783910512924 (0.023906988991075195)
Batch 50	 Loss 0.01546197384595871 (0.02170877830358222)
Batch 60	 Loss 0.028663670644164085 (0.02151618045172654)
Batch 70	 Loss 0.050044286996126175 (0.02241015818768314)
Batch 80	 Loss 0.009343951009213924 (0.023503407763200812)
Finished. Total elapsed time (h:m:s): 0:24:50
Test Epoch 25/50
    Test Loss: 0.7885276875414478, Accuracy(multiclass): 0.8614800759013282
==> Start Epoch 26/50
Batch 10	 Loss 0.04300719127058983 (0.020419503387529403)
Batch 20	 Loss 0.0031805371399968863 (0.0189199986809399)
Batch 30	 Loss 0.006761637981981039 (0.01745661024469882)
Batch 40	 Loss 0.021435407921671867 (0.0184716447169194)
Batch 50	 Loss 0.010281838476657867 (0.01798581498442218)
Batch 60	 Loss 0.010431948117911816 (0.017543757813594615)
Batch 70	 Loss 0.002596141304820776 (0.0202706644677424)
Batch 80	 Loss 0.007947252131998539 (0.021194323110103143)
Finished. Total elapsed time (h:m:s): 0:25:50
Test Epoch 26/50
    Test Loss: 0.8527925457854877, Accuracy(multiclass): 0.8425047438330171
==> Start Epoch 27/50
Batch 10	 Loss 0.0032509732991456985 (0.01107184630818665)
Batch 20	 Loss 0.005354974418878555 (0.01085434852866456)
Batch 30	 Loss 0.01375321764498949 (0.010351407496879498)
Batch 40	 Loss 0.01042826846241951 (0.009398641239386052)
Batch 50	 Loss 0.009799239225685596 (0.013316830962430685)
Batch 60	 Loss 0.01608370989561081 (0.015372591011691838)
Batch 70	 Loss 0.003451463533565402 (0.015297391989068793)
Batch 80	 Loss 0.0646795928478241 (0.016290451980603395)
Finished. Total elapsed time (h:m:s): 0:26:49
Test Epoch 27/50
    Test Loss: 0.9518602575251455, Accuracy(multiclass): 0.8462998102466793
==> Start Epoch 28/50
Batch 10	 Loss 0.009560828097164631 (0.007628842431586236)
Batch 20	 Loss 0.0315980464220047 (0.012318399437936023)
Batch 30	 Loss 0.0020773145370185375 (0.018003504269290715)
Batch 40	 Loss 0.0009640138014219701 (0.01698921956558479)
Batch 50	 Loss 0.002633023075759411 (0.017411943877814338)
Batch 60	 Loss 0.007229387294501066 (0.016233317991524623)
Batch 70	 Loss 0.0051446352154016495 (0.01661456993731138)
Batch 80	 Loss 0.00783010758459568 (0.016381292825826677)
Finished. Total elapsed time (h:m:s): 0:27:50
Test Epoch 28/50
    Test Loss: 0.9310926551271435, Accuracy(multiclass): 0.8481973434535104
==> Start Epoch 29/50
Batch 10	 Loss 0.021992769092321396 (0.015635966754052787)
Batch 20	 Loss 0.0011466344585642219 (0.010372743621701375)
Batch 30	 Loss 0.001151678035967052 (0.014066476825003822)
Batch 40	 Loss 0.0017447816208004951 (0.01765899566526059)
Batch 50	 Loss 0.04865506291389465 (0.018715402717934922)
Batch 60	 Loss 0.0015251300064846873 (0.019426674849819393)
Batch 70	 Loss 0.0072544412687420845 (0.019959323043336294)
Batch 80	 Loss 0.016100894659757614 (0.018450637288333384)
Finished. Total elapsed time (h:m:s): 0:28:49
Test Epoch 29/50
    Test Loss: 0.8667978619488639, Accuracy(multiclass): 0.8538899430740038
==> Start Epoch 30/50
Batch 10	 Loss 0.0009792695054784417 (0.014503897912800313)
Batch 20	 Loss 0.0011199773289263248 (0.017593000555643813)
Batch 30	 Loss 0.03055472858250141 (0.017150762432720512)
Batch 40	 Loss 0.03749213367700577 (0.018114976612559987)
Batch 50	 Loss 0.001333052758127451 (0.017415187201695517)
Batch 60	 Loss 0.0010207154555246234 (0.016829596587922425)
Batch 70	 Loss 0.0301223024725914 (0.01641475408437795)
Batch 80	 Loss 0.016474198549985886 (0.01604536496815854)
Finished. Total elapsed time (h:m:s): 0:29:49
Test Epoch 30/50
    Test Loss: 0.915300031088335, Accuracy(multiclass): 0.8538899430740038
==> Start Epoch 31/50
Batch 10	 Loss 0.0016524707898497581 (0.017896375397685915)
Batch 20	 Loss 0.000735652691219002 (0.01599873217055574)
Batch 30	 Loss 0.04227185249328613 (0.014363133845229943)
Batch 40	 Loss 0.07667464017868042 (0.013877495686756447)
Batch 50	 Loss 0.0013692574575543404 (0.012584901658119634)
Batch 60	 Loss 0.051543593406677246 (0.014113401775830425)
Batch 70	 Loss 0.004118321463465691 (0.015740548399376816)
Batch 80	 Loss 0.0008203794714063406 (0.01534354846298811)
Finished. Total elapsed time (h:m:s): 0:30:49
Test Epoch 31/50
    Test Loss: 0.9747142632274519, Accuracy(multiclass): 0.8425047438330171
==> Start Epoch 32/50
Batch 10	 Loss 0.01189526915550232 (0.008037668792530895)
Batch 20	 Loss 0.01554300170391798 (0.006943874902208336)
Batch 30	 Loss 0.019251758232712746 (0.01007785545856071)
Batch 40	 Loss 0.043568205088377 (0.011006493779132143)
Batch 50	 Loss 0.0006014952668920159 (0.00969312577159144)
Batch 60	 Loss 0.0008617429994046688 (0.010195134716923349)
Batch 70	 Loss 0.0006355263176374137 (0.01112571532804785)
Batch 80	 Loss 0.0006680639926344156 (0.010282003660540795)
Finished. Total elapsed time (h:m:s): 0:31:48
Test Epoch 32/50
    Test Loss: 0.9236603527412921, Accuracy(multiclass): 0.8519924098671727
==> Start Epoch 33/50
Batch 10	 Loss 0.00825378205627203 (0.00592262769350782)
Batch 20	 Loss 0.0037822502199560404 (0.010228448038105853)
Batch 30	 Loss 0.0022892833221703768 (0.01047636943209606)
Batch 40	 Loss 0.040560394525527954 (0.011772536355420016)
Batch 50	 Loss 0.0010111433221027255 (0.012376097496598959)
Batch 60	 Loss 0.0032315233256667852 (0.011341510316318212)
Batch 70	 Loss 0.0005547147011384368 (0.010959406873943018)
Batch 80	 Loss 0.000822461792267859 (0.009959624233306385)
Finished. Total elapsed time (h:m:s): 0:32:48
Test Epoch 33/50
    Test Loss: 1.0057524111849985, Accuracy(multiclass): 0.8444022770398482
==> Start Epoch 34/50
Batch 10	 Loss 0.00044937312486581504 (0.005899683776078746)
Batch 20	 Loss 0.010299358516931534 (0.008223816793179139)
Batch 30	 Loss 0.0004935974138788879 (0.0110702273096346)
Batch 40	 Loss 0.0020282382611185312 (0.011937781122833257)
Batch 50	 Loss 0.0006591480923816562 (0.010424947970896027)
Batch 60	 Loss 0.0005980167770758271 (0.009329316557947701)
Batch 70	 Loss 0.0009508345392532647 (0.009138014033253837)
Batch 80	 Loss 0.022840337827801704 (0.009575496210891288)
Finished. Total elapsed time (h:m:s): 0:33:48
Test Epoch 34/50
    Test Loss: 1.0180956778987762, Accuracy(multiclass): 0.8406072106261859
==> Start Epoch 35/50
Batch 10	 Loss 0.011465546675026417 (0.014122781154583208)
Batch 20	 Loss 0.0008698481251485646 (0.008606043440522626)
Batch 30	 Loss 0.001706286915577948 (0.009213323014167447)
Batch 40	 Loss 0.07500805705785751 (0.011252497431996744)
Batch 50	 Loss 0.000830627977848053 (0.01126081850787159)
Batch 60	 Loss 0.011082329787313938 (0.010436286036565434)
Batch 70	 Loss 0.005573482718318701 (0.009382614714143398)
Batch 80	 Loss 0.05513281747698784 (0.00976890991696564)
Finished. Total elapsed time (h:m:s): 0:34:47
Test Epoch 35/50
    Test Loss: 1.019248580909997, Accuracy(multiclass): 0.8425047438330171
==> Start Epoch 36/50
Batch 10	 Loss 0.015567950904369354 (0.012825742521090432)
Batch 20	 Loss 0.004379644524306059 (0.013472960141371004)
Batch 30	 Loss 0.01685389317572117 (0.011445102627233913)
Batch 40	 Loss 0.0005412832251749933 (0.010167058724618983)
Batch 50	 Loss 0.004787471145391464 (0.012171548935584723)
Batch 60	 Loss 0.003002055222168565 (0.010607873886086357)
Batch 70	 Loss 0.00048720318591222167 (0.010924786032410339)
Batch 80	 Loss 0.00046146672684699297 (0.01000012740623788)
Finished. Total elapsed time (h:m:s): 0:35:47
Test Epoch 36/50
    Test Loss: 1.0138683184500663, Accuracy(multiclass): 0.8349146110056926
==> Start Epoch 37/50
Batch 10	 Loss 0.021607009693980217 (0.014833932579495012)
Batch 20	 Loss 0.0034567054826766253 (0.014178423953126185)
Batch 30	 Loss 0.0006905272020958364 (0.013765395125180173)
Batch 40	 Loss 0.004218170419335365 (0.013113798572885572)
Batch 50	 Loss 0.012723595835268497 (0.01088556214584969)
Batch 60	 Loss 0.0003717436920851469 (0.010033995273018567)
Batch 70	 Loss 0.013354412280023098 (0.011756009562772566)
Batch 80	 Loss 0.0006878632120788097 (0.010879667743574828)
Finished. Total elapsed time (h:m:s): 0:36:47
Test Epoch 37/50
    Test Loss: 1.052300673734531, Accuracy(multiclass): 0.8406072106261859
==> Start Epoch 38/50
Batch 10	 Loss 0.002335981233045459 (0.014606171619379892)
Batch 20	 Loss 0.009529538452625275 (0.008981333058909514)
Batch 30	 Loss 0.001100135617889464 (0.008257364732950615)
Batch 40	 Loss 0.01133063156157732 (0.010578337893093703)
Batch 50	 Loss 0.0003532650589477271 (0.010523558955756017)
Batch 60	 Loss 0.041806623339653015 (0.010318306127737742)
Batch 70	 Loss 0.00030173841514624655 (0.011656799476726779)
Batch 80	 Loss 0.00034108624095097184 (0.01158621064350882)
Finished. Total elapsed time (h:m:s): 0:37:46
Test Epoch 38/50
    Test Loss: 1.0647009407546535, Accuracy(multiclass): 0.8406072106261859
==> Start Epoch 39/50
Batch 10	 Loss 0.013477268628776073 (0.011626777579658664)
Batch 20	 Loss 0.00026499040541239083 (0.007091476177447475)
Batch 30	 Loss 0.0009910896187648177 (0.007263035852035197)
Batch 40	 Loss 0.00039936468238011 (0.007933288249478209)
Batch 50	 Loss 0.05624248832464218 (0.00826467817008961)
Batch 60	 Loss 0.0010347969364374876 (0.007231443844890843)
Batch 70	 Loss 0.014654314145445824 (0.008362429588617357)
Batch 80	 Loss 0.06560134887695312 (0.010098147575990878)
Finished. Total elapsed time (h:m:s): 0:38:46
Test Epoch 39/50
    Test Loss: 1.0102116971133557, Accuracy(multiclass): 0.8406072106261859
==> Start Epoch 40/50
Batch 10	 Loss 0.0012621883070096374 (0.007521566291688942)
Batch 20	 Loss 0.0014952401397749782 (0.007124386233044788)
Batch 30	 Loss 0.010718968696892262 (0.0065756337135098875)
Batch 40	 Loss 0.062276821583509445 (0.008962647990847472)
Batch 50	 Loss 0.01788000389933586 (0.008341623560991138)
Batch 60	 Loss 0.009837803430855274 (0.008261781672384434)
Batch 70	 Loss 0.0005375330219976604 (0.009490989329892077)
Batch 80	 Loss 0.03232671320438385 (0.010014890343518346)
Finished. Total elapsed time (h:m:s): 0:39:45
Test Epoch 40/50
    Test Loss: 1.0420657887178308, Accuracy(multiclass): 0.8368121442125237
==> Start Epoch 41/50
Batch 10	 Loss 0.0004894852754659951 (0.015836306432902347)
Batch 20	 Loss 0.0885530561208725 (0.01501019757197355)
Batch 30	 Loss 0.005696379113942385 (0.015003765217746453)
Batch 40	 Loss 0.05714140459895134 (0.01426044139188889)
Batch 50	 Loss 0.00038736063288524747 (0.01394177630165359)
Batch 60	 Loss 0.002683499362319708 (0.012164575786785765)
Batch 70	 Loss 0.005282817408442497 (0.01077687366279341)
Batch 80	 Loss 0.002337120706215501 (0.010913858685125889)
Finished. Total elapsed time (h:m:s): 0:40:45
Test Epoch 41/50
    Test Loss: 1.048687775628164, Accuracy(multiclass): 0.8425047438330171
==> Start Epoch 42/50
Batch 10	 Loss 0.00026346652884967625 (0.0065400774561567235)
Batch 20	 Loss 0.02612614631652832 (0.008292058321239892)
Batch 30	 Loss 0.0003829461056739092 (0.007287002488737926)
Batch 40	 Loss 0.0008145270403474569 (0.006843908850714797)
Batch 50	 Loss 0.02581556886434555 (0.006301216963329352)
Batch 60	 Loss 0.0011158956913277507 (0.006843820222032567)
Batch 70	 Loss 0.0029551489278674126 (0.006922529391262547)
Batch 80	 Loss 0.008187063038349152 (0.007038224467032705)
Finished. Total elapsed time (h:m:s): 0:41:44
Test Epoch 42/50
    Test Loss: 1.0629153396418245, Accuracy(multiclass): 0.8462998102466793
==> Start Epoch 43/50
Batch 10	 Loss 0.0011452685575932264 (0.006327741662971675)
Batch 20	 Loss 0.000577759463340044 (0.005641194318013731)
Batch 30	 Loss 0.004123272839933634 (0.005746985296718776)
Batch 40	 Loss 0.0003227029228582978 (0.005211342433176469)
Batch 50	 Loss 0.002494292799383402 (0.0051284371735528115)
Batch 60	 Loss 0.027690313756465912 (0.006390956012182869)
Batch 70	 Loss 0.00038935558404773474 (0.0059645204135449605)
Batch 80	 Loss 0.0007544105756096542 (0.005802163366752211)
Finished. Total elapsed time (h:m:s): 0:42:46
Test Epoch 43/50
    Test Loss: 1.1012874104266375, Accuracy(multiclass): 0.8425047438330171
==> Start Epoch 44/50
Batch 10	 Loss 0.03709745779633522 (0.0055962647718843074)
Batch 20	 Loss 0.06422019749879837 (0.011565323232935043)
Batch 30	 Loss 0.0002447284641675651 (0.009049774691326699)
Batch 40	 Loss 0.0003247383574489504 (0.008743663289351389)
Batch 50	 Loss 0.00047297979472205043 (0.01032448923389893)
Batch 60	 Loss 0.01933143101632595 (0.010279256021021865)
Batch 70	 Loss 0.000786809716373682 (0.009023461229558702)
Batch 80	 Loss 0.000234402425121516 (0.008733157451024454)
Finished. Total elapsed time (h:m:s): 0:43:47
Test Epoch 44/50
    Test Loss: 1.0833873793454505, Accuracy(multiclass): 0.8425047438330171
==> Start Epoch 45/50
Batch 10	 Loss 0.0056027756072580814 (0.0029463285536621697)
Batch 20	 Loss 0.0002849807497113943 (0.003820477762201335)
Batch 30	 Loss 0.000514173589181155 (0.005097702385198014)
Batch 40	 Loss 0.0006572980200871825 (0.004218383324769093)
Batch 50	 Loss 0.010253092274069786 (0.004664197767269797)
Batch 60	 Loss 0.010055526159703732 (0.005177186354073152)
Batch 70	 Loss 0.004381803795695305 (0.005219529956853616)
Batch 80	 Loss 0.015490991063416004 (0.005815638449166727)
Finished. Total elapsed time (h:m:s): 0:44:49
Test Epoch 45/50
    Test Loss: 1.0808392007617842, Accuracy(multiclass): 0.8425047438330171
==> Start Epoch 46/50
Batch 10	 Loss 0.00023435516050085425 (0.0073542801299481654)
Batch 20	 Loss 0.010944697074592113 (0.00925971378965187)
Batch 30	 Loss 0.012578291818499565 (0.007282438494439702)
Batch 40	 Loss 0.00020287100051064044 (0.006433919500705087)
Batch 50	 Loss 0.008957868441939354 (0.007395317186892498)
Batch 60	 Loss 0.0002467843587510288 (0.0074733625231601765)
Batch 70	 Loss 0.0005034126807004213 (0.006745750221723158)
Batch 80	 Loss 0.0008400590158998966 (0.006148879262400442)
Finished. Total elapsed time (h:m:s): 0:45:53
Test Epoch 46/50
    Test Loss: 1.0854790531932967, Accuracy(multiclass): 0.8444022770398482
==> Start Epoch 47/50
Batch 10	 Loss 0.01017615757882595 (0.0035105368500808255)
Batch 20	 Loss 0.0003029664803761989 (0.005199670253932709)
Batch 30	 Loss 0.015311609953641891 (0.006002738243842032)
Batch 40	 Loss 0.0009318710071966052 (0.00566831770229328)
Batch 50	 Loss 0.0002701013581827283 (0.005615534109820146)
Batch 60	 Loss 0.0007472402066923678 (0.005430692302616081)
Batch 70	 Loss 0.0005655759596265852 (0.005890639136071384)
Batch 80	 Loss 0.00017077424854505807 (0.005808659073227318)
Finished. Total elapsed time (h:m:s): 0:46:53
Test Epoch 47/50
    Test Loss: 1.0970750040528443, Accuracy(multiclass): 0.8406072106261859
==> Start Epoch 48/50
Batch 10	 Loss 0.0066021643579006195 (0.004158025764627382)
Batch 20	 Loss 0.0014273673295974731 (0.00482008050676086)
Batch 30	 Loss 0.017478493973612785 (0.008019288892683107)
Batch 40	 Loss 0.0007055606110952795 (0.006392139754825621)
Batch 50	 Loss 0.00022658432135358453 (0.006063463235914241)
Batch 60	 Loss 0.0006257768836803734 (0.0058294568264197245)
Batch 70	 Loss 0.00022386774071492255 (0.005639354400045704)
Batch 80	 Loss 0.004588390700519085 (0.00570954411632556)
Finished. Total elapsed time (h:m:s): 0:47:54
Test Epoch 48/50
    Test Loss: 1.0821327598769026, Accuracy(multiclass): 0.8406072106261859
==> Start Epoch 49/50
Batch 10	 Loss 0.00019863953639287502 (0.013107071847480256)
Batch 20	 Loss 0.0002839563530869782 (0.009218057303951355)
Batch 30	 Loss 0.01845671236515045 (0.008495596645904395)
Batch 40	 Loss 0.00023832950682844967 (0.00768112135665433)
Batch 50	 Loss 0.0004433730209711939 (0.007351703775930219)
Batch 60	 Loss 0.00022569105203729123 (0.006843279194678568)
Batch 70	 Loss 0.00021027227921877056 (0.005908114542918546)
Batch 80	 Loss 0.00022654740314465016 (0.006071226352833037)
Finished. Total elapsed time (h:m:s): 0:48:56
Test Epoch 49/50
    Test Loss: 1.1024620913011525, Accuracy(multiclass): 0.8387096774193549
==> Start Epoch 50/50
Batch 10	 Loss 0.0003935965069103986 (0.011069901721202768)
Batch 20	 Loss 0.0003083431802224368 (0.010435484299523522)
Batch 30	 Loss 0.00034226427669636905 (0.008179896908889836)
Batch 40	 Loss 0.00025727093452587724 (0.009646987027736031)
Batch 50	 Loss 0.0003454852558206767 (0.009767017779813614)
Batch 60	 Loss 0.014101061969995499 (0.00938182070434171)
Batch 70	 Loss 0.0002785703109111637 (0.008714084276497098)
Batch 80	 Loss 0.00021241226932033896 (0.008341009263858723)
Finished. Total elapsed time (h:m:s): 0:49:56
Test Epoch 50/50
    Test Loss: 1.0998051836097036, Accuracy(multiclass): 0.8387096774193549
