Train Multi-Loss
--- START Arg parse ---
path : /media/mint/Barracuda/Datasets/cifar10/
batch_size : 1024
lr : 0.001
model : lenet5
max_epoch : 200
when_save_model : 500
save_dir : /media/mint/Barracuda/Models/CIFAR_10/general
seed : 1
gpu : 0
window : 10
--- END Arg parse ---
Currently using GPU: 0
Learning rate optimizer 0.001  Batch-size 1024
Loss 0 :
one_hot_mse
==> Start Epoch 1/200
----clone orig_model
====> Loss:  one_hot_mse
Batch 10	 CrossEntropy 0.9464586973190308 (0.9470352530479431)
Batch 20	 CrossEntropy 0.9336739778518677 (0.9438416570425033)
Batch 30	 CrossEntropy 0.9145355224609375 (0.9372876385847727)
Batch 40	 CrossEntropy 0.9122259020805359 (0.9313811019062996)
Finished. Total elapsed time (h:m:s): 0:00:06
- Test Epoch 1/200
  - Loss:  one_hot_mse
    Test Crossentropy: 5.149668997955322, Accuracy(multiclass): 0.1771
==> End Epoch 1/200
==> Start Epoch 2/200
====> Loss:  one_hot_mse
Batch 10	 CrossEntropy 0.9035302996635437 (0.9035685300827027)
Batch 20	 CrossEntropy 0.8971512317657471 (0.9006220310926437)
Batch 30	 CrossEntropy 0.8811262249946594 (0.8988508502642314)
Batch 40	 CrossEntropy 0.8949798941612244 (0.8972643181681633)
Finished. Total elapsed time (h:m:s): 0:00:13
- Test Epoch 2/200
  - Loss:  one_hot_mse
    Test Crossentropy: 6.482185514068603, Accuracy(multiclass): 0.1995
==> End Epoch 2/200
==> Start Epoch 3/200
====> Loss:  one_hot_mse
Batch 10	 CrossEntropy 0.9003454446792603 (0.8916033446788788)
Batch 20	 CrossEntropy 0.8823059797286987 (0.8878811001777649)
Batch 30	 CrossEntropy 0.8801265954971313 (0.8861572086811066)
Batch 40	 CrossEntropy 0.8876830339431763 (0.883441710472107)
Finished. Total elapsed time (h:m:s): 0:00:21
- Test Epoch 3/200
  - Loss:  one_hot_mse
    Test Crossentropy: 6.458820843505859, Accuracy(multiclass): 0.2497
==> End Epoch 3/200
==> Start Epoch 4/200
====> Loss:  one_hot_mse
Batch 10	 CrossEntropy 0.858981728553772 (0.8641514599323272)
Batch 20	 CrossEntropy 0.863210141658783 (0.8633500725030899)
Batch 30	 CrossEntropy 0.8427901268005371 (0.8599900662899017)
Batch 40	 CrossEntropy 0.8528311252593994 (0.8571060985326767)
Finished. Total elapsed time (h:m:s): 0:00:28
- Test Epoch 4/200
  - Loss:  one_hot_mse
    Test Crossentropy: 6.617424910736084, Accuracy(multiclass): 0.2816
==> End Epoch 4/200
==> Start Epoch 5/200
====> Loss:  one_hot_mse
Batch 10	 CrossEntropy 0.8471768498420715 (0.8399472773075104)
Batch 20	 CrossEntropy 0.8273831009864807 (0.8388207733631134)
Batch 30	 CrossEntropy 0.8403310775756836 (0.8383675058682759)
Batch 40	 CrossEntropy 0.8267621994018555 (0.8373182758688926)
Finished. Total elapsed time (h:m:s): 0:00:35
- Test Epoch 5/200
  - Loss:  one_hot_mse
    Test Crossentropy: 7.657012769699096, Accuracy(multiclass): 0.2923
==> End Epoch 5/200
==> Start Epoch 6/200
====> Loss:  one_hot_mse
Batch 10	 CrossEntropy 0.8373696208000183 (0.8264050602912902)
Batch 20	 CrossEntropy 0.8110522031784058 (0.8250738888978958)
Batch 30	 CrossEntropy 0.8260892033576965 (0.8233147978782653)
Batch 40	 CrossEntropy 0.8268876075744629 (0.8235064670443535)
Finished. Total elapsed time (h:m:s): 0:00:43
- Test Epoch 6/200
  - Loss:  one_hot_mse
    Test Crossentropy: 7.333812887382507, Accuracy(multiclass): 0.3227
==> End Epoch 6/200
==> Start Epoch 7/200
====> Loss:  one_hot_mse
Batch 10	 CrossEntropy 0.8166408538818359 (0.813539844751358)
Batch 20	 CrossEntropy 0.8115361332893372 (0.8106753140687942)
Batch 30	 CrossEntropy 0.7955492734909058 (0.807920507589976)
Batch 40	 CrossEntropy 0.8119100332260132 (0.8067680209875107)
Finished. Total elapsed time (h:m:s): 0:00:51
- Test Epoch 7/200
  - Loss:  one_hot_mse
    Test Crossentropy: 7.572438072967529, Accuracy(multiclass): 0.3328
==> End Epoch 7/200
==> Start Epoch 8/200
====> Loss:  one_hot_mse
Batch 10	 CrossEntropy 0.7969344258308411 (0.8044303894042969)
Batch 20	 CrossEntropy 0.7909515500068665 (0.8043625324964523)
Batch 30	 CrossEntropy 0.7865646481513977 (0.8031764527161916)
Batch 40	 CrossEntropy 0.7946289777755737 (0.8000253781676292)
Finished. Total elapsed time (h:m:s): 0:00:58
- Test Epoch 8/200
  - Loss:  one_hot_mse
    Test Crossentropy: 8.236881105804443, Accuracy(multiclass): 0.3452
==> End Epoch 8/200
==> Start Epoch 9/200
====> Loss:  one_hot_mse
Batch 10	 CrossEntropy 0.8124366402626038 (0.7932933986186981)
Batch 20	 CrossEntropy 0.8004788756370544 (0.7897280991077423)
Batch 30	 CrossEntropy 0.7759390473365784 (0.7908207535743713)
Batch 40	 CrossEntropy 0.782739520072937 (0.7906813248991966)
Finished. Total elapsed time (h:m:s): 0:01:05
- Test Epoch 9/200
  - Loss:  one_hot_mse
    Test Crossentropy: 8.049087865257263, Accuracy(multiclass): 0.3543
==> End Epoch 9/200
==> Start Epoch 10/200
====> Loss:  one_hot_mse
Batch 10	 CrossEntropy 0.7850294709205627 (0.7862046420574188)
Batch 20	 CrossEntropy 0.798814058303833 (0.7857450783252716)
Batch 30	 CrossEntropy 0.7655088901519775 (0.7852062463760376)
Batch 40	 CrossEntropy 0.7910305261611938 (0.7857786059379578)
Finished. Total elapsed time (h:m:s): 0:01:12
- Test Epoch 10/200
  - Loss:  one_hot_mse
    Test Crossentropy: 8.370054293060303, Accuracy(multiclass): 0.355
----set best weight to orig_model
  --winner: one_hot_mse (0)
==> End Epoch 10/200
==> Start Epoch 11/200
----clone orig_model
====> Loss:  one_hot_mse
Batch 10	 CrossEntropy 0.7818671464920044 (0.7926934599876404)
Batch 20	 CrossEntropy 0.7843607664108276 (0.7870183020830155)
Batch 30	 CrossEntropy 0.765114426612854 (0.7838892916838328)
Batch 40	 CrossEntropy 0.7645658254623413 (0.783051212131977)
Finished. Total elapsed time (h:m:s): 0:01:19
- Test Epoch 11/200
  - Loss:  one_hot_mse
    Test Crossentropy: 8.978945822906494, Accuracy(multiclass): 0.366
==> End Epoch 11/200
==> Start Epoch 12/200
====> Loss:  one_hot_mse
Batch 10	 CrossEntropy 0.7911201119422913 (0.7796623647212982)
Batch 20	 CrossEntropy 0.7876386046409607 (0.7806678205728531)
Batch 30	 CrossEntropy 0.7723857164382935 (0.7773056228955587)
Batch 40	 CrossEntropy 0.7806942462921143 (0.7758979439735413)
Finished. Total elapsed time (h:m:s): 0:01:27
- Test Epoch 12/200
  - Loss:  one_hot_mse
    Test Crossentropy: 9.484612543487549, Accuracy(multiclass): 0.3651
==> End Epoch 12/200
==> Start Epoch 13/200
====> Loss:  one_hot_mse
Batch 10	 CrossEntropy 0.7755722999572754 (0.7734329879283905)
Batch 20	 CrossEntropy 0.7741702795028687 (0.7759095698595047)
Batch 30	 CrossEntropy 0.7599314451217651 (0.7753138840198517)
Batch 40	 CrossEntropy 0.778361976146698 (0.7742799520492554)
Finished. Total elapsed time (h:m:s): 0:01:35
- Test Epoch 13/200
  - Loss:  one_hot_mse
    Test Crossentropy: 10.131837177658081, Accuracy(multiclass): 0.3711
==> End Epoch 13/200
==> Start Epoch 14/200
====> Loss:  one_hot_mse
Batch 10	 CrossEntropy 0.7745707035064697 (0.7695462107658386)
Batch 20	 CrossEntropy 0.7773155570030212 (0.7702615529298782)
Batch 30	 CrossEntropy 0.7690470814704895 (0.77032896677653)
Batch 40	 CrossEntropy 0.7581957578659058 (0.7702221587300301)
Finished. Total elapsed time (h:m:s): 0:01:41
- Test Epoch 14/200
  - Loss:  one_hot_mse
    Test Crossentropy: 10.039893290710449, Accuracy(multiclass): 0.3739
==> End Epoch 14/200
==> Start Epoch 15/200
====> Loss:  one_hot_mse
Batch 10	 CrossEntropy 0.7593380212783813 (0.7705540180206298)
Batch 20	 CrossEntropy 0.7660837769508362 (0.7700199514627457)
Batch 30	 CrossEntropy 0.7538814544677734 (0.7677553037802378)
Batch 40	 CrossEntropy 0.7575095295906067 (0.7677712246775628)
Finished. Total elapsed time (h:m:s): 0:01:49
- Test Epoch 15/200
  - Loss:  one_hot_mse
    Test Crossentropy: 10.461478516769409, Accuracy(multiclass): 0.3708
==> End Epoch 15/200
==> Start Epoch 16/200
====> Loss:  one_hot_mse
Batch 10	 CrossEntropy 0.7653905153274536 (0.7698305010795593)
Batch 20	 CrossEntropy 0.7847877144813538 (0.7690545201301575)
Batch 30	 CrossEntropy 0.7830825448036194 (0.7692978282769521)
Batch 40	 CrossEntropy 0.7702522277832031 (0.7687681794166565)
Finished. Total elapsed time (h:m:s): 0:01:56
- Test Epoch 16/200
  - Loss:  one_hot_mse
    Test Crossentropy: 10.941592239379883, Accuracy(multiclass): 0.3801
==> End Epoch 16/200
==> Start Epoch 17/200
====> Loss:  one_hot_mse
Batch 10	 CrossEntropy 0.745463490486145 (0.7640703976154327)
Batch 20	 CrossEntropy 0.7858262658119202 (0.7648498505353928)
Batch 30	 CrossEntropy 0.7614228129386902 (0.763701198498408)
Batch 40	 CrossEntropy 0.7714539766311646 (0.7631439656019211)
Finished. Total elapsed time (h:m:s): 0:02:03
- Test Epoch 17/200
  - Loss:  one_hot_mse
    Test Crossentropy: 11.067270061874389, Accuracy(multiclass): 0.3841
==> End Epoch 17/200
==> Start Epoch 18/200
====> Loss:  one_hot_mse
Batch 10	 CrossEntropy 0.7561899423599243 (0.7584876537322998)
Batch 20	 CrossEntropy 0.7735604047775269 (0.7624405890703201)
Batch 30	 CrossEntropy 0.7572771310806274 (0.761498914162318)
Batch 40	 CrossEntropy 0.7825950384140015 (0.7604683637619019)
Finished. Total elapsed time (h:m:s): 0:02:11
- Test Epoch 18/200
  - Loss:  one_hot_mse
    Test Crossentropy: 10.33107544631958, Accuracy(multiclass): 0.3834
==> End Epoch 18/200
==> Start Epoch 19/200
====> Loss:  one_hot_mse
Batch 10	 CrossEntropy 0.7606542110443115 (0.7633820295333862)
Batch 20	 CrossEntropy 0.7753053307533264 (0.7625426948070526)
Batch 30	 CrossEntropy 0.7669845819473267 (0.761481523513794)
Batch 40	 CrossEntropy 0.7702993154525757 (0.7598538801074028)
Finished. Total elapsed time (h:m:s): 0:02:18
- Test Epoch 19/200
  - Loss:  one_hot_mse
    Test Crossentropy: 9.99647625579834, Accuracy(multiclass): 0.3854
==> End Epoch 19/200
==> Start Epoch 20/200
====> Loss:  one_hot_mse
Batch 10	 CrossEntropy 0.7624597549438477 (0.7585085213184357)
Batch 20	 CrossEntropy 0.7561339139938354 (0.7557723134756088)
Batch 30	 CrossEntropy 0.765206515789032 (0.7564659138520559)
Batch 40	 CrossEntropy 0.7566236853599548 (0.7561505869030952)
Finished. Total elapsed time (h:m:s): 0:02:26
- Test Epoch 20/200
  - Loss:  one_hot_mse
    Test Crossentropy: 9.569910454559325, Accuracy(multiclass): 0.3905
----set best weight to orig_model
  --winner: one_hot_mse (0)
==> End Epoch 20/200
==> Start Epoch 21/200
----clone orig_model
====> Loss:  one_hot_mse
Batch 10	 CrossEntropy 0.7727506160736084 (0.7686214208602905)
Batch 20	 CrossEntropy 0.739631175994873 (0.7622804850339889)
Batch 30	 CrossEntropy 0.7359257936477661 (0.7616749465465545)
Batch 40	 CrossEntropy 0.7311518788337708 (0.758261838555336)
Finished. Total elapsed time (h:m:s): 0:02:32
- Test Epoch 21/200
  - Loss:  one_hot_mse
    Test Crossentropy: 10.620961890029907, Accuracy(multiclass): 0.3912
==> End Epoch 21/200
==> Start Epoch 22/200
====> Loss:  one_hot_mse
Batch 10	 CrossEntropy 0.7429689168930054 (0.7451608121395111)
Batch 20	 CrossEntropy 0.7679600715637207 (0.7472354620695114)
Batch 30	 CrossEntropy 0.7600193619728088 (0.7483812948067983)
Batch 40	 CrossEntropy 0.743276834487915 (0.7493445992469787)
Finished. Total elapsed time (h:m:s): 0:02:40
- Test Epoch 22/200
  - Loss:  one_hot_mse
    Test Crossentropy: 10.831045045089722, Accuracy(multiclass): 0.3893
==> End Epoch 22/200
==> Start Epoch 23/200
====> Loss:  one_hot_mse
Batch 10	 CrossEntropy 0.7509613037109375 (0.7501110076904297)
Batch 20	 CrossEntropy 0.7430224418640137 (0.747470423579216)
Batch 30	 CrossEntropy 0.7305072546005249 (0.7455900768438976)
Batch 40	 CrossEntropy 0.7410942316055298 (0.7484836623072624)
Finished. Total elapsed time (h:m:s): 0:02:47
- Test Epoch 23/200
  - Loss:  one_hot_mse
    Test Crossentropy: 11.581888161849976, Accuracy(multiclass): 0.3825
==> End Epoch 23/200
==> Start Epoch 24/200
====> Loss:  one_hot_mse
Batch 10	 CrossEntropy 0.7487282156944275 (0.7528406739234924)
Batch 20	 CrossEntropy 0.748979389667511 (0.7489224731922149)
Batch 30	 CrossEntropy 0.749014139175415 (0.7467684864997863)
Batch 40	 CrossEntropy 0.7437320947647095 (0.7452350169420242)
Finished. Total elapsed time (h:m:s): 0:02:55
- Test Epoch 24/200
  - Loss:  one_hot_mse
    Test Crossentropy: 10.528360599899292, Accuracy(multiclass): 0.4025
==> End Epoch 24/200
==> Start Epoch 25/200
====> Loss:  one_hot_mse
Batch 10	 CrossEntropy 0.7235838174819946 (0.7420955002307892)
Batch 20	 CrossEntropy 0.7347323894500732 (0.7434415996074677)
Batch 30	 CrossEntropy 0.7372499704360962 (0.74237047235171)
Batch 40	 CrossEntropy 0.7377962470054626 (0.7430945664644242)
Finished. Total elapsed time (h:m:s): 0:03:02
- Test Epoch 25/200
  - Loss:  one_hot_mse
    Test Crossentropy: 10.941553490638732, Accuracy(multiclass): 0.4019
==> End Epoch 25/200
==> Start Epoch 26/200
====> Loss:  one_hot_mse
Batch 10	 CrossEntropy 0.7345267534255981 (0.7371719777584076)
Batch 20	 CrossEntropy 0.7488642930984497 (0.7374207943677902)
Batch 30	 CrossEntropy 0.749149739742279 (0.7360953489939371)
Batch 40	 CrossEntropy 0.7389862537384033 (0.7368090733885765)
Finished. Total elapsed time (h:m:s): 0:03:09
- Test Epoch 26/200
  - Loss:  one_hot_mse
    Test Crossentropy: 11.211148280334474, Accuracy(multiclass): 0.4092
==> End Epoch 26/200
==> Start Epoch 27/200
====> Loss:  one_hot_mse
Batch 10	 CrossEntropy 0.7208585739135742 (0.729118001461029)
Batch 20	 CrossEntropy 0.7179410457611084 (0.7339698165655136)
Batch 30	 CrossEntropy 0.7273203134536743 (0.7356930573781332)
Batch 40	 CrossEntropy 0.7442231178283691 (0.7388992428779602)
Finished. Total elapsed time (h:m:s): 0:03:16
- Test Epoch 27/200
  - Loss:  one_hot_mse
    Test Crossentropy: 10.85890563659668, Accuracy(multiclass): 0.4069
==> End Epoch 27/200
==> Start Epoch 28/200
====> Loss:  one_hot_mse
Batch 10	 CrossEntropy 0.7405480146408081 (0.7349696040153504)
Batch 20	 CrossEntropy 0.7415675520896912 (0.7337576776742936)
Batch 30	 CrossEntropy 0.7334164381027222 (0.7308286249637603)
Batch 40	 CrossEntropy 0.7279208898544312 (0.7300155818462372)
Finished. Total elapsed time (h:m:s): 0:03:23
- Test Epoch 28/200
  - Loss:  one_hot_mse
    Test Crossentropy: 11.039440171051025, Accuracy(multiclass): 0.4147
==> End Epoch 28/200
==> Start Epoch 29/200
====> Loss:  one_hot_mse
Batch 10	 CrossEntropy 0.7372043132781982 (0.7334692656993866)
Batch 20	 CrossEntropy 0.731331467628479 (0.7299196064472199)
Batch 30	 CrossEntropy 0.744470477104187 (0.7323202133178711)
Batch 40	 CrossEntropy 0.729388952255249 (0.7330888882279396)
Finished. Total elapsed time (h:m:s): 0:03:31
- Test Epoch 29/200
  - Loss:  one_hot_mse
    Test Crossentropy: 11.377098551559449, Accuracy(multiclass): 0.4077
==> End Epoch 29/200
==> Start Epoch 30/200
====> Loss:  one_hot_mse
Batch 10	 CrossEntropy 0.7395447492599487 (0.731031620502472)
Batch 20	 CrossEntropy 0.7334643006324768 (0.7303686022758484)
Batch 30	 CrossEntropy 0.7377690076828003 (0.7300201217333476)
Batch 40	 CrossEntropy 0.7113479375839233 (0.7289721578359604)
Finished. Total elapsed time (h:m:s): 0:03:38
- Test Epoch 30/200
  - Loss:  one_hot_mse
    Test Crossentropy: 11.453316612434387, Accuracy(multiclass): 0.4121
----set best weight to orig_model
  --winner: one_hot_mse (0)
==> End Epoch 30/200
==> Start Epoch 31/200
----clone orig_model
====> Loss:  one_hot_mse
Batch 10	 CrossEntropy 0.7362044453620911 (0.7354366779327393)
Batch 20	 CrossEntropy 0.7104811668395996 (0.7341474622488022)
Batch 30	 CrossEntropy 0.7099928855895996 (0.7307178656260173)
Batch 40	 CrossEntropy 0.7330037355422974 (0.729406563937664)
Finished. Total elapsed time (h:m:s): 0:03:45
- Test Epoch 31/200
  - Loss:  one_hot_mse
    Test Crossentropy: 10.976077375411988, Accuracy(multiclass): 0.4247
==> End Epoch 31/200
==> Start Epoch 32/200
====> Loss:  one_hot_mse
Batch 10	 CrossEntropy 0.7153996825218201 (0.7252034842967987)
Batch 20	 CrossEntropy 0.7015259861946106 (0.7204058676958084)
Batch 30	 CrossEntropy 0.6984435319900513 (0.718816485007604)
Batch 40	 CrossEntropy 0.7194023132324219 (0.7201735258102417)
Finished. Total elapsed time (h:m:s): 0:03:52
- Test Epoch 32/200
  - Loss:  one_hot_mse
    Test Crossentropy: 11.142941790771484, Accuracy(multiclass): 0.4264
==> End Epoch 32/200
==> Start Epoch 33/200
====> Loss:  one_hot_mse
Batch 10	 CrossEntropy 0.713726282119751 (0.7221667468547821)
Batch 20	 CrossEntropy 0.7260963320732117 (0.7171181380748749)
Batch 30	 CrossEntropy 0.717248797416687 (0.7156374235947927)
Batch 40	 CrossEntropy 0.7245482206344604 (0.7190096035599709)
Finished. Total elapsed time (h:m:s): 0:03:59
- Test Epoch 33/200
  - Loss:  one_hot_mse
    Test Crossentropy: 11.106801608657836, Accuracy(multiclass): 0.4336
==> End Epoch 33/200
==> Start Epoch 34/200
====> Loss:  one_hot_mse
Batch 10	 CrossEntropy 0.7070878744125366 (0.7213882565498352)
Batch 20	 CrossEntropy 0.724205732345581 (0.7217048764228821)
Batch 30	 CrossEntropy 0.7261085510253906 (0.7213577230771383)
Batch 40	 CrossEntropy 0.7123339176177979 (0.7192623823881149)
Finished. Total elapsed time (h:m:s): 0:04:07
- Test Epoch 34/200
  - Loss:  one_hot_mse
    Test Crossentropy: 10.986757374954223, Accuracy(multiclass): 0.4327
==> End Epoch 34/200
==> Start Epoch 35/200
====> Loss:  one_hot_mse
Batch 10	 CrossEntropy 0.7218904495239258 (0.7219742059707641)
Batch 20	 CrossEntropy 0.7024121880531311 (0.718442851305008)
Batch 30	 CrossEntropy 0.7100639343261719 (0.7164398968219757)
Batch 40	 CrossEntropy 0.7066788673400879 (0.7150563806295395)
Finished. Total elapsed time (h:m:s): 0:04:14
- Test Epoch 35/200
  - Loss:  one_hot_mse
    Test Crossentropy: 11.661502005386353, Accuracy(multiclass): 0.4249
==> End Epoch 35/200
==> Start Epoch 36/200
====> Loss:  one_hot_mse
Batch 10	 CrossEntropy 0.7191758155822754 (0.7141364812850952)
Batch 20	 CrossEntropy 0.6816728115081787 (0.7101446270942688)
Batch 30	 CrossEntropy 0.711025595664978 (0.7110098361968994)
Batch 40	 CrossEntropy 0.7007887959480286 (0.711117273569107)
Finished. Total elapsed time (h:m:s): 0:04:22
- Test Epoch 36/200
  - Loss:  one_hot_mse
    Test Crossentropy: 10.699346834945679, Accuracy(multiclass): 0.4399
==> End Epoch 36/200
==> Start Epoch 37/200
====> Loss:  one_hot_mse
Batch 10	 CrossEntropy 0.724754273891449 (0.7104750573635101)
Batch 20	 CrossEntropy 0.7082762718200684 (0.7084564566612244)
Batch 30	 CrossEntropy 0.7074246406555176 (0.7099131286144257)
Batch 40	 CrossEntropy 0.7290278673171997 (0.7104223921895028)
Finished. Total elapsed time (h:m:s): 0:04:29
- Test Epoch 37/200
  - Loss:  one_hot_mse
    Test Crossentropy: 11.409245665550232, Accuracy(multiclass): 0.4398
==> End Epoch 37/200
==> Start Epoch 38/200
====> Loss:  one_hot_mse
Batch 10	 CrossEntropy 0.7116681337356567 (0.7071374714374542)
Batch 20	 CrossEntropy 0.7071782350540161 (0.7053254812955856)
Batch 30	 CrossEntropy 0.7154631614685059 (0.7065467476844788)
Batch 40	 CrossEntropy 0.7171404361724854 (0.707915261387825)
Finished. Total elapsed time (h:m:s): 0:04:36
- Test Epoch 38/200
  - Loss:  one_hot_mse
    Test Crossentropy: 10.905877935409546, Accuracy(multiclass): 0.4442
==> End Epoch 38/200
==> Start Epoch 39/200
====> Loss:  one_hot_mse
Batch 10	 CrossEntropy 0.7063134908676147 (0.7057857632637023)
Batch 20	 CrossEntropy 0.7205771207809448 (0.7075152546167374)
Batch 30	 CrossEntropy 0.7060573101043701 (0.7058201054732005)
Batch 40	 CrossEntropy 0.7151268720626831 (0.7073058634996414)
Finished. Total elapsed time (h:m:s): 0:04:44
- Test Epoch 39/200
  - Loss:  one_hot_mse
    Test Crossentropy: 11.055247060775757, Accuracy(multiclass): 0.4462
==> End Epoch 39/200
==> Start Epoch 40/200
====> Loss:  one_hot_mse
Batch 10	 CrossEntropy 0.7104648947715759 (0.7050978720188141)
Batch 20	 CrossEntropy 0.694331169128418 (0.7048877447843551)
Batch 30	 CrossEntropy 0.6856689453125 (0.7023817777633667)
Batch 40	 CrossEntropy 0.6925632953643799 (0.7014905408024787)
Finished. Total elapsed time (h:m:s): 0:04:51
- Test Epoch 40/200
  - Loss:  one_hot_mse
    Test Crossentropy: 11.025511867523193, Accuracy(multiclass): 0.448
----set best weight to orig_model
  --winner: one_hot_mse (0)
==> End Epoch 40/200
==> Start Epoch 41/200
----clone orig_model
====> Loss:  one_hot_mse
Batch 10	 CrossEntropy 0.7277745008468628 (0.722682774066925)
Batch 20	 CrossEntropy 0.7288038730621338 (0.7206776022911072)
Batch 30	 CrossEntropy 0.7174343466758728 (0.7174213349819183)
Batch 40	 CrossEntropy 0.6951553821563721 (0.7137263491749763)
Finished. Total elapsed time (h:m:s): 0:04:58
- Test Epoch 41/200
  - Loss:  one_hot_mse
    Test Crossentropy: 11.19974751472473, Accuracy(multiclass): 0.4529
==> End Epoch 41/200
==> Start Epoch 42/200
====> Loss:  one_hot_mse
Batch 10	 CrossEntropy 0.6876695156097412 (0.6948154985904693)
Batch 20	 CrossEntropy 0.6875054836273193 (0.6962527334690094)
Batch 30	 CrossEntropy 0.7123894691467285 (0.696837987502416)
Batch 40	 CrossEntropy 0.7101088166236877 (0.6969249427318573)
Finished. Total elapsed time (h:m:s): 0:05:06
- Test Epoch 42/200
  - Loss:  one_hot_mse
    Test Crossentropy: 11.441122916030883, Accuracy(multiclass): 0.4503
==> End Epoch 42/200
==> Start Epoch 43/200
====> Loss:  one_hot_mse
Batch 10	 CrossEntropy 0.6840406060218811 (0.6964660048484802)
Batch 20	 CrossEntropy 0.6658338308334351 (0.6942240774631501)
Batch 30	 CrossEntropy 0.687174916267395 (0.6961336572964986)
Batch 40	 CrossEntropy 0.701928973197937 (0.6954569146037102)
Finished. Total elapsed time (h:m:s): 0:05:13
- Test Epoch 43/200
  - Loss:  one_hot_mse
    Test Crossentropy: 11.321583048439026, Accuracy(multiclass): 0.4551
==> End Epoch 43/200
==> Start Epoch 44/200
====> Loss:  one_hot_mse
Batch 10	 CrossEntropy 0.702343225479126 (0.6909184932708741)
Batch 20	 CrossEntropy 0.7048472762107849 (0.6896570861339569)
Batch 30	 CrossEntropy 0.6983506679534912 (0.6910442590713501)
Batch 40	 CrossEntropy 0.675273060798645 (0.6911770656704903)
Finished. Total elapsed time (h:m:s): 0:05:21
- Test Epoch 44/200
  - Loss:  one_hot_mse
    Test Crossentropy: 11.32861964492798, Accuracy(multiclass): 0.4593
==> End Epoch 44/200
==> Start Epoch 45/200
====> Loss:  one_hot_mse
Batch 10	 CrossEntropy 0.6730310916900635 (0.6880775809288024)
Batch 20	 CrossEntropy 0.6870719194412231 (0.6886237800121308)
Batch 30	 CrossEntropy 0.6925321817398071 (0.6919470171133677)
Batch 40	 CrossEntropy 0.6962692141532898 (0.6933574482798577)
Finished. Total elapsed time (h:m:s): 0:05:28
- Test Epoch 45/200
  - Loss:  one_hot_mse
    Test Crossentropy: 11.162555248260498, Accuracy(multiclass): 0.4525
==> End Epoch 45/200
==> Start Epoch 46/200
====> Loss:  one_hot_mse
Batch 10	 CrossEntropy 0.6956093311309814 (0.6950247764587403)
Batch 20	 CrossEntropy 0.7066299915313721 (0.6926937907934189)
Batch 30	 CrossEntropy 0.6792494654655457 (0.6932195723056793)
Batch 40	 CrossEntropy 0.6772748231887817 (0.6904903203248978)
Finished. Total elapsed time (h:m:s): 0:05:36
- Test Epoch 46/200
  - Loss:  one_hot_mse
    Test Crossentropy: 11.822916283416747, Accuracy(multiclass): 0.449
==> End Epoch 46/200
==> Start Epoch 47/200
====> Loss:  one_hot_mse
Batch 10	 CrossEntropy 0.6597766280174255 (0.685862559080124)
Batch 20	 CrossEntropy 0.6718600988388062 (0.6863705039024353)
Batch 30	 CrossEntropy 0.6766230463981628 (0.6869800925254822)
Batch 40	 CrossEntropy 0.6849716901779175 (0.6875413611531258)
Finished. Total elapsed time (h:m:s): 0:05:44
- Test Epoch 47/200
  - Loss:  one_hot_mse
    Test Crossentropy: 11.370961935806275, Accuracy(multiclass): 0.4641
==> End Epoch 47/200
==> Start Epoch 48/200
====> Loss:  one_hot_mse
Batch 10	 CrossEntropy 0.684607207775116 (0.6792925953865051)
Batch 20	 CrossEntropy 0.6995189189910889 (0.6838904649019242)
Batch 30	 CrossEntropy 0.6981195211410522 (0.6843913793563843)
Batch 40	 CrossEntropy 0.6843264102935791 (0.6849976301193237)
Finished. Total elapsed time (h:m:s): 0:05:50
- Test Epoch 48/200
  - Loss:  one_hot_mse
    Test Crossentropy: 11.643053994369508, Accuracy(multiclass): 0.4605
==> End Epoch 48/200
==> Start Epoch 49/200
====> Loss:  one_hot_mse
Batch 10	 CrossEntropy 0.6652573347091675 (0.683560174703598)
Batch 20	 CrossEntropy 0.6880512833595276 (0.6825082093477249)
Batch 30	 CrossEntropy 0.7143762111663818 (0.681085201104482)
Batch 40	 CrossEntropy 0.7229926586151123 (0.6847258120775223)
Finished. Total elapsed time (h:m:s): 0:05:57
- Test Epoch 49/200
  - Loss:  one_hot_mse
    Test Crossentropy: 11.554270463943482, Accuracy(multiclass): 0.4638
==> End Epoch 49/200
==> Start Epoch 50/200
====> Loss:  one_hot_mse
Batch 10	 CrossEntropy 0.6636131405830383 (0.680009400844574)
Batch 20	 CrossEntropy 0.6938326954841614 (0.682520455121994)
Batch 30	 CrossEntropy 0.6946008205413818 (0.6841914236545563)
Batch 40	 CrossEntropy 0.669233500957489 (0.6819242313504219)
Finished. Total elapsed time (h:m:s): 0:06:04
- Test Epoch 50/200
  - Loss:  one_hot_mse
    Test Crossentropy: 11.653224028015137, Accuracy(multiclass): 0.4699
----set best weight to orig_model
  --winner: one_hot_mse (0)
==> End Epoch 50/200
==> Start Epoch 51/200
----clone orig_model
====> Loss:  one_hot_mse
Batch 10	 CrossEntropy 0.680402398109436 (0.7042518198490143)
Batch 20	 CrossEntropy 0.7139430046081543 (0.694650399684906)
Batch 30	 CrossEntropy 0.6653379201889038 (0.6880954583485921)
Batch 40	 CrossEntropy 0.6707648038864136 (0.6847830221056939)
Finished. Total elapsed time (h:m:s): 0:06:12
- Test Epoch 51/200
  - Loss:  one_hot_mse
    Test Crossentropy: 11.626041875839233, Accuracy(multiclass): 0.4684
==> End Epoch 51/200
==> Start Epoch 52/200
====> Loss:  one_hot_mse
Batch 10	 CrossEntropy 0.6698662042617798 (0.6746399343013764)
Batch 20	 CrossEntropy 0.6597326993942261 (0.6733279675245285)
Batch 30	 CrossEntropy 0.6807864904403687 (0.6758477429548899)
Batch 40	 CrossEntropy 0.660944938659668 (0.6764652535319329)
Finished. Total elapsed time (h:m:s): 0:06:19
- Test Epoch 52/200
  - Loss:  one_hot_mse
    Test Crossentropy: 11.843182918930054, Accuracy(multiclass): 0.4705
==> End Epoch 52/200
==> Start Epoch 53/200
====> Loss:  one_hot_mse
Batch 10	 CrossEntropy 0.68255615234375 (0.6832233130931854)
Batch 20	 CrossEntropy 0.6965243220329285 (0.6811012268066406)
Batch 30	 CrossEntropy 0.6745480895042419 (0.6777985791365305)
Batch 40	 CrossEntropy 0.6914668083190918 (0.6781220972537995)
Finished. Total elapsed time (h:m:s): 0:06:26
- Test Epoch 53/200
  - Loss:  one_hot_mse
    Test Crossentropy: 11.79952739906311, Accuracy(multiclass): 0.4741
==> End Epoch 53/200
==> Start Epoch 54/200
====> Loss:  one_hot_mse
Batch 10	 CrossEntropy 0.6782333850860596 (0.6755715310573578)
Batch 20	 CrossEntropy 0.6847224831581116 (0.6772616267204284)
Batch 30	 CrossEntropy 0.6711315512657166 (0.674933236837387)
Batch 40	 CrossEntropy 0.6736592054367065 (0.6741551086306572)
Finished. Total elapsed time (h:m:s): 0:06:34
- Test Epoch 54/200
  - Loss:  one_hot_mse
    Test Crossentropy: 11.977211609649657, Accuracy(multiclass): 0.4689
==> End Epoch 54/200
==> Start Epoch 55/200
====> Loss:  one_hot_mse
Batch 10	 CrossEntropy 0.6737699508666992 (0.6697458684444427)
Batch 20	 CrossEntropy 0.6620166301727295 (0.6722294956445694)
Batch 30	 CrossEntropy 0.6795938014984131 (0.6716915527979533)
Batch 40	 CrossEntropy 0.6919398903846741 (0.6739214971661568)
Finished. Total elapsed time (h:m:s): 0:06:41
- Test Epoch 55/200
  - Loss:  one_hot_mse
    Test Crossentropy: 11.928598957061768, Accuracy(multiclass): 0.4671
==> End Epoch 55/200
==> Start Epoch 56/200
====> Loss:  one_hot_mse
Batch 10	 CrossEntropy 0.6644818782806396 (0.6693141400814057)
Batch 20	 CrossEntropy 0.6824807524681091 (0.6741737127304077)
Batch 30	 CrossEntropy 0.6684443354606628 (0.6704631368319194)
Batch 40	 CrossEntropy 0.6724125146865845 (0.6714827418327332)
Finished. Total elapsed time (h:m:s): 0:06:49
- Test Epoch 56/200
  - Loss:  one_hot_mse
    Test Crossentropy: 11.767159638214112, Accuracy(multiclass): 0.4756
==> End Epoch 56/200
==> Start Epoch 57/200
====> Loss:  one_hot_mse
Batch 10	 CrossEntropy 0.677240252494812 (0.6660614907741547)
Batch 20	 CrossEntropy 0.6614257097244263 (0.6647237092256546)
Batch 30	 CrossEntropy 0.6628099679946899 (0.6663648764292399)
Batch 40	 CrossEntropy 0.6819872260093689 (0.6674609810113907)
Finished. Total elapsed time (h:m:s): 0:06:56
- Test Epoch 57/200
  - Loss:  one_hot_mse
    Test Crossentropy: 12.033591854858399, Accuracy(multiclass): 0.4772
==> End Epoch 57/200
==> Start Epoch 58/200
====> Loss:  one_hot_mse
Batch 10	 CrossEntropy 0.6484330892562866 (0.6650738954544068)
Batch 20	 CrossEntropy 0.6443933248519897 (0.6656500816345214)
Batch 30	 CrossEntropy 0.6777597665786743 (0.6671856979529063)
Batch 40	 CrossEntropy 0.6534740924835205 (0.6700551897287369)
Finished. Total elapsed time (h:m:s): 0:07:03
- Test Epoch 58/200
  - Loss:  one_hot_mse
    Test Crossentropy: 11.790325885772704, Accuracy(multiclass): 0.4772
==> End Epoch 58/200
==> Start Epoch 59/200
====> Loss:  one_hot_mse
Batch 10	 CrossEntropy 0.658802330493927 (0.6642106652259827)
Batch 20	 CrossEntropy 0.6979629397392273 (0.6662721067667008)
Batch 30	 CrossEntropy 0.6763787269592285 (0.6656030714511871)
Batch 40	 CrossEntropy 0.6969329118728638 (0.66616849899292)
Finished. Total elapsed time (h:m:s): 0:07:10
- Test Epoch 59/200
  - Loss:  one_hot_mse
    Test Crossentropy: 12.49217424850464, Accuracy(multiclass): 0.4778
==> End Epoch 59/200
==> Start Epoch 60/200
====> Loss:  one_hot_mse
Batch 10	 CrossEntropy 0.6850845813751221 (0.6647939503192901)
Batch 20	 CrossEntropy 0.6683731079101562 (0.6647988080978393)
Batch 30	 CrossEntropy 0.64415043592453 (0.6628219346205394)
Batch 40	 CrossEntropy 0.6859895586967468 (0.6649761363863945)
Finished. Total elapsed time (h:m:s): 0:07:17
- Test Epoch 60/200
  - Loss:  one_hot_mse
    Test Crossentropy: 12.063720545196533, Accuracy(multiclass): 0.4721
----set best weight to orig_model
  --winner: one_hot_mse (0)
==> End Epoch 60/200
==> Start Epoch 61/200
----clone orig_model
====> Loss:  one_hot_mse
Batch 10	 CrossEntropy 0.6791439056396484 (0.6973492443561554)
Batch 20	 CrossEntropy 0.682292103767395 (0.6850308001041412)
Batch 30	 CrossEntropy 0.661933422088623 (0.6808045585950215)
Batch 40	 CrossEntropy 0.6971147060394287 (0.6775212749838829)
Finished. Total elapsed time (h:m:s): 0:07:25
- Test Epoch 61/200
  - Loss:  one_hot_mse
    Test Crossentropy: 12.193139717864991, Accuracy(multiclass): 0.4733
==> End Epoch 61/200
==> Start Epoch 62/200
====> Loss:  one_hot_mse
Batch 10	 CrossEntropy 0.6705947518348694 (0.6651645302772522)
Batch 20	 CrossEntropy 0.6653711795806885 (0.6595118820667267)
Batch 30	 CrossEntropy 0.6334589719772339 (0.6591820895671845)
Batch 40	 CrossEntropy 0.6811548471450806 (0.6602459758520126)
Finished. Total elapsed time (h:m:s): 0:07:32
- Test Epoch 62/200
  - Loss:  one_hot_mse
    Test Crossentropy: 12.091016960144042, Accuracy(multiclass): 0.4791
==> End Epoch 62/200
==> Start Epoch 63/200
====> Loss:  one_hot_mse
Batch 10	 CrossEntropy 0.6425466537475586 (0.6575488269329071)
Batch 20	 CrossEntropy 0.6620667576789856 (0.6597347348928452)
Batch 30	 CrossEntropy 0.6505885124206543 (0.6593533416589101)
Batch 40	 CrossEntropy 0.6657600402832031 (0.6592346251010894)
Finished. Total elapsed time (h:m:s): 0:07:40
- Test Epoch 63/200
  - Loss:  one_hot_mse
    Test Crossentropy: 12.556136010932923, Accuracy(multiclass): 0.4727
==> End Epoch 63/200
==> Start Epoch 64/200
====> Loss:  one_hot_mse
Batch 10	 CrossEntropy 0.6528350114822388 (0.6628565967082978)
Batch 20	 CrossEntropy 0.6550091505050659 (0.6615665137767792)
Batch 30	 CrossEntropy 0.6693757772445679 (0.6604160249233246)
Batch 40	 CrossEntropy 0.6703914403915405 (0.6605908781290054)
Finished. Total elapsed time (h:m:s): 0:07:48
- Test Epoch 64/200
  - Loss:  one_hot_mse
    Test Crossentropy: 12.314460103988647, Accuracy(multiclass): 0.4829
==> End Epoch 64/200
==> Start Epoch 65/200
====> Loss:  one_hot_mse
Batch 10	 CrossEntropy 0.6516150236129761 (0.6576803922653198)
Batch 20	 CrossEntropy 0.641651451587677 (0.6573784649372101)
Batch 30	 CrossEntropy 0.6311211585998535 (0.6554237206776937)
Batch 40	 CrossEntropy 0.6508536338806152 (0.6566020607948303)
Finished. Total elapsed time (h:m:s): 0:07:55
- Test Epoch 65/200
  - Loss:  one_hot_mse
    Test Crossentropy: 12.491903755569458, Accuracy(multiclass): 0.4821
==> End Epoch 65/200
==> Start Epoch 66/200
====> Loss:  one_hot_mse
Batch 10	 CrossEntropy 0.6475967168807983 (0.6591375350952149)
Batch 20	 CrossEntropy 0.6693066954612732 (0.655811557173729)
Batch 30	 CrossEntropy 0.669501781463623 (0.6553815166155498)
Batch 40	 CrossEntropy 0.6615059971809387 (0.6562176883220673)
Finished. Total elapsed time (h:m:s): 0:08:02
- Test Epoch 66/200
  - Loss:  one_hot_mse
    Test Crossentropy: 12.913752180862426, Accuracy(multiclass): 0.4825
==> End Epoch 66/200
==> Start Epoch 67/200
====> Loss:  one_hot_mse
Batch 10	 CrossEntropy 0.6368426084518433 (0.6533326804637909)
Batch 20	 CrossEntropy 0.6643409729003906 (0.6542195081710815)
Batch 30	 CrossEntropy 0.6531696319580078 (0.652094570795695)
Batch 40	 CrossEntropy 0.6367397308349609 (0.6527672380208969)
Finished. Total elapsed time (h:m:s): 0:08:09
- Test Epoch 67/200
  - Loss:  one_hot_mse
    Test Crossentropy: 12.902170209884643, Accuracy(multiclass): 0.4804
==> End Epoch 67/200
==> Start Epoch 68/200
====> Loss:  one_hot_mse
Batch 10	 CrossEntropy 0.6231791377067566 (0.65153688788414)
Batch 20	 CrossEntropy 0.6717451810836792 (0.6503516763448716)
Batch 30	 CrossEntropy 0.6542931199073792 (0.6505554139614105)
Batch 40	 CrossEntropy 0.6569846272468567 (0.6524542734026909)
Finished. Total elapsed time (h:m:s): 0:08:16
- Test Epoch 68/200
  - Loss:  one_hot_mse
    Test Crossentropy: 12.51185615158081, Accuracy(multiclass): 0.4864
==> End Epoch 68/200
==> Start Epoch 69/200
====> Loss:  one_hot_mse
Batch 10	 CrossEntropy 0.6589000225067139 (0.6517038702964782)
Batch 20	 CrossEntropy 0.6545073986053467 (0.6470251172780991)
Batch 30	 CrossEntropy 0.6504011750221252 (0.6494882782300313)
Batch 40	 CrossEntropy 0.6643043160438538 (0.6490808919072151)
Finished. Total elapsed time (h:m:s): 0:08:23
- Test Epoch 69/200
  - Loss:  one_hot_mse
    Test Crossentropy: 12.864296237182618, Accuracy(multiclass): 0.4883
==> End Epoch 69/200
==> Start Epoch 70/200
====> Loss:  one_hot_mse
Batch 10	 CrossEntropy 0.6237077713012695 (0.6403635025024415)
Batch 20	 CrossEntropy 0.6401996612548828 (0.6452536225318909)
Batch 30	 CrossEntropy 0.6140536069869995 (0.6467338462670644)
Batch 40	 CrossEntropy 0.6354937553405762 (0.6484835684299469)
Finished. Total elapsed time (h:m:s): 0:08:30
- Test Epoch 70/200
  - Loss:  one_hot_mse
    Test Crossentropy: 12.719464032363891, Accuracy(multiclass): 0.4871
----set best weight to orig_model
  --winner: one_hot_mse (0)
==> End Epoch 70/200
==> Start Epoch 71/200
----clone orig_model
====> Loss:  one_hot_mse
Batch 10	 CrossEntropy 0.6550593376159668 (0.6753311693668366)
Batch 20	 CrossEntropy 0.6762536764144897 (0.6712042212486267)
Batch 30	 CrossEntropy 0.6373767852783203 (0.6660721222559611)
Batch 40	 CrossEntropy 0.678388237953186 (0.6631039097905159)
Finished. Total elapsed time (h:m:s): 0:08:38
- Test Epoch 71/200
  - Loss:  one_hot_mse
    Test Crossentropy: 12.409298754501343, Accuracy(multiclass): 0.4868
==> End Epoch 71/200
==> Start Epoch 72/200
====> Loss:  one_hot_mse
Batch 10	 CrossEntropy 0.6511418223381042 (0.6490124523639679)
Batch 20	 CrossEntropy 0.6557193994522095 (0.6500271201133728)
Batch 30	 CrossEntropy 0.6795660257339478 (0.649154790242513)
Batch 40	 CrossEntropy 0.6680690050125122 (0.649472038447857)
Finished. Total elapsed time (h:m:s): 0:08:45
- Test Epoch 72/200
  - Loss:  one_hot_mse
    Test Crossentropy: 12.960985750961303, Accuracy(multiclass): 0.4816
==> End Epoch 72/200
==> Start Epoch 73/200
====> Loss:  one_hot_mse
Batch 10	 CrossEntropy 0.6460297107696533 (0.6382030963897705)
Batch 20	 CrossEntropy 0.6226229071617126 (0.6411421328783036)
Batch 30	 CrossEntropy 0.6489313840866089 (0.6438058932622274)
Batch 40	 CrossEntropy 0.6441070437431335 (0.6451555073261261)
Finished. Total elapsed time (h:m:s): 0:08:53
- Test Epoch 73/200
  - Loss:  one_hot_mse
    Test Crossentropy: 13.111781743240357, Accuracy(multiclass): 0.488
==> End Epoch 73/200
==> Start Epoch 74/200
====> Loss:  one_hot_mse
Batch 10	 CrossEntropy 0.6458276510238647 (0.6487937808036804)
Batch 20	 CrossEntropy 0.6422088146209717 (0.6456670224666595)
Batch 30	 CrossEntropy 0.6610301733016968 (0.6458864410718282)
Batch 40	 CrossEntropy 0.6512376070022583 (0.6436538442969322)
Finished. Total elapsed time (h:m:s): 0:09:00
- Test Epoch 74/200
  - Loss:  one_hot_mse
    Test Crossentropy: 13.140507815933228, Accuracy(multiclass): 0.4846
==> End Epoch 74/200
==> Start Epoch 75/200
====> Loss:  one_hot_mse
Batch 10	 CrossEntropy 0.6718751788139343 (0.6452434659004211)
Batch 20	 CrossEntropy 0.6349499225616455 (0.6442966371774673)
Batch 30	 CrossEntropy 0.6255486011505127 (0.6421155591805776)
Batch 40	 CrossEntropy 0.661158561706543 (0.6432887151837349)
Finished. Total elapsed time (h:m:s): 0:09:08
- Test Epoch 75/200
  - Loss:  one_hot_mse
    Test Crossentropy: 13.727891414260863, Accuracy(multiclass): 0.484
==> End Epoch 75/200
==> Start Epoch 76/200
====> Loss:  one_hot_mse
Batch 10	 CrossEntropy 0.6519055962562561 (0.6454677879810333)
Batch 20	 CrossEntropy 0.6210942268371582 (0.6411772191524505)
Batch 30	 CrossEntropy 0.6255837082862854 (0.6389111777146658)
Batch 40	 CrossEntropy 0.6369140148162842 (0.6402994319796562)
Finished. Total elapsed time (h:m:s): 0:09:15
- Test Epoch 76/200
  - Loss:  one_hot_mse
    Test Crossentropy: 13.389705855941772, Accuracy(multiclass): 0.4852
==> End Epoch 76/200
==> Start Epoch 77/200
====> Loss:  one_hot_mse
Batch 10	 CrossEntropy 0.6286811828613281 (0.6398251295089722)
Batch 20	 CrossEntropy 0.6369177103042603 (0.6424094915390015)
Batch 30	 CrossEntropy 0.6462327241897583 (0.6419195155302684)
Batch 40	 CrossEntropy 0.6234622597694397 (0.6420096442103386)
Finished. Total elapsed time (h:m:s): 0:09:23
- Test Epoch 77/200
  - Loss:  one_hot_mse
    Test Crossentropy: 13.142843409729004, Accuracy(multiclass): 0.4937
==> End Epoch 77/200
==> Start Epoch 78/200
====> Loss:  one_hot_mse
Batch 10	 CrossEntropy 0.6324397325515747 (0.6355936110019684)
Batch 20	 CrossEntropy 0.6422227025032043 (0.6397815823554993)
Batch 30	 CrossEntropy 0.6521744728088379 (0.6372794707616171)
Batch 40	 CrossEntropy 0.6205168962478638 (0.6392087548971176)
Finished. Total elapsed time (h:m:s): 0:09:30
- Test Epoch 78/200
  - Loss:  one_hot_mse
    Test Crossentropy: 13.453522023391724, Accuracy(multiclass): 0.4901
==> End Epoch 78/200
==> Start Epoch 79/200
====> Loss:  one_hot_mse
Batch 10	 CrossEntropy 0.638405442237854 (0.6399896323680878)
Batch 20	 CrossEntropy 0.6348748207092285 (0.638396680355072)
Batch 30	 CrossEntropy 0.6399807333946228 (0.6392537613709768)
Batch 40	 CrossEntropy 0.6548742055892944 (0.6374945029616356)
Finished. Total elapsed time (h:m:s): 0:09:37
- Test Epoch 79/200
  - Loss:  one_hot_mse
    Test Crossentropy: 13.511249759674072, Accuracy(multiclass): 0.4882
==> End Epoch 79/200
==> Start Epoch 80/200
====> Loss:  one_hot_mse
Batch 10	 CrossEntropy 0.6206728219985962 (0.6391466677188873)
Batch 20	 CrossEntropy 0.6460641622543335 (0.6370090633630753)
Batch 30	 CrossEntropy 0.6561039686203003 (0.6382339119911193)
Batch 40	 CrossEntropy 0.623759388923645 (0.6385542377829552)
Finished. Total elapsed time (h:m:s): 0:09:44
- Test Epoch 80/200
  - Loss:  one_hot_mse
    Test Crossentropy: 13.48336607131958, Accuracy(multiclass): 0.4852
----set best weight to orig_model
  --winner: one_hot_mse (0)
==> End Epoch 80/200
==> Start Epoch 81/200
----clone orig_model
====> Loss:  one_hot_mse
Batch 10	 CrossEntropy 0.641365110874176 (0.6519254744052887)
Batch 20	 CrossEntropy 0.6311424970626831 (0.6444319546222687)
Batch 30	 CrossEntropy 0.651624858379364 (0.6447589536507924)
Batch 40	 CrossEntropy 0.6031549572944641 (0.6422225669026375)
Finished. Total elapsed time (h:m:s): 0:09:52
- Test Epoch 81/200
  - Loss:  one_hot_mse
    Test Crossentropy: 13.564483596801757, Accuracy(multiclass): 0.4951
==> End Epoch 81/200
==> Start Epoch 82/200
====> Loss:  one_hot_mse
Batch 10	 CrossEntropy 0.6540641188621521 (0.6235959529876709)
Batch 20	 CrossEntropy 0.6633920669555664 (0.6286399275064468)
Batch 30	 CrossEntropy 0.6551005840301514 (0.6320167223612467)
Batch 40	 CrossEntropy 0.6411975622177124 (0.6345145836472511)
Finished. Total elapsed time (h:m:s): 0:09:59
- Test Epoch 82/200
  - Loss:  one_hot_mse
    Test Crossentropy: 13.587607893371581, Accuracy(multiclass): 0.4966
==> End Epoch 82/200
==> Start Epoch 83/200
====> Loss:  one_hot_mse
Batch 10	 CrossEntropy 0.6475439667701721 (0.6273427784442902)
Batch 20	 CrossEntropy 0.6282816529273987 (0.6336242824792861)
Batch 30	 CrossEntropy 0.660898745059967 (0.6332200189431508)
Batch 40	 CrossEntropy 0.6262203454971313 (0.6316504910588264)
Finished. Total elapsed time (h:m:s): 0:10:06
- Test Epoch 83/200
  - Loss:  one_hot_mse
    Test Crossentropy: 13.735275174331665, Accuracy(multiclass): 0.4914
==> End Epoch 83/200
==> Start Epoch 84/200
====> Loss:  one_hot_mse
Batch 10	 CrossEntropy 0.6392207145690918 (0.6348169684410095)
Batch 20	 CrossEntropy 0.6218301057815552 (0.6346672356128693)
Batch 30	 CrossEntropy 0.6368950605392456 (0.6331624587376913)
Batch 40	 CrossEntropy 0.6262069940567017 (0.6324410676956177)
Finished. Total elapsed time (h:m:s): 0:10:14
- Test Epoch 84/200
  - Loss:  one_hot_mse
    Test Crossentropy: 13.917352166748048, Accuracy(multiclass): 0.4948
==> End Epoch 84/200
==> Start Epoch 85/200
====> Loss:  one_hot_mse
Batch 10	 CrossEntropy 0.6404749155044556 (0.6337423980236053)
Batch 20	 CrossEntropy 0.6358312368392944 (0.634087273478508)
Batch 30	 CrossEntropy 0.6234951615333557 (0.6300019065539042)
Batch 40	 CrossEntropy 0.6412622332572937 (0.6314683794975281)
Finished. Total elapsed time (h:m:s): 0:10:21
- Test Epoch 85/200
  - Loss:  one_hot_mse
    Test Crossentropy: 13.694044334411622, Accuracy(multiclass): 0.4934
==> End Epoch 85/200
==> Start Epoch 86/200
====> Loss:  one_hot_mse
Batch 10	 CrossEntropy 0.6339008808135986 (0.6288063049316406)
Batch 20	 CrossEntropy 0.6236704587936401 (0.6310478955507278)
Batch 30	 CrossEntropy 0.6234434843063354 (0.6280150155226389)
Batch 40	 CrossEntropy 0.6478683948516846 (0.6291204065084457)
Finished. Total elapsed time (h:m:s): 0:10:29
- Test Epoch 86/200
  - Loss:  one_hot_mse
    Test Crossentropy: 13.843855660247803, Accuracy(multiclass): 0.4888
==> End Epoch 86/200
==> Start Epoch 87/200
====> Loss:  one_hot_mse
Batch 10	 CrossEntropy 0.652953565120697 (0.6269149780273438)
Batch 20	 CrossEntropy 0.6406664848327637 (0.6284402728080749)
Batch 30	 CrossEntropy 0.6196240186691284 (0.6273076593875885)
Batch 40	 CrossEntropy 0.6525453329086304 (0.6291811928153038)
Finished. Total elapsed time (h:m:s): 0:10:37
- Test Epoch 87/200
  - Loss:  one_hot_mse
    Test Crossentropy: 13.92710722618103, Accuracy(multiclass): 0.4979
==> End Epoch 87/200
==> Start Epoch 88/200
====> Loss:  one_hot_mse
Batch 10	 CrossEntropy 0.6374527215957642 (0.6286509513854981)
Batch 20	 CrossEntropy 0.6464446783065796 (0.6291385173797608)
Batch 30	 CrossEntropy 0.6295499205589294 (0.6294517676035564)
Batch 40	 CrossEntropy 0.6521275043487549 (0.6285027787089348)
Finished. Total elapsed time (h:m:s): 0:10:44
- Test Epoch 88/200
  - Loss:  one_hot_mse
    Test Crossentropy: 13.948429720687866, Accuracy(multiclass): 0.4925
==> End Epoch 88/200
==> Start Epoch 89/200
====> Loss:  one_hot_mse
Batch 10	 CrossEntropy 0.612704336643219 (0.6272137641906739)
Batch 20	 CrossEntropy 0.6266950368881226 (0.627692985534668)
Batch 30	 CrossEntropy 0.6064245700836182 (0.6279143234093983)
Batch 40	 CrossEntropy 0.6159363985061646 (0.6276665970683097)
Finished. Total elapsed time (h:m:s): 0:10:51
- Test Epoch 89/200
  - Loss:  one_hot_mse
    Test Crossentropy: 13.7314350440979, Accuracy(multiclass): 0.4943
==> End Epoch 89/200
==> Start Epoch 90/200
====> Loss:  one_hot_mse
Batch 10	 CrossEntropy 0.6219453811645508 (0.626483952999115)
Batch 20	 CrossEntropy 0.6240506172180176 (0.6249120891094208)
Batch 30	 CrossEntropy 0.6252058744430542 (0.6261523365974426)
Batch 40	 CrossEntropy 0.6318309903144836 (0.6251624584197998)
Finished. Total elapsed time (h:m:s): 0:10:59
- Test Epoch 90/200
  - Loss:  one_hot_mse
    Test Crossentropy: 14.34412822341919, Accuracy(multiclass): 0.4948
----set best weight to orig_model
  --winner: one_hot_mse (0)
==> End Epoch 90/200
==> Start Epoch 91/200
----clone orig_model
====> Loss:  one_hot_mse
Batch 10	 CrossEntropy 0.6439286470413208 (0.644253385066986)
Batch 20	 CrossEntropy 0.6354179382324219 (0.6374028533697128)
Batch 30	 CrossEntropy 0.613465428352356 (0.6337927540143331)
Batch 40	 CrossEntropy 0.6366832256317139 (0.6320005312561989)
Finished. Total elapsed time (h:m:s): 0:11:06
- Test Epoch 91/200
  - Loss:  one_hot_mse
    Test Crossentropy: 14.230296685791016, Accuracy(multiclass): 0.4962
==> End Epoch 91/200
==> Start Epoch 92/200
====> Loss:  one_hot_mse
Batch 10	 CrossEntropy 0.6137093305587769 (0.6273681402206421)
Batch 20	 CrossEntropy 0.6222255229949951 (0.6279344677925109)
Batch 30	 CrossEntropy 0.6348350048065186 (0.6260344405968984)
Batch 40	 CrossEntropy 0.6154152750968933 (0.6263327673077583)
Finished. Total elapsed time (h:m:s): 0:11:14
- Test Epoch 92/200
  - Loss:  one_hot_mse
    Test Crossentropy: 14.32733699569702, Accuracy(multiclass): 0.4985
==> End Epoch 92/200
==> Start Epoch 93/200
====> Loss:  one_hot_mse
Batch 10	 CrossEntropy 0.6001343727111816 (0.6152882516384125)
Batch 20	 CrossEntropy 0.6185329556465149 (0.6167689949274063)
Batch 30	 CrossEntropy 0.6155680418014526 (0.6213894168535868)
Batch 40	 CrossEntropy 0.6104239225387573 (0.6223431274294853)
Finished. Total elapsed time (h:m:s): 0:11:21
- Test Epoch 93/200
  - Loss:  one_hot_mse
    Test Crossentropy: 14.345482582855224, Accuracy(multiclass): 0.4974
==> End Epoch 93/200
==> Start Epoch 94/200
====> Loss:  one_hot_mse
Batch 10	 CrossEntropy 0.6187494993209839 (0.6253647089004517)
Batch 20	 CrossEntropy 0.632105827331543 (0.6200614303350449)
Batch 30	 CrossEntropy 0.654974102973938 (0.6215409179528554)
Batch 40	 CrossEntropy 0.6159228086471558 (0.6213975012302398)
Finished. Total elapsed time (h:m:s): 0:11:28
- Test Epoch 94/200
  - Loss:  one_hot_mse
    Test Crossentropy: 14.694475311279296, Accuracy(multiclass): 0.4898
==> End Epoch 94/200
==> Start Epoch 95/200
====> Loss:  one_hot_mse
Batch 10	 CrossEntropy 0.6369657516479492 (0.6293985843658447)
Batch 20	 CrossEntropy 0.6354465484619141 (0.6276422619819642)
Batch 30	 CrossEntropy 0.6062850952148438 (0.6255374113718669)
Batch 40	 CrossEntropy 0.6324187517166138 (0.6264572411775589)
Finished. Total elapsed time (h:m:s): 0:11:36
- Test Epoch 95/200
  - Loss:  one_hot_mse
    Test Crossentropy: 14.159132391357423, Accuracy(multiclass): 0.5013
==> End Epoch 95/200
==> Start Epoch 96/200
====> Loss:  one_hot_mse
Batch 10	 CrossEntropy 0.6198660731315613 (0.6261229813098907)
Batch 20	 CrossEntropy 0.5964816808700562 (0.6198887556791306)
Batch 30	 CrossEntropy 0.6258060932159424 (0.6226705729961395)
Batch 40	 CrossEntropy 0.6238434314727783 (0.6240029662847519)
Finished. Total elapsed time (h:m:s): 0:11:43
- Test Epoch 96/200
  - Loss:  one_hot_mse
    Test Crossentropy: 14.551432486724854, Accuracy(multiclass): 0.4884
==> End Epoch 96/200
==> Start Epoch 97/200
====> Loss:  one_hot_mse
Batch 10	 CrossEntropy 0.5966650247573853 (0.6195230901241302)
Batch 20	 CrossEntropy 0.6171983480453491 (0.6224066108465195)
Batch 30	 CrossEntropy 0.6076375246047974 (0.6188345313072204)
Batch 40	 CrossEntropy 0.6466854810714722 (0.6206393659114837)
Finished. Total elapsed time (h:m:s): 0:11:51
- Test Epoch 97/200
  - Loss:  one_hot_mse
    Test Crossentropy: 14.643883985519409, Accuracy(multiclass): 0.4997
==> End Epoch 97/200
==> Start Epoch 98/200
====> Loss:  one_hot_mse
Batch 10	 CrossEntropy 0.6423847675323486 (0.6166086077690125)
Batch 20	 CrossEntropy 0.6231405735015869 (0.6206600517034531)
Batch 30	 CrossEntropy 0.6115614175796509 (0.619404011964798)
Batch 40	 CrossEntropy 0.6232610940933228 (0.6195506855845452)
Finished. Total elapsed time (h:m:s): 0:11:58
- Test Epoch 98/200
  - Loss:  one_hot_mse
    Test Crossentropy: 14.298937368774414, Accuracy(multiclass): 0.498
==> End Epoch 98/200
==> Start Epoch 99/200
====> Loss:  one_hot_mse
Batch 10	 CrossEntropy 0.6412167549133301 (0.6211202383041382)
Batch 20	 CrossEntropy 0.6329357028007507 (0.6225655764341355)
Batch 30	 CrossEntropy 0.597968578338623 (0.6200090448061625)
Batch 40	 CrossEntropy 0.6006973385810852 (0.6175979971885681)
Finished. Total elapsed time (h:m:s): 0:12:05
- Test Epoch 99/200
  - Loss:  one_hot_mse
    Test Crossentropy: 14.46542102508545, Accuracy(multiclass): 0.4997
==> End Epoch 99/200
==> Start Epoch 100/200
====> Loss:  one_hot_mse
Batch 10	 CrossEntropy 0.6087371110916138 (0.6135905623435974)
Batch 20	 CrossEntropy 0.642877459526062 (0.6134543269872665)
Batch 30	 CrossEntropy 0.5852451324462891 (0.614152709643046)
Batch 40	 CrossEntropy 0.6177179217338562 (0.6130106300115585)
Finished. Total elapsed time (h:m:s): 0:12:12
- Test Epoch 100/200
  - Loss:  one_hot_mse
    Test Crossentropy: 15.249842999649047, Accuracy(multiclass): 0.4924
----set best weight to orig_model
  --winner: one_hot_mse (0)
==> End Epoch 100/200
==> Start Epoch 101/200
----clone orig_model
====> Loss:  one_hot_mse
Batch 10	 CrossEntropy 0.6370542645454407 (0.6439646780490875)
Batch 20	 CrossEntropy 0.624567985534668 (0.6388566195964813)
Batch 30	 CrossEntropy 0.6034697890281677 (0.6344990074634552)
Batch 40	 CrossEntropy 0.6374553442001343 (0.6309889733791352)
Finished. Total elapsed time (h:m:s): 0:12:19
- Test Epoch 101/200
  - Loss:  one_hot_mse
    Test Crossentropy: 14.462939815139771, Accuracy(multiclass): 0.4973
==> End Epoch 101/200
==> Start Epoch 102/200
====> Loss:  one_hot_mse
Batch 10	 CrossEntropy 0.6321781873703003 (0.6121525764465332)
Batch 20	 CrossEntropy 0.6144911050796509 (0.6127501904964447)
Batch 30	 CrossEntropy 0.6166450381278992 (0.6138398230075837)
Batch 40	 CrossEntropy 0.6195452213287354 (0.6132492676377297)
Finished. Total elapsed time (h:m:s): 0:12:26
- Test Epoch 102/200
  - Loss:  one_hot_mse
    Test Crossentropy: 14.959891778564453, Accuracy(multiclass): 0.5006
==> End Epoch 102/200
==> Start Epoch 103/200
====> Loss:  one_hot_mse
Batch 10	 CrossEntropy 0.6444599628448486 (0.6106455862522125)
Batch 20	 CrossEntropy 0.6137396097183228 (0.6132062673568726)
Batch 30	 CrossEntropy 0.6331272125244141 (0.6136295557022095)
Batch 40	 CrossEntropy 0.5968751311302185 (0.6123658671975136)
Finished. Total elapsed time (h:m:s): 0:12:34
- Test Epoch 103/200
  - Loss:  one_hot_mse
    Test Crossentropy: 15.10745640449524, Accuracy(multiclass): 0.5021
==> End Epoch 103/200
==> Start Epoch 104/200
====> Loss:  one_hot_mse
Batch 10	 CrossEntropy 0.613473653793335 (0.6134320199489594)
Batch 20	 CrossEntropy 0.6475207805633545 (0.610180801153183)
Batch 30	 CrossEntropy 0.584984540939331 (0.6104714790980021)
Batch 40	 CrossEntropy 0.5764776468276978 (0.6114090144634247)
Finished. Total elapsed time (h:m:s): 0:12:41
- Test Epoch 104/200
  - Loss:  one_hot_mse
    Test Crossentropy: 15.180320067977906, Accuracy(multiclass): 0.5007
==> End Epoch 104/200
==> Start Epoch 105/200
====> Loss:  one_hot_mse
Batch 10	 CrossEntropy 0.6264708042144775 (0.6148455023765564)
Batch 20	 CrossEntropy 0.606673002243042 (0.6113960355520248)
Batch 30	 CrossEntropy 0.5908390283584595 (0.609032130241394)
Batch 40	 CrossEntropy 0.6256923675537109 (0.6100006565451622)
Finished. Total elapsed time (h:m:s): 0:12:48
- Test Epoch 105/200
  - Loss:  one_hot_mse
    Test Crossentropy: 15.199996800231933, Accuracy(multiclass): 0.5032
==> End Epoch 105/200
==> Start Epoch 106/200
====> Loss:  one_hot_mse
Batch 10	 CrossEntropy 0.5847027897834778 (0.6102178275585175)
Batch 20	 CrossEntropy 0.6262457966804504 (0.6115286976099015)
Batch 30	 CrossEntropy 0.626512885093689 (0.615028993288676)
Batch 40	 CrossEntropy 0.6250554323196411 (0.618740762770176)
Finished. Total elapsed time (h:m:s): 0:12:56
- Test Epoch 106/200
  - Loss:  one_hot_mse
    Test Crossentropy: 15.385166027069092, Accuracy(multiclass): 0.5018
==> End Epoch 106/200
==> Start Epoch 107/200
====> Loss:  one_hot_mse
Batch 10	 CrossEntropy 0.624209463596344 (0.6187032341957093)
Batch 20	 CrossEntropy 0.615585207939148 (0.6166532456874847)
Batch 30	 CrossEntropy 0.5956568717956543 (0.6134754121303558)
Batch 40	 CrossEntropy 0.6102117896080017 (0.6113212183117867)
Finished. Total elapsed time (h:m:s): 0:13:03
- Test Epoch 107/200
  - Loss:  one_hot_mse
    Test Crossentropy: 15.275039961242676, Accuracy(multiclass): 0.5019
==> End Epoch 107/200
==> Start Epoch 108/200
====> Loss:  one_hot_mse
Batch 10	 CrossEntropy 0.6139127016067505 (0.6082361936569214)
Batch 20	 CrossEntropy 0.5972728729248047 (0.608673733472824)
Batch 30	 CrossEntropy 0.6269254088401794 (0.6103298385938009)
Batch 40	 CrossEntropy 0.5877461433410645 (0.6085326954722404)
Finished. Total elapsed time (h:m:s): 0:13:11
- Test Epoch 108/200
  - Loss:  one_hot_mse
    Test Crossentropy: 15.283669332122802, Accuracy(multiclass): 0.5024
==> End Epoch 108/200
==> Start Epoch 109/200
====> Loss:  one_hot_mse
Batch 10	 CrossEntropy 0.603033185005188 (0.6053079068660736)
Batch 20	 CrossEntropy 0.6330878734588623 (0.6030967921018601)
Batch 30	 CrossEntropy 0.6361017227172852 (0.6056127985318501)
Batch 40	 CrossEntropy 0.6448380947113037 (0.6087216973304749)
Finished. Total elapsed time (h:m:s): 0:13:18
- Test Epoch 109/200
  - Loss:  one_hot_mse
    Test Crossentropy: 15.172079324340821, Accuracy(multiclass): 0.503
==> End Epoch 109/200
==> Start Epoch 110/200
====> Loss:  one_hot_mse
Batch 10	 CrossEntropy 0.5922186970710754 (0.6035619795322418)
Batch 20	 CrossEntropy 0.582993745803833 (0.6044667094945908)
Batch 30	 CrossEntropy 0.6294128894805908 (0.6050763487815857)
Batch 40	 CrossEntropy 0.606087327003479 (0.6052024945616722)
Finished. Total elapsed time (h:m:s): 0:13:25
- Test Epoch 110/200
  - Loss:  one_hot_mse
    Test Crossentropy: 15.43415376586914, Accuracy(multiclass): 0.5019
----set best weight to orig_model
  --winner: one_hot_mse (0)
==> End Epoch 110/200
==> Start Epoch 111/200
----clone orig_model
====> Loss:  one_hot_mse
Batch 10	 CrossEntropy 0.6320552825927734 (0.6482593774795532)
Batch 20	 CrossEntropy 0.6565863490104675 (0.6417019605636597)
Batch 30	 CrossEntropy 0.6280327439308167 (0.6312664111455282)
Batch 40	 CrossEntropy 0.6060328483581543 (0.6253008961677551)
Finished. Total elapsed time (h:m:s): 0:13:32
- Test Epoch 111/200
  - Loss:  one_hot_mse
    Test Crossentropy: 15.614982034683228, Accuracy(multiclass): 0.5062
==> End Epoch 111/200
==> Start Epoch 112/200
====> Loss:  one_hot_mse
Batch 10	 CrossEntropy 0.5937216281890869 (0.6000675141811371)
Batch 20	 CrossEntropy 0.5993931293487549 (0.6048937708139419)
Batch 30	 CrossEntropy 0.5970902442932129 (0.6051500976085663)
Batch 40	 CrossEntropy 0.610831618309021 (0.6065541714429855)
Finished. Total elapsed time (h:m:s): 0:13:39
- Test Epoch 112/200
  - Loss:  one_hot_mse
    Test Crossentropy: 15.472247755813598, Accuracy(multiclass): 0.504
==> End Epoch 112/200
==> Start Epoch 113/200
====> Loss:  one_hot_mse
Batch 10	 CrossEntropy 0.583380401134491 (0.6060836017131805)
Batch 20	 CrossEntropy 0.5648484230041504 (0.6020765721797943)
Batch 30	 CrossEntropy 0.6281085014343262 (0.603905302286148)
Batch 40	 CrossEntropy 0.6025789380073547 (0.6042509913444519)
Finished. Total elapsed time (h:m:s): 0:13:46
- Test Epoch 113/200
  - Loss:  one_hot_mse
    Test Crossentropy: 15.793673787689208, Accuracy(multiclass): 0.5026
==> End Epoch 113/200
==> Start Epoch 114/200
====> Loss:  one_hot_mse
Batch 10	 CrossEntropy 0.6039614081382751 (0.6039373338222503)
Batch 20	 CrossEntropy 0.5824117064476013 (0.6023479878902436)
Batch 30	 CrossEntropy 0.6182150840759277 (0.6035411298274994)
Batch 40	 CrossEntropy 0.6090133190155029 (0.6051488369703293)
Finished. Total elapsed time (h:m:s): 0:13:53
- Test Epoch 114/200
  - Loss:  one_hot_mse
    Test Crossentropy: 15.577122023010254, Accuracy(multiclass): 0.5025
==> End Epoch 114/200
==> Start Epoch 115/200
====> Loss:  one_hot_mse
Batch 10	 CrossEntropy 0.5738415718078613 (0.6017610847949981)
Batch 20	 CrossEntropy 0.6085694432258606 (0.6031139880418778)
Batch 30	 CrossEntropy 0.6019859313964844 (0.6031479358673095)
Batch 40	 CrossEntropy 0.6066809892654419 (0.6042048364877701)
Finished. Total elapsed time (h:m:s): 0:14:00
- Test Epoch 115/200
  - Loss:  one_hot_mse
    Test Crossentropy: 15.658233598709106, Accuracy(multiclass): 0.5017
==> End Epoch 115/200
==> Start Epoch 116/200
====> Loss:  one_hot_mse
Batch 10	 CrossEntropy 0.6163544654846191 (0.6095287680625916)
Batch 20	 CrossEntropy 0.5989216566085815 (0.6051714658737183)
Batch 30	 CrossEntropy 0.5934754610061646 (0.6034955541292827)
Batch 40	 CrossEntropy 0.6176219582557678 (0.6040079951286316)
Finished. Total elapsed time (h:m:s): 0:14:08
- Test Epoch 116/200
  - Loss:  one_hot_mse
    Test Crossentropy: 16.01135426864624, Accuracy(multiclass): 0.5065
==> End Epoch 116/200
==> Start Epoch 117/200
====> Loss:  one_hot_mse
Batch 10	 CrossEntropy 0.5827312469482422 (0.5950689017772675)
Batch 20	 CrossEntropy 0.5951306223869324 (0.5971496731042862)
Batch 30	 CrossEntropy 0.6325823068618774 (0.6016298671563466)
Batch 40	 CrossEntropy 0.6169394850730896 (0.6024996772408485)
Finished. Total elapsed time (h:m:s): 0:14:15
- Test Epoch 117/200
  - Loss:  one_hot_mse
    Test Crossentropy: 15.527549787902831, Accuracy(multiclass): 0.5087
==> End Epoch 117/200
==> Start Epoch 118/200
====> Loss:  one_hot_mse
Batch 10	 CrossEntropy 0.5693687796592712 (0.5945896685123444)
Batch 20	 CrossEntropy 0.6019709706306458 (0.597176992893219)
Batch 30	 CrossEntropy 0.5902902483940125 (0.5973345518112183)
Batch 40	 CrossEntropy 0.5759180784225464 (0.5980714559555054)
Finished. Total elapsed time (h:m:s): 0:14:22
- Test Epoch 118/200
  - Loss:  one_hot_mse
    Test Crossentropy: 16.072161353302, Accuracy(multiclass): 0.5043
==> End Epoch 118/200
==> Start Epoch 119/200
====> Loss:  one_hot_mse
Batch 10	 CrossEntropy 0.5957256555557251 (0.5940857410430909)
Batch 20	 CrossEntropy 0.6100391745567322 (0.5974684059619904)
Batch 30	 CrossEntropy 0.6295116543769836 (0.5996262192726135)
Batch 40	 CrossEntropy 0.6087417006492615 (0.6009912088513374)
Finished. Total elapsed time (h:m:s): 0:14:29
- Test Epoch 119/200
  - Loss:  one_hot_mse
    Test Crossentropy: 16.285547843933106, Accuracy(multiclass): 0.504
==> End Epoch 119/200
==> Start Epoch 120/200
====> Loss:  one_hot_mse
Batch 10	 CrossEntropy 0.6279260516166687 (0.6046361207962037)
Batch 20	 CrossEntropy 0.6167491674423218 (0.6064545184373855)
Batch 30	 CrossEntropy 0.5791701078414917 (0.6102408985296885)
Batch 40	 CrossEntropy 0.5880486965179443 (0.6087000817060471)
Finished. Total elapsed time (h:m:s): 0:14:36
- Test Epoch 120/200
  - Loss:  one_hot_mse
    Test Crossentropy: 15.933343362045289, Accuracy(multiclass): 0.5029
----set best weight to orig_model
  --winner: one_hot_mse (0)
==> End Epoch 120/200
==> Start Epoch 121/200
----clone orig_model
====> Loss:  one_hot_mse
Batch 10	 CrossEntropy 0.6003386378288269 (0.6270274937152862)
Batch 20	 CrossEntropy 0.5881928205490112 (0.6224487096071243)
Batch 30	 CrossEntropy 0.6151331663131714 (0.6182159662246705)
Batch 40	 CrossEntropy 0.6001859903335571 (0.6142397865653038)
Finished. Total elapsed time (h:m:s): 0:14:44
- Test Epoch 121/200
  - Loss:  one_hot_mse
    Test Crossentropy: 16.257610775756834, Accuracy(multiclass): 0.5039
==> End Epoch 121/200
==> Start Epoch 122/200
====> Loss:  one_hot_mse
Batch 10	 CrossEntropy 0.5906529426574707 (0.6034597456455231)
Batch 20	 CrossEntropy 0.6307113766670227 (0.6026029497385025)
Batch 30	 CrossEntropy 0.6196123957633972 (0.6003738303979238)
Batch 40	 CrossEntropy 0.6113296747207642 (0.6002373844385147)
Finished. Total elapsed time (h:m:s): 0:14:51
- Test Epoch 122/200
  - Loss:  one_hot_mse
    Test Crossentropy: 16.541745765686034, Accuracy(multiclass): 0.5052
==> End Epoch 122/200
==> Start Epoch 123/200
====> Loss:  one_hot_mse
Batch 10	 CrossEntropy 0.5827151536941528 (0.5929016411304474)
Batch 20	 CrossEntropy 0.6249775290489197 (0.5951499223709107)
Batch 30	 CrossEntropy 0.6086527109146118 (0.5991332590579986)
Batch 40	 CrossEntropy 0.5726103782653809 (0.6004422456026077)
Finished. Total elapsed time (h:m:s): 0:14:58
- Test Epoch 123/200
  - Loss:  one_hot_mse
    Test Crossentropy: 16.43081828956604, Accuracy(multiclass): 0.5028
==> End Epoch 123/200
==> Start Epoch 124/200
====> Loss:  one_hot_mse
Batch 10	 CrossEntropy 0.5963525176048279 (0.5973257541656494)
Batch 20	 CrossEntropy 0.5955053567886353 (0.5932592213153839)
Batch 30	 CrossEntropy 0.601265013217926 (0.5951079666614533)
Batch 40	 CrossEntropy 0.5929666757583618 (0.5953751221299172)
Finished. Total elapsed time (h:m:s): 0:15:05
- Test Epoch 124/200
  - Loss:  one_hot_mse
    Test Crossentropy: 16.45992883453369, Accuracy(multiclass): 0.5009
==> End Epoch 124/200
==> Start Epoch 125/200
====> Loss:  one_hot_mse
Batch 10	 CrossEntropy 0.5903701782226562 (0.5907331347465515)
Batch 20	 CrossEntropy 0.5924368500709534 (0.5902457892894745)
Batch 30	 CrossEntropy 0.5885012745857239 (0.594725473721822)
Batch 40	 CrossEntropy 0.5890892744064331 (0.5955832242965698)
Finished. Total elapsed time (h:m:s): 0:15:13
- Test Epoch 125/200
  - Loss:  one_hot_mse
    Test Crossentropy: 16.886397259140015, Accuracy(multiclass): 0.5061
==> End Epoch 125/200
==> Start Epoch 126/200
====> Loss:  one_hot_mse
Batch 10	 CrossEntropy 0.6118501424789429 (0.5917088389396667)
Batch 20	 CrossEntropy 0.617847204208374 (0.5957442104816437)
Batch 30	 CrossEntropy 0.5914384126663208 (0.5975472827752432)
Batch 40	 CrossEntropy 0.5950244665145874 (0.5973050519824028)
Finished. Total elapsed time (h:m:s): 0:15:21
- Test Epoch 126/200
  - Loss:  one_hot_mse
    Test Crossentropy: 16.51959854736328, Accuracy(multiclass): 0.4972
==> End Epoch 126/200
==> Start Epoch 127/200
====> Loss:  one_hot_mse
Batch 10	 CrossEntropy 0.5900170803070068 (0.6110807955265045)
Batch 20	 CrossEntropy 0.6175261735916138 (0.6094121307134628)
Batch 30	 CrossEntropy 0.578524112701416 (0.6038814802964528)
Batch 40	 CrossEntropy 0.5901986956596375 (0.6028994664549827)
Finished. Total elapsed time (h:m:s): 0:15:29
- Test Epoch 127/200
  - Loss:  one_hot_mse
    Test Crossentropy: 16.482148748016357, Accuracy(multiclass): 0.5082
==> End Epoch 127/200
==> Start Epoch 128/200
====> Loss:  one_hot_mse
Batch 10	 CrossEntropy 0.5969905853271484 (0.5898566603660583)
Batch 20	 CrossEntropy 0.588608980178833 (0.5935122102499009)
Batch 30	 CrossEntropy 0.589431881904602 (0.5889680365721385)
Batch 40	 CrossEntropy 0.5883646011352539 (0.5910886406898499)
Finished. Total elapsed time (h:m:s): 0:15:36
- Test Epoch 128/200
  - Loss:  one_hot_mse
    Test Crossentropy: 16.715463534164428, Accuracy(multiclass): 0.505
==> End Epoch 128/200
==> Start Epoch 129/200
====> Loss:  one_hot_mse
Batch 10	 CrossEntropy 0.5736732482910156 (0.5956686079502106)
Batch 20	 CrossEntropy 0.6098674535751343 (0.5954537957906723)
Batch 30	 CrossEntropy 0.5905275940895081 (0.5963806887467702)
Batch 40	 CrossEntropy 0.5779651999473572 (0.5938105747103691)
Finished. Total elapsed time (h:m:s): 0:15:44
- Test Epoch 129/200
  - Loss:  one_hot_mse
    Test Crossentropy: 17.037583854293825, Accuracy(multiclass): 0.5062
==> End Epoch 129/200
==> Start Epoch 130/200
====> Loss:  one_hot_mse
Batch 10	 CrossEntropy 0.6018401384353638 (0.5913737714290619)
Batch 20	 CrossEntropy 0.5766540169715881 (0.5923788368701934)
Batch 30	 CrossEntropy 0.5839314460754395 (0.5915031055609385)
Batch 40	 CrossEntropy 0.5612732172012329 (0.5914133414626122)
Finished. Total elapsed time (h:m:s): 0:15:51
- Test Epoch 130/200
  - Loss:  one_hot_mse
    Test Crossentropy: 16.945065969085693, Accuracy(multiclass): 0.5057
----set best weight to orig_model
  --winner: one_hot_mse (0)
==> End Epoch 130/200
==> Start Epoch 131/200
----clone orig_model
====> Loss:  one_hot_mse
Batch 10	 CrossEntropy 0.6512824892997742 (0.6286067187786102)
Batch 20	 CrossEntropy 0.6223581433296204 (0.6185026288032531)
Batch 30	 CrossEntropy 0.5850781202316284 (0.6149232049783071)
Batch 40	 CrossEntropy 0.5758748054504395 (0.6109507277607917)
Finished. Total elapsed time (h:m:s): 0:15:59
- Test Epoch 131/200
  - Loss:  one_hot_mse
    Test Crossentropy: 16.78599799041748, Accuracy(multiclass): 0.5036
==> End Epoch 131/200
==> Start Epoch 132/200
====> Loss:  one_hot_mse
Batch 10	 CrossEntropy 0.5716460347175598 (0.5903642535209656)
Batch 20	 CrossEntropy 0.5500380992889404 (0.5898231744766236)
Batch 30	 CrossEntropy 0.594684362411499 (0.5920084873835246)
Batch 40	 CrossEntropy 0.5924389362335205 (0.5896505728363991)
Finished. Total elapsed time (h:m:s): 0:16:06
- Test Epoch 132/200
  - Loss:  one_hot_mse
    Test Crossentropy: 17.1890143283844, Accuracy(multiclass): 0.5058
==> End Epoch 132/200
==> Start Epoch 133/200
====> Loss:  one_hot_mse
Batch 10	 CrossEntropy 0.5827499628067017 (0.591287624835968)
Batch 20	 CrossEntropy 0.5993739366531372 (0.5897862404584885)
Batch 30	 CrossEntropy 0.5842299461364746 (0.5907615959644318)
Batch 40	 CrossEntropy 0.590573787689209 (0.5904715120792389)
Finished. Total elapsed time (h:m:s): 0:16:13
- Test Epoch 133/200
  - Loss:  one_hot_mse
    Test Crossentropy: 17.136509893798827, Accuracy(multiclass): 0.5044
==> End Epoch 133/200
==> Start Epoch 134/200
====> Loss:  one_hot_mse
Batch 10	 CrossEntropy 0.6029682159423828 (0.5869513928890229)
Batch 20	 CrossEntropy 0.5998111963272095 (0.5879685938358307)
Batch 30	 CrossEntropy 0.5945321917533875 (0.5896197577317556)
Batch 40	 CrossEntropy 0.5803022384643555 (0.5899271428585052)
Finished. Total elapsed time (h:m:s): 0:16:20
- Test Epoch 134/200
  - Loss:  one_hot_mse
    Test Crossentropy: 17.276318817138673, Accuracy(multiclass): 0.5042
==> End Epoch 134/200
==> Start Epoch 135/200
====> Loss:  one_hot_mse
Batch 10	 CrossEntropy 0.5803691148757935 (0.5920199275016784)
Batch 20	 CrossEntropy 0.5938074588775635 (0.5881260335445404)
Batch 30	 CrossEntropy 0.6020225882530212 (0.5905296246210734)
Batch 40	 CrossEntropy 0.6063182950019836 (0.5912085324525833)
Finished. Total elapsed time (h:m:s): 0:16:27
- Test Epoch 135/200
  - Loss:  one_hot_mse
    Test Crossentropy: 17.03492450790405, Accuracy(multiclass): 0.5041
==> End Epoch 135/200
==> Start Epoch 136/200
====> Loss:  one_hot_mse
Batch 10	 CrossEntropy 0.5702704191207886 (0.5858564674854279)
Batch 20	 CrossEntropy 0.5791953802108765 (0.5938303738832473)
Batch 30	 CrossEntropy 0.6007061004638672 (0.5930911421775817)
Batch 40	 CrossEntropy 0.6050376892089844 (0.5910965919494628)
Finished. Total elapsed time (h:m:s): 0:16:34
- Test Epoch 136/200
  - Loss:  one_hot_mse
    Test Crossentropy: 17.130365614318848, Accuracy(multiclass): 0.5102
==> End Epoch 136/200
==> Start Epoch 137/200
====> Loss:  one_hot_mse
Batch 10	 CrossEntropy 0.5997046232223511 (0.5808014690876007)
Batch 20	 CrossEntropy 0.5640134811401367 (0.583310866355896)
Batch 30	 CrossEntropy 0.6088998317718506 (0.583871473868688)
Batch 40	 CrossEntropy 0.5946649312973022 (0.5851072192192077)
Finished. Total elapsed time (h:m:s): 0:16:42
- Test Epoch 137/200
  - Loss:  one_hot_mse
    Test Crossentropy: 17.53960542526245, Accuracy(multiclass): 0.5005
==> End Epoch 137/200
==> Start Epoch 138/200
====> Loss:  one_hot_mse
Batch 10	 CrossEntropy 0.592843770980835 (0.5929901301860809)
Batch 20	 CrossEntropy 0.5696493983268738 (0.5909256339073181)
Batch 30	 CrossEntropy 0.5961979627609253 (0.5892256061236064)
Batch 40	 CrossEntropy 0.586609423160553 (0.5892555236816406)
Finished. Total elapsed time (h:m:s): 0:16:49
- Test Epoch 138/200
  - Loss:  one_hot_mse
    Test Crossentropy: 17.324521256256105, Accuracy(multiclass): 0.5057
==> End Epoch 138/200
==> Start Epoch 139/200
====> Loss:  one_hot_mse
Batch 10	 CrossEntropy 0.5875910520553589 (0.5895957171916961)
Batch 20	 CrossEntropy 0.5722289085388184 (0.584881854057312)
Batch 30	 CrossEntropy 0.5724697113037109 (0.5852169315020244)
Batch 40	 CrossEntropy 0.5687906742095947 (0.586028203368187)
Finished. Total elapsed time (h:m:s): 0:16:57
- Test Epoch 139/200
  - Loss:  one_hot_mse
    Test Crossentropy: 17.511467449951173, Accuracy(multiclass): 0.5022
==> End Epoch 139/200
==> Start Epoch 140/200
====> Loss:  one_hot_mse
Batch 10	 CrossEntropy 0.5619895458221436 (0.5773971617221832)
Batch 20	 CrossEntropy 0.5719271302223206 (0.5780959606170655)
Batch 30	 CrossEntropy 0.5981990694999695 (0.5816992223262787)
Batch 40	 CrossEntropy 0.602668046951294 (0.5824527874588966)
Finished. Total elapsed time (h:m:s): 0:17:04
- Test Epoch 140/200
  - Loss:  one_hot_mse
    Test Crossentropy: 17.53291652793884, Accuracy(multiclass): 0.5077
----set best weight to orig_model
  --winner: one_hot_mse (0)
==> End Epoch 140/200
==> Start Epoch 141/200
----clone orig_model
====> Loss:  one_hot_mse
Batch 10	 CrossEntropy 0.621474027633667 (0.6170064568519592)
Batch 20	 CrossEntropy 0.5826632976531982 (0.6102556258440017)
Batch 30	 CrossEntropy 0.5800703763961792 (0.6029520193735759)
Batch 40	 CrossEntropy 0.5673258304595947 (0.5998647749423981)
Finished. Total elapsed time (h:m:s): 0:17:12
- Test Epoch 141/200
  - Loss:  one_hot_mse
    Test Crossentropy: 17.57502256088257, Accuracy(multiclass): 0.5041
==> End Epoch 141/200
==> Start Epoch 142/200
====> Loss:  one_hot_mse
Batch 10	 CrossEntropy 0.5760751366615295 (0.5827456116676331)
Batch 20	 CrossEntropy 0.6016040444374084 (0.5836006343364716)
Batch 30	 CrossEntropy 0.5787777900695801 (0.5814944227536519)
Batch 40	 CrossEntropy 0.5764955282211304 (0.5824298441410065)
Finished. Total elapsed time (h:m:s): 0:17:19
- Test Epoch 142/200
  - Loss:  one_hot_mse
    Test Crossentropy: 17.60971166305542, Accuracy(multiclass): 0.5029
==> End Epoch 142/200
==> Start Epoch 143/200
====> Loss:  one_hot_mse
Batch 10	 CrossEntropy 0.56246417760849 (0.584625780582428)
Batch 20	 CrossEntropy 0.6170191764831543 (0.5835248082876205)
Batch 30	 CrossEntropy 0.5874674320220947 (0.5822619299093882)
Batch 40	 CrossEntropy 0.5858558416366577 (0.5833861753344536)
Finished. Total elapsed time (h:m:s): 0:17:27
- Test Epoch 143/200
  - Loss:  one_hot_mse
    Test Crossentropy: 17.692825720214845, Accuracy(multiclass): 0.5052
==> End Epoch 143/200
==> Start Epoch 144/200
====> Loss:  one_hot_mse
Batch 10	 CrossEntropy 0.5765883922576904 (0.5803721189498902)
Batch 20	 CrossEntropy 0.5873000621795654 (0.5818887054920197)
Batch 30	 CrossEntropy 0.5683804750442505 (0.5813183049360912)
Batch 40	 CrossEntropy 0.6074917316436768 (0.5817362740635872)
Finished. Total elapsed time (h:m:s): 0:17:34
- Test Epoch 144/200
  - Loss:  one_hot_mse
    Test Crossentropy: 17.94724839401245, Accuracy(multiclass): 0.5057
==> End Epoch 144/200
==> Start Epoch 145/200
====> Loss:  one_hot_mse
Batch 10	 CrossEntropy 0.6039888858795166 (0.5860287845134735)
Batch 20	 CrossEntropy 0.5616036653518677 (0.5821532994508744)
Batch 30	 CrossEntropy 0.556506872177124 (0.5813630481561025)
Batch 40	 CrossEntropy 0.5925759077072144 (0.5815025761723518)
Finished. Total elapsed time (h:m:s): 0:17:41
- Test Epoch 145/200
  - Loss:  one_hot_mse
    Test Crossentropy: 17.776033832931518, Accuracy(multiclass): 0.5096
==> End Epoch 145/200
==> Start Epoch 146/200
====> Loss:  one_hot_mse
Batch 10	 CrossEntropy 0.5793333053588867 (0.5891560196876526)
Batch 20	 CrossEntropy 0.5842698812484741 (0.5867643833160401)
Batch 30	 CrossEntropy 0.5738310813903809 (0.5842455148696899)
Batch 40	 CrossEntropy 0.5752711892127991 (0.5834739357233047)
Finished. Total elapsed time (h:m:s): 0:17:48
- Test Epoch 146/200
  - Loss:  one_hot_mse
    Test Crossentropy: 18.025826358795165, Accuracy(multiclass): 0.5002
==> End Epoch 146/200
==> Start Epoch 147/200
====> Loss:  one_hot_mse
Batch 10	 CrossEntropy 0.5806389451026917 (0.5898198485374451)
Batch 20	 CrossEntropy 0.5833487510681152 (0.5821662843227386)
Batch 30	 CrossEntropy 0.5718585252761841 (0.5828845818837484)
Batch 40	 CrossEntropy 0.5882217884063721 (0.5850980907678605)
Finished. Total elapsed time (h:m:s): 0:17:55
- Test Epoch 147/200
  - Loss:  one_hot_mse
    Test Crossentropy: 17.62692286148071, Accuracy(multiclass): 0.5091
==> End Epoch 147/200
==> Start Epoch 148/200
====> Loss:  one_hot_mse
Batch 10	 CrossEntropy 0.5849759578704834 (0.5805793344974518)
Batch 20	 CrossEntropy 0.5722483396530151 (0.5823770761489868)
Batch 30	 CrossEntropy 0.5536109209060669 (0.5825349688529968)
Batch 40	 CrossEntropy 0.5843247175216675 (0.5825350970029831)
Finished. Total elapsed time (h:m:s): 0:18:03
- Test Epoch 148/200
  - Loss:  one_hot_mse
    Test Crossentropy: 18.100409240722655, Accuracy(multiclass): 0.5094
==> End Epoch 148/200
==> Start Epoch 149/200
====> Loss:  one_hot_mse
Batch 10	 CrossEntropy 0.5727408528327942 (0.5765131831169128)
Batch 20	 CrossEntropy 0.5574970245361328 (0.577653568983078)
Batch 30	 CrossEntropy 0.5822578072547913 (0.5767357726891835)
Batch 40	 CrossEntropy 0.6204155683517456 (0.5777505919337272)
Finished. Total elapsed time (h:m:s): 0:18:11
- Test Epoch 149/200
  - Loss:  one_hot_mse
    Test Crossentropy: 18.094588548278807, Accuracy(multiclass): 0.5098
==> End Epoch 149/200
==> Start Epoch 150/200
====> Loss:  one_hot_mse
Batch 10	 CrossEntropy 0.5936621427536011 (0.5736825048923493)
Batch 20	 CrossEntropy 0.5823915004730225 (0.577635657787323)
Batch 30	 CrossEntropy 0.5630797147750854 (0.5770099937915802)
Batch 40	 CrossEntropy 0.5567173361778259 (0.5781696096062661)
Finished. Total elapsed time (h:m:s): 0:18:18
- Test Epoch 150/200
  - Loss:  one_hot_mse
    Test Crossentropy: 17.856554718017577, Accuracy(multiclass): 0.5088
----set best weight to orig_model
  --winner: one_hot_mse (0)
==> End Epoch 150/200
==> Start Epoch 151/200
----clone orig_model
====> Loss:  one_hot_mse
Batch 10	 CrossEntropy 0.6029597520828247 (0.6363224625587464)
Batch 20	 CrossEntropy 0.6015664339065552 (0.6164267212152481)
Batch 30	 CrossEntropy 0.5973384976387024 (0.6072519063949585)
Batch 40	 CrossEntropy 0.5775941610336304 (0.5999453976750374)
Finished. Total elapsed time (h:m:s): 0:18:25
- Test Epoch 151/200
  - Loss:  one_hot_mse
    Test Crossentropy: 18.30844594268799, Accuracy(multiclass): 0.5108
==> End Epoch 151/200
==> Start Epoch 152/200
====> Loss:  one_hot_mse
Batch 10	 CrossEntropy 0.5539569854736328 (0.5653568625450134)
Batch 20	 CrossEntropy 0.549737811088562 (0.5723720252513885)
Batch 30	 CrossEntropy 0.5425522923469543 (0.5741672734419505)
Batch 40	 CrossEntropy 0.5500816106796265 (0.5750058472156525)
Finished. Total elapsed time (h:m:s): 0:18:32
- Test Epoch 152/200
  - Loss:  one_hot_mse
    Test Crossentropy: 18.423792877578734, Accuracy(multiclass): 0.5065
==> End Epoch 152/200
==> Start Epoch 153/200
====> Loss:  one_hot_mse
Batch 10	 CrossEntropy 0.577360987663269 (0.5731657922267914)
Batch 20	 CrossEntropy 0.5567972660064697 (0.5741469353437424)
Batch 30	 CrossEntropy 0.5904113054275513 (0.5741654793421428)
Batch 40	 CrossEntropy 0.5953496694564819 (0.5760215416550636)
Finished. Total elapsed time (h:m:s): 0:18:39
- Test Epoch 153/200
  - Loss:  one_hot_mse
    Test Crossentropy: 18.36670574951172, Accuracy(multiclass): 0.5104
==> End Epoch 153/200
==> Start Epoch 154/200
====> Loss:  one_hot_mse
Batch 10	 CrossEntropy 0.6048592329025269 (0.5834805727005005)
Batch 20	 CrossEntropy 0.547533392906189 (0.580819645524025)
Batch 30	 CrossEntropy 0.5649968385696411 (0.5794401645660401)
Batch 40	 CrossEntropy 0.5821179151535034 (0.5790678441524506)
Finished. Total elapsed time (h:m:s): 0:18:47
- Test Epoch 154/200
  - Loss:  one_hot_mse
    Test Crossentropy: 18.104035013580322, Accuracy(multiclass): 0.5064
==> End Epoch 154/200
==> Start Epoch 155/200
====> Loss:  one_hot_mse
Batch 10	 CrossEntropy 0.5805749297142029 (0.5755306720733643)
Batch 20	 CrossEntropy 0.5707328915596008 (0.5747046768665314)
Batch 30	 CrossEntropy 0.5670293569564819 (0.5751232822736104)
Batch 40	 CrossEntropy 0.551344633102417 (0.5749240309000015)
Finished. Total elapsed time (h:m:s): 0:18:54
- Test Epoch 155/200
  - Loss:  one_hot_mse
    Test Crossentropy: 18.754240985107423, Accuracy(multiclass): 0.5105
==> End Epoch 155/200
==> Start Epoch 156/200
====> Loss:  one_hot_mse
Batch 10	 CrossEntropy 0.5580723881721497 (0.5693179726600647)
Batch 20	 CrossEntropy 0.5498875379562378 (0.5692129492759704)
Batch 30	 CrossEntropy 0.5695210695266724 (0.5709537943204244)
Batch 40	 CrossEntropy 0.5826082229614258 (0.5732627138495445)
Finished. Total elapsed time (h:m:s): 0:19:02
- Test Epoch 156/200
  - Loss:  one_hot_mse
    Test Crossentropy: 18.556243395233153, Accuracy(multiclass): 0.5072
==> End Epoch 156/200
==> Start Epoch 157/200
====> Loss:  one_hot_mse
Batch 10	 CrossEntropy 0.5853288173675537 (0.5721435546875)
Batch 20	 CrossEntropy 0.5718669891357422 (0.5709046334028244)
Batch 30	 CrossEntropy 0.5619036555290222 (0.5713964680830638)
Batch 40	 CrossEntropy 0.6036134958267212 (0.5738656133413315)
Finished. Total elapsed time (h:m:s): 0:19:09
- Test Epoch 157/200
  - Loss:  one_hot_mse
    Test Crossentropy: 18.76552251625061, Accuracy(multiclass): 0.5052
==> End Epoch 157/200
==> Start Epoch 158/200
====> Loss:  one_hot_mse
Batch 10	 CrossEntropy 0.558760404586792 (0.5749458849430085)
Batch 20	 CrossEntropy 0.5633746981620789 (0.5721417874097824)
Batch 30	 CrossEntropy 0.5959479212760925 (0.5733023663361867)
Batch 40	 CrossEntropy 0.5641112327575684 (0.572582270205021)
Finished. Total elapsed time (h:m:s): 0:19:17
- Test Epoch 158/200
  - Loss:  one_hot_mse
    Test Crossentropy: 18.943187956237793, Accuracy(multiclass): 0.5079
==> End Epoch 158/200
==> Start Epoch 159/200
====> Loss:  one_hot_mse
Batch 10	 CrossEntropy 0.573340117931366 (0.5739863693714142)
Batch 20	 CrossEntropy 0.5811318159103394 (0.5789125978946685)
Batch 30	 CrossEntropy 0.587744951248169 (0.5781224370002747)
Batch 40	 CrossEntropy 0.5707124471664429 (0.5780023276805878)
Finished. Total elapsed time (h:m:s): 0:19:25
- Test Epoch 159/200
  - Loss:  one_hot_mse
    Test Crossentropy: 18.91780623626709, Accuracy(multiclass): 0.5044
==> End Epoch 159/200
==> Start Epoch 160/200
====> Loss:  one_hot_mse
Batch 10	 CrossEntropy 0.5554131269454956 (0.5736141979694367)
Batch 20	 CrossEntropy 0.5913678407669067 (0.5793451875448227)
Batch 30	 CrossEntropy 0.5917879343032837 (0.5802655577659607)
Batch 40	 CrossEntropy 0.5585211515426636 (0.5789213642477989)
Finished. Total elapsed time (h:m:s): 0:19:32
- Test Epoch 160/200
  - Loss:  one_hot_mse
    Test Crossentropy: 19.041753201293947, Accuracy(multiclass): 0.509
----set best weight to orig_model
  --winner: one_hot_mse (0)
==> End Epoch 160/200
==> Start Epoch 161/200
----clone orig_model
====> Loss:  one_hot_mse
Batch 10	 CrossEntropy 0.5999366044998169 (0.6054490029811859)
Batch 20	 CrossEntropy 0.5880368947982788 (0.5978066563606262)
Batch 30	 CrossEntropy 0.5705427527427673 (0.5940369049708049)
Batch 40	 CrossEntropy 0.5736204385757446 (0.5897858425974846)
Finished. Total elapsed time (h:m:s): 0:19:39
- Test Epoch 161/200
  - Loss:  one_hot_mse
    Test Crossentropy: 19.051656076812744, Accuracy(multiclass): 0.512
==> End Epoch 161/200
==> Start Epoch 162/200
====> Loss:  one_hot_mse
Batch 10	 CrossEntropy 0.5509321689605713 (0.5651180744171143)
Batch 20	 CrossEntropy 0.5842483043670654 (0.5696729838848114)
Batch 30	 CrossEntropy 0.546068549156189 (0.5679470797379812)
Batch 40	 CrossEntropy 0.5794992446899414 (0.5692165479063988)
Finished. Total elapsed time (h:m:s): 0:19:46
- Test Epoch 162/200
  - Loss:  one_hot_mse
    Test Crossentropy: 18.976355281066894, Accuracy(multiclass): 0.5065
==> End Epoch 162/200
==> Start Epoch 163/200
====> Loss:  one_hot_mse
Batch 10	 CrossEntropy 0.5725032091140747 (0.5720409154891968)
Batch 20	 CrossEntropy 0.5769222974777222 (0.5718510419130325)
Batch 30	 CrossEntropy 0.5400285720825195 (0.5703718841075898)
Batch 40	 CrossEntropy 0.5753573179244995 (0.5725751563906669)
Finished. Total elapsed time (h:m:s): 0:19:53
- Test Epoch 163/200
  - Loss:  one_hot_mse
    Test Crossentropy: 19.094094231414793, Accuracy(multiclass): 0.5084
==> End Epoch 163/200
==> Start Epoch 164/200
====> Loss:  one_hot_mse
Batch 10	 CrossEntropy 0.5981051325798035 (0.5782819151878357)
Batch 20	 CrossEntropy 0.6047695279121399 (0.5783499985933304)
Batch 30	 CrossEntropy 0.5672675967216492 (0.5764305353164673)
Batch 40	 CrossEntropy 0.5920432806015015 (0.5775098681449891)
Finished. Total elapsed time (h:m:s): 0:20:00
- Test Epoch 164/200
  - Loss:  one_hot_mse
    Test Crossentropy: 19.43259273223877, Accuracy(multiclass): 0.505
==> End Epoch 164/200
==> Start Epoch 165/200
====> Loss:  one_hot_mse
Batch 10	 CrossEntropy 0.5664516687393188 (0.577684634923935)
Batch 20	 CrossEntropy 0.5784098505973816 (0.5799776941537857)
Batch 30	 CrossEntropy 0.5552434921264648 (0.5772648811340332)
Batch 40	 CrossEntropy 0.57858806848526 (0.5778196066617965)
Finished. Total elapsed time (h:m:s): 0:20:08
- Test Epoch 165/200
  - Loss:  one_hot_mse
    Test Crossentropy: 19.02335654373169, Accuracy(multiclass): 0.51
==> End Epoch 165/200
==> Start Epoch 166/200
====> Loss:  one_hot_mse
Batch 10	 CrossEntropy 0.5799242258071899 (0.5735460340976715)
Batch 20	 CrossEntropy 0.5717202425003052 (0.5719153344631195)
Batch 30	 CrossEntropy 0.5549483299255371 (0.5697938064734142)
Batch 40	 CrossEntropy 0.5741922855377197 (0.5716771975159645)
Finished. Total elapsed time (h:m:s): 0:20:15
- Test Epoch 166/200
  - Loss:  one_hot_mse
    Test Crossentropy: 19.13634857254028, Accuracy(multiclass): 0.5116
==> End Epoch 166/200
==> Start Epoch 167/200
====> Loss:  one_hot_mse
Batch 10	 CrossEntropy 0.5902732610702515 (0.5667957246303559)
Batch 20	 CrossEntropy 0.5770905613899231 (0.5693470984697342)
Batch 30	 CrossEntropy 0.556576132774353 (0.5675442695617676)
Batch 40	 CrossEntropy 0.5656371116638184 (0.5686289966106415)
Finished. Total elapsed time (h:m:s): 0:20:23
- Test Epoch 167/200
  - Loss:  one_hot_mse
    Test Crossentropy: 19.037103831481932, Accuracy(multiclass): 0.5068
==> End Epoch 167/200
==> Start Epoch 168/200
====> Loss:  one_hot_mse
Batch 10	 CrossEntropy 0.555780291557312 (0.5768824636936187)
Batch 20	 CrossEntropy 0.5322731733322144 (0.5689655900001526)
Batch 30	 CrossEntropy 0.5782813429832458 (0.5679564038912456)
Batch 40	 CrossEntropy 0.5759068131446838 (0.5669798642396927)
Finished. Total elapsed time (h:m:s): 0:20:30
- Test Epoch 168/200
  - Loss:  one_hot_mse
    Test Crossentropy: 19.407317120361327, Accuracy(multiclass): 0.507
==> End Epoch 168/200
==> Start Epoch 169/200
====> Loss:  one_hot_mse
Batch 10	 CrossEntropy 0.5837992429733276 (0.5750715732574463)
Batch 20	 CrossEntropy 0.5714409351348877 (0.571346539258957)
Batch 30	 CrossEntropy 0.5574657917022705 (0.5703790267308553)
Batch 40	 CrossEntropy 0.5484939813613892 (0.568411634862423)
Finished. Total elapsed time (h:m:s): 0:20:38
- Test Epoch 169/200
  - Loss:  one_hot_mse
    Test Crossentropy: 19.524848836517332, Accuracy(multiclass): 0.5102
==> End Epoch 169/200
==> Start Epoch 170/200
====> Loss:  one_hot_mse
Batch 10	 CrossEntropy 0.5636617541313171 (0.5676625609397888)
Batch 20	 CrossEntropy 0.5957247018814087 (0.5662146717309952)
Batch 30	 CrossEntropy 0.561965823173523 (0.56743523478508)
Batch 40	 CrossEntropy 0.5887230634689331 (0.5679490476846695)
Finished. Total elapsed time (h:m:s): 0:20:45
- Test Epoch 170/200
  - Loss:  one_hot_mse
    Test Crossentropy: 19.523000743103026, Accuracy(multiclass): 0.5057
----set best weight to orig_model
  --winner: one_hot_mse (0)
==> End Epoch 170/200
==> Start Epoch 171/200
----clone orig_model
====> Loss:  one_hot_mse
Batch 10	 CrossEntropy 0.6465950608253479 (0.6280988156795502)
Batch 20	 CrossEntropy 0.5749744176864624 (0.6179210841655731)
Batch 30	 CrossEntropy 0.5695468783378601 (0.6102764666080475)
Batch 40	 CrossEntropy 0.5726433992385864 (0.6023885548114777)
Finished. Total elapsed time (h:m:s): 0:20:52
- Test Epoch 171/200
  - Loss:  one_hot_mse
    Test Crossentropy: 19.356662971496583, Accuracy(multiclass): 0.5085
==> End Epoch 171/200
==> Start Epoch 172/200
====> Loss:  one_hot_mse
Batch 10	 CrossEntropy 0.5723891258239746 (0.5670590162277221)
Batch 20	 CrossEntropy 0.5862970948219299 (0.5674105435609818)
Batch 30	 CrossEntropy 0.5783988237380981 (0.567983889579773)
Batch 40	 CrossEntropy 0.5598940253257751 (0.5663825526833535)
Finished. Total elapsed time (h:m:s): 0:20:59
- Test Epoch 172/200
  - Loss:  one_hot_mse
    Test Crossentropy: 19.307656276702883, Accuracy(multiclass): 0.5053
==> End Epoch 172/200
==> Start Epoch 173/200
====> Loss:  one_hot_mse
Batch 10	 CrossEntropy 0.5670533180236816 (0.5685576915740966)
Batch 20	 CrossEntropy 0.5995998382568359 (0.5710594415664673)
Batch 30	 CrossEntropy 0.5571686625480652 (0.5649153927961985)
Batch 40	 CrossEntropy 0.574161171913147 (0.5663907378911972)
Finished. Total elapsed time (h:m:s): 0:21:07
- Test Epoch 173/200
  - Loss:  one_hot_mse
    Test Crossentropy: 19.743696517944336, Accuracy(multiclass): 0.5082
==> End Epoch 173/200
==> Start Epoch 174/200
====> Loss:  one_hot_mse
Batch 10	 CrossEntropy 0.5727828741073608 (0.5694505751132966)
Batch 20	 CrossEntropy 0.570931613445282 (0.5683496534824372)
Batch 30	 CrossEntropy 0.6049755811691284 (0.5656261126200358)
Batch 40	 CrossEntropy 0.5726555585861206 (0.5645993381738663)
Finished. Total elapsed time (h:m:s): 0:21:14
- Test Epoch 174/200
  - Loss:  one_hot_mse
    Test Crossentropy: 20.001188655853273, Accuracy(multiclass): 0.5112
==> End Epoch 174/200
==> Start Epoch 175/200
====> Loss:  one_hot_mse
Batch 10	 CrossEntropy 0.5780870318412781 (0.5759892165660858)
Batch 20	 CrossEntropy 0.5565887093544006 (0.5693680942058563)
Batch 30	 CrossEntropy 0.5740081667900085 (0.5665977160135905)
Batch 40	 CrossEntropy 0.5830255746841431 (0.5676493018865585)
Finished. Total elapsed time (h:m:s): 0:21:21
- Test Epoch 175/200
  - Loss:  one_hot_mse
    Test Crossentropy: 19.41945271835327, Accuracy(multiclass): 0.508
==> End Epoch 175/200
==> Start Epoch 176/200
====> Loss:  one_hot_mse
Batch 10	 CrossEntropy 0.55430006980896 (0.5621735334396363)
Batch 20	 CrossEntropy 0.5464743375778198 (0.5630179971456528)
Batch 30	 CrossEntropy 0.5531270503997803 (0.5633524099985758)
Batch 40	 CrossEntropy 0.5538634061813354 (0.5654097586870194)
Finished. Total elapsed time (h:m:s): 0:21:28
- Test Epoch 176/200
  - Loss:  one_hot_mse
    Test Crossentropy: 20.182944724273682, Accuracy(multiclass): 0.5085
==> End Epoch 176/200
==> Start Epoch 177/200
====> Loss:  one_hot_mse
Batch 10	 CrossEntropy 0.5994212627410889 (0.5791743457317352)
Batch 20	 CrossEntropy 0.5477306842803955 (0.5717217147350311)
Batch 30	 CrossEntropy 0.5627981424331665 (0.5701703190803528)
Batch 40	 CrossEntropy 0.5570278167724609 (0.5653356701135636)
Finished. Total elapsed time (h:m:s): 0:21:35
- Test Epoch 177/200
  - Loss:  one_hot_mse
    Test Crossentropy: 19.961021591186523, Accuracy(multiclass): 0.5088
==> End Epoch 177/200
==> Start Epoch 178/200
====> Loss:  one_hot_mse
Batch 10	 CrossEntropy 0.559295654296875 (0.5661317586898804)
Batch 20	 CrossEntropy 0.5641254186630249 (0.5626654893159866)
Batch 30	 CrossEntropy 0.5774579048156738 (0.5616076648235321)
Batch 40	 CrossEntropy 0.5604194402694702 (0.5652625262737274)
Finished. Total elapsed time (h:m:s): 0:21:43
- Test Epoch 178/200
  - Loss:  one_hot_mse
    Test Crossentropy: 19.7683977684021, Accuracy(multiclass): 0.5093
==> End Epoch 178/200
==> Start Epoch 179/200
====> Loss:  one_hot_mse
Batch 10	 CrossEntropy 0.5571800470352173 (0.5686852335929871)
Batch 20	 CrossEntropy 0.5506248474121094 (0.5676031708717346)
Batch 30	 CrossEntropy 0.5769288539886475 (0.5677203953266143)
Batch 40	 CrossEntropy 0.5484280586242676 (0.5671161368489266)
Finished. Total elapsed time (h:m:s): 0:21:50
- Test Epoch 179/200
  - Loss:  one_hot_mse
    Test Crossentropy: 20.039064849853517, Accuracy(multiclass): 0.5079
==> End Epoch 179/200
==> Start Epoch 180/200
====> Loss:  one_hot_mse
Batch 10	 CrossEntropy 0.5708754062652588 (0.5661774814128876)
Batch 20	 CrossEntropy 0.544962465763092 (0.5633897393941879)
Batch 30	 CrossEntropy 0.533618688583374 (0.5639585157235464)
Batch 40	 CrossEntropy 0.5866950750350952 (0.564765365421772)
Finished. Total elapsed time (h:m:s): 0:21:58
- Test Epoch 180/200
  - Loss:  one_hot_mse
    Test Crossentropy: 20.42004822692871, Accuracy(multiclass): 0.5042
----set best weight to orig_model
  --winner: one_hot_mse (0)
==> End Epoch 180/200
==> Start Epoch 181/200
----clone orig_model
====> Loss:  one_hot_mse
Batch 10	 CrossEntropy 0.598345935344696 (0.616881936788559)
Batch 20	 CrossEntropy 0.5636087656021118 (0.5973845094442367)
Batch 30	 CrossEntropy 0.5525226593017578 (0.5900438328584036)
Batch 40	 CrossEntropy 0.5587111711502075 (0.5825159892439842)
Finished. Total elapsed time (h:m:s): 0:22:05
- Test Epoch 181/200
  - Loss:  one_hot_mse
    Test Crossentropy: 20.030806615447997, Accuracy(multiclass): 0.5085
==> End Epoch 181/200
==> Start Epoch 182/200
====> Loss:  one_hot_mse
Batch 10	 CrossEntropy 0.5760840773582458 (0.5768375217914581)
Batch 20	 CrossEntropy 0.5566359758377075 (0.5680833518505096)
Batch 30	 CrossEntropy 0.5736278295516968 (0.5664413829644521)
Batch 40	 CrossEntropy 0.576528787612915 (0.5645849794149399)
Finished. Total elapsed time (h:m:s): 0:22:12
- Test Epoch 182/200
  - Loss:  one_hot_mse
    Test Crossentropy: 20.27224605331421, Accuracy(multiclass): 0.5087
==> End Epoch 182/200
==> Start Epoch 183/200
====> Loss:  one_hot_mse
Batch 10	 CrossEntropy 0.5637223720550537 (0.5637685894966126)
Batch 20	 CrossEntropy 0.5560221076011658 (0.5611918985843658)
Batch 30	 CrossEntropy 0.5684874653816223 (0.5622924029827118)
Batch 40	 CrossEntropy 0.5663809776306152 (0.5636545687913894)
Finished. Total elapsed time (h:m:s): 0:22:19
- Test Epoch 183/200
  - Loss:  one_hot_mse
    Test Crossentropy: 20.660347115325926, Accuracy(multiclass): 0.5089
==> End Epoch 183/200
==> Start Epoch 184/200
====> Loss:  one_hot_mse
Batch 10	 CrossEntropy 0.5612108707427979 (0.5592274725437164)
Batch 20	 CrossEntropy 0.5503742694854736 (0.558637535572052)
Batch 30	 CrossEntropy 0.552747368812561 (0.563205999135971)
Batch 40	 CrossEntropy 0.5528296232223511 (0.5632757380604744)
Finished. Total elapsed time (h:m:s): 0:22:26
- Test Epoch 184/200
  - Loss:  one_hot_mse
    Test Crossentropy: 20.33437281036377, Accuracy(multiclass): 0.5087
==> End Epoch 184/200
==> Start Epoch 185/200
====> Loss:  one_hot_mse
Batch 10	 CrossEntropy 0.5737682580947876 (0.5627646625041962)
Batch 20	 CrossEntropy 0.5521315336227417 (0.5614110916852951)
Batch 30	 CrossEntropy 0.5920736789703369 (0.5618450979391734)
Batch 40	 CrossEntropy 0.5380735397338867 (0.5612651452422142)
Finished. Total elapsed time (h:m:s): 0:22:33
- Test Epoch 185/200
  - Loss:  one_hot_mse
    Test Crossentropy: 20.342682095336915, Accuracy(multiclass): 0.5104
==> End Epoch 185/200
==> Start Epoch 186/200
====> Loss:  one_hot_mse
Batch 10	 CrossEntropy 0.5719238519668579 (0.5588156759738923)
Batch 20	 CrossEntropy 0.5623138546943665 (0.5577051341533661)
Batch 30	 CrossEntropy 0.5614375472068787 (0.555864546696345)
Batch 40	 CrossEntropy 0.5530148148536682 (0.5570155337452889)
Finished. Total elapsed time (h:m:s): 0:22:41
- Test Epoch 186/200
  - Loss:  one_hot_mse
    Test Crossentropy: 20.53365258102417, Accuracy(multiclass): 0.5108
==> End Epoch 186/200
==> Start Epoch 187/200
====> Loss:  one_hot_mse
Batch 10	 CrossEntropy 0.5720958113670349 (0.5601059913635253)
Batch 20	 CrossEntropy 0.5519077181816101 (0.560139399766922)
Batch 30	 CrossEntropy 0.5615771412849426 (0.5632705132166544)
Batch 40	 CrossEntropy 0.5623413324356079 (0.5629030480980873)
Finished. Total elapsed time (h:m:s): 0:22:48
- Test Epoch 187/200
  - Loss:  one_hot_mse
    Test Crossentropy: 20.337570330810546, Accuracy(multiclass): 0.5101
==> End Epoch 187/200
==> Start Epoch 188/200
====> Loss:  one_hot_mse
Batch 10	 CrossEntropy 0.5430012345314026 (0.5570573925971984)
Batch 20	 CrossEntropy 0.5611209869384766 (0.5568918615579606)
Batch 30	 CrossEntropy 0.5341533422470093 (0.558571207523346)
Batch 40	 CrossEntropy 0.5497127771377563 (0.5580368578433991)
Finished. Total elapsed time (h:m:s): 0:22:56
- Test Epoch 188/200
  - Loss:  one_hot_mse
    Test Crossentropy: 20.95594083251953, Accuracy(multiclass): 0.5116
==> End Epoch 188/200
==> Start Epoch 189/200
====> Loss:  one_hot_mse
Batch 10	 CrossEntropy 0.5508258938789368 (0.5542410969734192)
Batch 20	 CrossEntropy 0.5217121839523315 (0.5522836536169052)
Batch 30	 CrossEntropy 0.571694552898407 (0.5554909845193227)
Batch 40	 CrossEntropy 0.5419491529464722 (0.5560475319623948)
Finished. Total elapsed time (h:m:s): 0:23:03
- Test Epoch 189/200
  - Loss:  one_hot_mse
    Test Crossentropy: 20.989625022125246, Accuracy(multiclass): 0.5112
==> End Epoch 189/200
==> Start Epoch 190/200
====> Loss:  one_hot_mse
Batch 10	 CrossEntropy 0.5568156838417053 (0.56060009598732)
Batch 20	 CrossEntropy 0.5735148191452026 (0.5596464604139328)
Batch 30	 CrossEntropy 0.5559624433517456 (0.5562259296576182)
Batch 40	 CrossEntropy 0.5758383274078369 (0.5575689256191254)
Finished. Total elapsed time (h:m:s): 0:23:10
- Test Epoch 190/200
  - Loss:  one_hot_mse
    Test Crossentropy: 20.727996013641356, Accuracy(multiclass): 0.5094
----set best weight to orig_model
  --winner: one_hot_mse (0)
==> End Epoch 190/200
==> Start Epoch 191/200
----clone orig_model
====> Loss:  one_hot_mse
Batch 10	 CrossEntropy 0.5703412294387817 (0.5896834850311279)
Batch 20	 CrossEntropy 0.5711818337440491 (0.5813235074281693)
Batch 30	 CrossEntropy 0.5767341256141663 (0.5778932472070059)
Batch 40	 CrossEntropy 0.556847333908081 (0.5751102700829506)
Finished. Total elapsed time (h:m:s): 0:23:18
- Test Epoch 191/200
  - Loss:  one_hot_mse
    Test Crossentropy: 20.859314451599122, Accuracy(multiclass): 0.5086
==> End Epoch 191/200
==> Start Epoch 192/200
====> Loss:  one_hot_mse
Batch 10	 CrossEntropy 0.5761196613311768 (0.5640407800674438)
Batch 20	 CrossEntropy 0.5575810670852661 (0.5634417116641999)
Batch 30	 CrossEntropy 0.5547884106636047 (0.5601117849349976)
Batch 40	 CrossEntropy 0.5645882487297058 (0.5589730277657509)
Finished. Total elapsed time (h:m:s): 0:23:26
- Test Epoch 192/200
  - Loss:  one_hot_mse
    Test Crossentropy: 21.068887659454347, Accuracy(multiclass): 0.5101
==> End Epoch 192/200
==> Start Epoch 193/200
====> Loss:  one_hot_mse
Batch 10	 CrossEntropy 0.5786573886871338 (0.5628108263015748)
Batch 20	 CrossEntropy 0.5469293594360352 (0.5546964019536972)
Batch 30	 CrossEntropy 0.5546424984931946 (0.5577626466751099)
Batch 40	 CrossEntropy 0.5664253234863281 (0.5577678963541984)
Finished. Total elapsed time (h:m:s): 0:23:33
- Test Epoch 193/200
  - Loss:  one_hot_mse
    Test Crossentropy: 21.16652674255371, Accuracy(multiclass): 0.5102
==> End Epoch 193/200
==> Start Epoch 194/200
====> Loss:  one_hot_mse
Batch 10	 CrossEntropy 0.5475512742996216 (0.5560488343238831)
Batch 20	 CrossEntropy 0.5653107166290283 (0.5574412077665329)
Batch 30	 CrossEntropy 0.5476131439208984 (0.5554475843906402)
Batch 40	 CrossEntropy 0.5645390748977661 (0.5566743522882461)
Finished. Total elapsed time (h:m:s): 0:23:40
- Test Epoch 194/200
  - Loss:  one_hot_mse
    Test Crossentropy: 20.94138387298584, Accuracy(multiclass): 0.5087
==> End Epoch 194/200
==> Start Epoch 195/200
====> Loss:  one_hot_mse
Batch 10	 CrossEntropy 0.5366417169570923 (0.5619457125663757)
Batch 20	 CrossEntropy 0.5589081645011902 (0.5566981792449951)
Batch 30	 CrossEntropy 0.5222592353820801 (0.5539718568325043)
Batch 40	 CrossEntropy 0.568518877029419 (0.5567780002951622)
Finished. Total elapsed time (h:m:s): 0:23:46
- Test Epoch 195/200
  - Loss:  one_hot_mse
    Test Crossentropy: 21.029792643737792, Accuracy(multiclass): 0.509
==> End Epoch 195/200
==> Start Epoch 196/200
====> Loss:  one_hot_mse
Batch 10	 CrossEntropy 0.5625560283660889 (0.556645292043686)
Batch 20	 CrossEntropy 0.5500184297561646 (0.5598329305648804)
Batch 30	 CrossEntropy 0.5610740184783936 (0.560804295539856)
Batch 40	 CrossEntropy 0.5509827136993408 (0.5606202200055123)
Finished. Total elapsed time (h:m:s): 0:23:52
- Test Epoch 196/200
  - Loss:  one_hot_mse
    Test Crossentropy: 21.387992251586915, Accuracy(multiclass): 0.5084
==> End Epoch 196/200
==> Start Epoch 197/200
====> Loss:  one_hot_mse
Batch 10	 CrossEntropy 0.5577470064163208 (0.5577853202819825)
Batch 20	 CrossEntropy 0.5625616908073425 (0.5585793524980545)
Batch 30	 CrossEntropy 0.5711240768432617 (0.5603563765684764)
Batch 40	 CrossEntropy 0.555249035358429 (0.5589254841208458)
Finished. Total elapsed time (h:m:s): 0:23:58
- Test Epoch 197/200
  - Loss:  one_hot_mse
    Test Crossentropy: 21.377405417633057, Accuracy(multiclass): 0.5093
==> End Epoch 197/200
==> Start Epoch 198/200
====> Loss:  one_hot_mse
Batch 10	 CrossEntropy 0.5423053503036499 (0.5663101673126221)
Batch 20	 CrossEntropy 0.5758427381515503 (0.5653370976448059)
Batch 30	 CrossEntropy 0.5188006162643433 (0.5610862155755361)
Batch 40	 CrossEntropy 0.5378075838088989 (0.5588792651891709)
Finished. Total elapsed time (h:m:s): 0:24:03
- Test Epoch 198/200
  - Loss:  one_hot_mse
    Test Crossentropy: 21.168300479888916, Accuracy(multiclass): 0.5098
==> End Epoch 198/200
==> Start Epoch 199/200
====> Loss:  one_hot_mse
Batch 10	 CrossEntropy 0.5750546455383301 (0.5642093598842621)
Batch 20	 CrossEntropy 0.5500408411026001 (0.5584801465272904)
Batch 30	 CrossEntropy 0.5429067611694336 (0.5555250962575277)
Batch 40	 CrossEntropy 0.5521640181541443 (0.5546362042427063)
Finished. Total elapsed time (h:m:s): 0:24:09
- Test Epoch 199/200
  - Loss:  one_hot_mse
    Test Crossentropy: 21.603938218688963, Accuracy(multiclass): 0.5107
==> End Epoch 199/200
==> Start Epoch 200/200
====> Loss:  one_hot_mse
Batch 10	 CrossEntropy 0.550402045249939 (0.5634179413318634)
Batch 20	 CrossEntropy 0.5393872857093811 (0.5597701519727707)
Batch 30	 CrossEntropy 0.5430704355239868 (0.5578598558902741)
Batch 40	 CrossEntropy 0.5430121421813965 (0.5577856659889221)
Finished. Total elapsed time (h:m:s): 0:24:15
- Test Epoch 200/200
  - Loss:  one_hot_mse
    Test Crossentropy: 21.36507368850708, Accuracy(multiclass): 0.5114
----set best weight to orig_model
  --winner: one_hot_mse (0)
==> End Epoch 200/200
